{
  "description": "APIResourceList is a list of APIResource, it is used to expose the name of the resources supported in a specific group and version, and if the resource is namespaced.",
  "properties": {
    "apiVersion": {
      "description": "APIVersion defines the versioned schema of this representation of an object. Servers should convert recognized schemas to the latest internal value, and may reject unrecognized values. More info: https://git.k8s.io/community/contributors/devel/sig-architecture/api-conventions.md#resources",
      "type": [
        "string",
        "null"
      ]
    },
    "groupVersion": {
      "description": "groupVersion is the group and version this APIResourceList is for.",
      "type": [
        "string",
        "null"
      ]
    },
    "kind": {
      "description": "Kind is a string value representing the REST resource this object represents. Servers may infer this from the endpoint the client submits requests to. Cannot be updated. In CamelCase. More info: https://git.k8s.io/community/contributors/devel/sig-architecture/api-conventions.md#types-kinds",
      "type": [
        "string",
        "null"
      ],
      "enum": [
        "APIResourceList"
      ]
    },
    "resources": {
      "description": "resources contains the name of the resources and if they are namespaced.",
      "items": {
        "$ref": "https://raw.githubusercontent.com/yannh/kubernetes-json-schema/master/v1.16.12/_definitions.json#/definitions/io.k8s.apimachinery.pkg.apis.meta.v1.APIResource"
      },
      "type": [
        "array",
        "null"
      ]
    }
  },
  "required": [
    "groupVersion",
    "resources"
  ],
  "type": "object",
  "x-kubernetes-group-version-kind": [
    {
      "group": "",
      "kind": "APIResourceList",
      "version": "v1"
    }
  ],
  "$schema": "http://json-schema.org/schema#"
}