{
  "description": "Describes a certificate signing request",
  "properties": {
    "apiVersion": {
      "description": "APIVersion defines the versioned schema of this representation of an object. Servers should convert recognized schemas to the latest internal value, and may reject unrecognized values. More info: https://git.k8s.io/community/contributors/devel/sig-architecture/api-conventions.md#resources",
      "type": [
        "string",
        "null"
      ]
    },
    "kind": {
      "description": "Kind is a string value representing the REST resource this object represents. Servers may infer this from the endpoint the client submits requests to. Cannot be updated. In CamelCase. More info: https://git.k8s.io/community/contributors/devel/sig-architecture/api-conventions.md#types-kinds",
      "type": [
        "string",
        "null"
      ],
      "enum": [
        "CertificateSigningRequest"
      ]
    },
    "metadata": {
      "$ref": "https://raw.githubusercontent.com/yannh/kubernetes-json-schema/master/v1.18.9/_definitions.json#/definitions/io.k8s.apimachinery.pkg.apis.meta.v1.ObjectMeta"
    },
    "spec": {
      "$ref": "https://raw.githubusercontent.com/yannh/kubernetes-json-schema/master/v1.18.9/_definitions.json#/definitions/io.k8s.api.certificates.v1beta1.CertificateSigningRequestSpec",
      "description": "The certificate request itself and any additional information."
    },
    "status": {
      "$ref": "https://raw.githubusercontent.com/yannh/kubernetes-json-schema/master/v1.18.9/_definitions.json#/definitions/io.k8s.api.certificates.v1beta1.CertificateSigningRequestStatus",
      "description": "Derived information about the request."
    }
  },
  "type": "object",
  "x-kubernetes-group-version-kind": [
    {
      "group": "certificates.k8s.io",
      "kind": "CertificateSigningRequest",
      "version": "v1beta1"
    }
  ],
  "$schema": "http://json-schema.org/schema#"
}