{
  "description": "CustomResourceDefinitionStatus indicates the state of the CustomResourceDefinition",
  "properties": {
    "acceptedNames": {
      "$ref": "https://raw.githubusercontent.com/yannh/kubernetes-json-schema/master/v1.16.9/_definitions.json#/definitions/io.k8s.apiextensions-apiserver.pkg.apis.apiextensions.v1beta1.CustomResourceDefinitionNames",
      "description": "acceptedNames are the names that are actually being used to serve discovery. They may be different than the names in spec."
    },
    "conditions": {
      "description": "conditions indicate state for particular aspects of a CustomResourceDefinition",
      "items": {
        "$ref": "https://raw.githubusercontent.com/yannh/kubernetes-json-schema/master/v1.16.9/_definitions.json#/definitions/io.k8s.apiextensions-apiserver.pkg.apis.apiextensions.v1beta1.CustomResourceDefinitionCondition"
      },
      "type": [
        "array",
        "null"
      ]
    },
    "storedVersions": {
      "description": "storedVersions lists all versions of CustomResources that were ever persisted. Tracking these versions allows a migration path for stored versions in etcd. The field is mutable so a migration controller can finish a migration to another version (ensuring no old objects are left in storage), and then remove the rest of the versions from this list. Versions may not be removed from `spec.versions` while they exist in this list.",
      "items": {
        "type": [
          "string",
          "null"
        ]
      },
      "type": [
        "array",
        "null"
      ]
    }
  },
  "required": [
    "acceptedNames",
    "storedVersions"
  ],
  "type": "object",
  "$schema": "http://json-schema.org/schema#"
}