{
  "description": "PodDisruptionBudgetSpec is a description of a PodDisruptionBudget.",
  "properties": {
    "maxUnavailable": {
      "$ref": "https://raw.githubusercontent.com/yannh/kubernetes-json-schema/master/v1.16.9/_definitions.json#/definitions/io.k8s.apimachinery.pkg.util.intstr.IntOrString",
      "description": "An eviction is allowed if at most \"maxUnavailable\" pods selected by \"selector\" are unavailable after the eviction, i.e. even in absence of the evicted pod. For example, one can prevent all voluntary evictions by specifying 0. This is a mutually exclusive setting with \"minAvailable\"."
    },
    "minAvailable": {
      "$ref": "https://raw.githubusercontent.com/yannh/kubernetes-json-schema/master/v1.16.9/_definitions.json#/definitions/io.k8s.apimachinery.pkg.util.intstr.IntOrString",
      "description": "An eviction is allowed if at least \"minAvailable\" pods selected by \"selector\" will still be available after the eviction, i.e. even in the absence of the evicted pod.  So for example you can prevent all voluntary evictions by specifying \"100%\"."
    },
    "selector": {
      "$ref": "https://raw.githubusercontent.com/yannh/kubernetes-json-schema/master/v1.16.9/_definitions.json#/definitions/io.k8s.apimachinery.pkg.apis.meta.v1.LabelSelector",
      "description": "Label query over pods whose evictions are managed by the disruption budget."
    }
  },
  "type": "object",
  "$schema": "http://json-schema.org/schema#"
}