{
  "description": "PersistentVolumeList is a list of PersistentVolume items.",
  "properties": {
    "apiVersion": {
      "description": "APIVersion defines the versioned schema of this representation of an object. Servers should convert recognized schemas to the latest internal value, and may reject unrecognized values. More info: https://git.k8s.io/community/contributors/devel/sig-architecture/api-conventions.md#resources",
      "type": [
        "string",
        "null"
      ]
    },
    "items": {
      "description": "List of persistent volumes. More info: https://kubernetes.io/docs/concepts/storage/persistent-volumes",
      "items": {
        "description": "PersistentVolume (PV) is a storage resource provisioned by an administrator. It is analogous to a node. More info: https://kubernetes.io/docs/concepts/storage/persistent-volumes",
        "properties": {
          "apiVersion": {
            "description": "APIVersion defines the versioned schema of this representation of an object. Servers should convert recognized schemas to the latest internal value, and may reject unrecognized values. More info: https://git.k8s.io/community/contributors/devel/sig-architecture/api-conventions.md#resources",
            "type": [
              "string",
              "null"
            ]
          },
          "kind": {
            "description": "Kind is a string value representing the REST resource this object represents. Servers may infer this from the endpoint the client submits requests to. Cannot be updated. In CamelCase. More info: https://git.k8s.io/community/contributors/devel/sig-architecture/api-conventions.md#types-kinds",
            "type": [
              "string",
              "null"
            ],
            "enum": [
              "PersistentVolume"
            ]
          },
          "metadata": {
            "description": "ObjectMeta is metadata that all persisted resources must have, which includes all objects users must create.",
            "properties": {
              "annotations": {
                "additionalProperties": {
                  "type": [
                    "string",
                    "null"
                  ]
                },
                "description": "Annotations is an unstructured key value map stored with a resource that may be set by external tools to store and retrieve arbitrary metadata. They are not queryable and should be preserved when modifying objects. More info: http://kubernetes.io/docs/user-guide/annotations",
                "type": [
                  "object",
                  "null"
                ]
              },
              "clusterName": {
                "description": "The name of the cluster which the object belongs to. This is used to distinguish resources with same name and namespace in different clusters. This field is not set anywhere right now and apiserver is going to ignore it if set in create or update request.",
                "type": [
                  "string",
                  "null"
                ]
              },
              "creationTimestamp": {
                "description": "Time is a wrapper around time.Time which supports correct marshaling to YAML and JSON.  Wrappers are provided for many of the factory methods that the time package offers.",
                "format": "date-time",
                "type": [
                  "string",
                  "null"
                ]
              },
              "deletionGracePeriodSeconds": {
                "description": "Number of seconds allowed for this object to gracefully terminate before it will be removed from the system. Only set when deletionTimestamp is also set. May only be shortened. Read-only.",
                "format": "int64",
                "type": [
                  "integer",
                  "null"
                ]
              },
              "deletionTimestamp": {
                "description": "Time is a wrapper around time.Time which supports correct marshaling to YAML and JSON.  Wrappers are provided for many of the factory methods that the time package offers.",
                "format": "date-time",
                "type": [
                  "string",
                  "null"
                ]
              },
              "finalizers": {
                "description": "Must be empty before the object is deleted from the registry. Each entry is an identifier for the responsible component that will remove the entry from the list. If the deletionTimestamp of the object is non-nil, entries in this list can only be removed. Finalizers may be processed and removed in any order.  Order is NOT enforced because it introduces significant risk of stuck finalizers. finalizers is a shared field, any actor with permission can reorder it. If the finalizer list is processed in order, then this can lead to a situation in which the component responsible for the first finalizer in the list is waiting for a signal (field value, external system, or other) produced by a component responsible for a finalizer later in the list, resulting in a deadlock. Without enforced ordering finalizers are free to order amongst themselves and are not vulnerable to ordering changes in the list.",
                "items": {
                  "type": [
                    "string",
                    "null"
                  ]
                },
                "type": [
                  "array",
                  "null"
                ],
                "x-kubernetes-patch-strategy": "merge"
              },
              "generateName": {
                "description": "GenerateName is an optional prefix, used by the server, to generate a unique name ONLY IF the Name field has not been provided. If this field is used, the name returned to the client will be different than the name passed. This value will also be combined with a unique suffix. The provided value has the same validation rules as the Name field, and may be truncated by the length of the suffix required to make the value unique on the server.\n\nIf this field is specified and the generated name exists, the server will NOT return a 409 - instead, it will either return 201 Created or 500 with Reason ServerTimeout indicating a unique name could not be found in the time allotted, and the client should retry (optionally after the time indicated in the Retry-After header).\n\nApplied only if Name is not specified. More info: https://git.k8s.io/community/contributors/devel/sig-architecture/api-conventions.md#idempotency",
                "type": [
                  "string",
                  "null"
                ]
              },
              "generation": {
                "description": "A sequence number representing a specific generation of the desired state. Populated by the system. Read-only.",
                "format": "int64",
                "type": [
                  "integer",
                  "null"
                ]
              },
              "labels": {
                "additionalProperties": {
                  "type": [
                    "string",
                    "null"
                  ]
                },
                "description": "Map of string keys and values that can be used to organize and categorize (scope and select) objects. May match selectors of replication controllers and services. More info: http://kubernetes.io/docs/user-guide/labels",
                "type": [
                  "object",
                  "null"
                ]
              },
              "managedFields": {
                "description": "ManagedFields maps workflow-id and version to the set of fields that are managed by that workflow. This is mostly for internal housekeeping, and users typically shouldn't need to set or understand this field. A workflow can be the user's name, a controller's name, or the name of a specific apply path like \"ci-cd\". The set of fields is always in the version that the workflow used when modifying the object.",
                "items": {
                  "description": "ManagedFieldsEntry is a workflow-id, a FieldSet and the group version of the resource that the fieldset applies to.",
                  "properties": {
                    "apiVersion": {
                      "description": "APIVersion defines the version of this resource that this field set applies to. The format is \"group/version\" just like the top-level APIVersion field. It is necessary to track the version of a field set because it cannot be automatically converted.",
                      "type": [
                        "string",
                        "null"
                      ]
                    },
                    "fieldsType": {
                      "description": "FieldsType is the discriminator for the different fields format and version. There is currently only one possible value: \"FieldsV1\"",
                      "type": [
                        "string",
                        "null"
                      ]
                    },
                    "fieldsV1": {
                      "description": "FieldsV1 stores a set of fields in a data structure like a Trie, in JSON format.\n\nEach key is either a '.' representing the field itself, and will always map to an empty set, or a string representing a sub-field or item. The string will follow one of these four formats: 'f:<name>', where <name> is the name of a field in a struct, or key in a map 'v:<value>', where <value> is the exact json formatted value of a list item 'i:<index>', where <index> is position of a item in a list 'k:<keys>', where <keys> is a map of  a list item's key fields to their unique values If a key maps to an empty Fields value, the field that key represents is part of the set.\n\nThe exact format is defined in sigs.k8s.io/structured-merge-diff",
                      "type": [
                        "object",
                        "null"
                      ]
                    },
                    "manager": {
                      "description": "Manager is an identifier of the workflow managing these fields.",
                      "type": [
                        "string",
                        "null"
                      ]
                    },
                    "operation": {
                      "description": "Operation is the type of operation which lead to this ManagedFieldsEntry being created. The only valid values for this field are 'Apply' and 'Update'.",
                      "type": [
                        "string",
                        "null"
                      ]
                    },
                    "subresource": {
                      "description": "Subresource is the name of the subresource used to update that object, or empty string if the object was updated through the main resource. The value of this field is used to distinguish between managers, even if they share the same name. For example, a status update will be distinct from a regular update using the same manager name. Note that the APIVersion field is not related to the Subresource field and it always corresponds to the version of the main resource.",
                      "type": [
                        "string",
                        "null"
                      ]
                    },
                    "time": {
                      "description": "Time is a wrapper around time.Time which supports correct marshaling to YAML and JSON.  Wrappers are provided for many of the factory methods that the time package offers.",
                      "format": "date-time",
                      "type": [
                        "string",
                        "null"
                      ]
                    }
                  },
                  "type": [
                    "object",
                    "null"
                  ]
                },
                "type": [
                  "array",
                  "null"
                ]
              },
              "name": {
                "description": "Name must be unique within a namespace. Is required when creating resources, although some resources may allow a client to request the generation of an appropriate name automatically. Name is primarily intended for creation idempotence and configuration definition. Cannot be updated. More info: http://kubernetes.io/docs/user-guide/identifiers#names",
                "type": [
                  "string",
                  "null"
                ]
              },
              "namespace": {
                "description": "Namespace defines the space within which each name must be unique. An empty namespace is equivalent to the \"default\" namespace, but \"default\" is the canonical representation. Not all objects are required to be scoped to a namespace - the value of this field for those objects will be empty.\n\nMust be a DNS_LABEL. Cannot be updated. More info: http://kubernetes.io/docs/user-guide/namespaces",
                "type": [
                  "string",
                  "null"
                ]
              },
              "ownerReferences": {
                "description": "List of objects depended by this object. If ALL objects in the list have been deleted, this object will be garbage collected. If this object is managed by a controller, then an entry in this list will point to this controller, with the controller field set to true. There cannot be more than one managing controller.",
                "items": {
                  "description": "OwnerReference contains enough information to let you identify an owning object. An owning object must be in the same namespace as the dependent, or be cluster-scoped, so there is no namespace field.",
                  "properties": {
                    "apiVersion": {
                      "description": "API version of the referent.",
                      "type": "string"
                    },
                    "blockOwnerDeletion": {
                      "description": "If true, AND if the owner has the \"foregroundDeletion\" finalizer, then the owner cannot be deleted from the key-value store until this reference is removed. Defaults to false. To set this field, a user needs \"delete\" permission of the owner, otherwise 422 (Unprocessable Entity) will be returned.",
                      "type": [
                        "boolean",
                        "null"
                      ]
                    },
                    "controller": {
                      "description": "If true, this reference points to the managing controller.",
                      "type": [
                        "boolean",
                        "null"
                      ]
                    },
                    "kind": {
                      "description": "Kind of the referent. More info: https://git.k8s.io/community/contributors/devel/sig-architecture/api-conventions.md#types-kinds",
                      "type": "string"
                    },
                    "name": {
                      "description": "Name of the referent. More info: http://kubernetes.io/docs/user-guide/identifiers#names",
                      "type": "string"
                    },
                    "uid": {
                      "description": "UID of the referent. More info: http://kubernetes.io/docs/user-guide/identifiers#uids",
                      "type": "string"
                    }
                  },
                  "required": [
                    "apiVersion",
                    "kind",
                    "name",
                    "uid"
                  ],
                  "type": [
                    "object",
                    "null"
                  ],
                  "x-kubernetes-map-type": "atomic"
                },
                "type": [
                  "array",
                  "null"
                ],
                "x-kubernetes-patch-merge-key": "uid",
                "x-kubernetes-patch-strategy": "merge"
              },
              "resourceVersion": {
                "description": "An opaque value that represents the internal version of this object that can be used by clients to determine when objects have changed. May be used for optimistic concurrency, change detection, and the watch operation on a resource or set of resources. Clients must treat these values as opaque and passed unmodified back to the server. They may only be valid for a particular resource or set of resources.\n\nPopulated by the system. Read-only. Value must be treated as opaque by clients and . More info: https://git.k8s.io/community/contributors/devel/sig-architecture/api-conventions.md#concurrency-control-and-consistency",
                "type": [
                  "string",
                  "null"
                ]
              },
              "selfLink": {
                "description": "SelfLink is a URL representing this object. Populated by the system. Read-only.\n\nDEPRECATED Kubernetes will stop propagating this field in 1.20 release and the field is planned to be removed in 1.21 release.",
                "type": [
                  "string",
                  "null"
                ]
              },
              "uid": {
                "description": "UID is the unique in time and space value for this object. It is typically generated by the server on successful creation of a resource and is not allowed to change on PUT operations.\n\nPopulated by the system. Read-only. More info: http://kubernetes.io/docs/user-guide/identifiers#uids",
                "type": [
                  "string",
                  "null"
                ]
              }
            },
            "type": [
              "object",
              "null"
            ]
          },
          "spec": {
            "description": "PersistentVolumeSpec is the specification of a persistent volume.",
            "properties": {
              "accessModes": {
                "description": "AccessModes contains all ways the volume can be mounted. More info: https://kubernetes.io/docs/concepts/storage/persistent-volumes#access-modes",
                "items": {
                  "type": [
                    "string",
                    "null"
                  ]
                },
                "type": [
                  "array",
                  "null"
                ]
              },
              "awsElasticBlockStore": {
                "description": "Represents a Persistent Disk resource in AWS.\n\nAn AWS EBS disk must exist before mounting to a container. The disk must also be in the same AWS zone as the kubelet. An AWS EBS disk can only be mounted as read/write once. AWS EBS volumes support ownership management and SELinux relabeling.",
                "properties": {
                  "fsType": {
                    "description": "Filesystem type of the volume that you want to mount. Tip: Ensure that the filesystem type is supported by the host operating system. Examples: \"ext4\", \"xfs\", \"ntfs\". Implicitly inferred to be \"ext4\" if unspecified. More info: https://kubernetes.io/docs/concepts/storage/volumes#awselasticblockstore",
                    "type": [
                      "string",
                      "null"
                    ]
                  },
                  "partition": {
                    "description": "The partition in the volume that you want to mount. If omitted, the default is to mount by volume name. Examples: For volume /dev/sda1, you specify the partition as \"1\". Similarly, the volume partition for /dev/sda is \"0\" (or you can leave the property empty).",
                    "format": "int32",
                    "type": [
                      "integer",
                      "null"
                    ]
                  },
                  "readOnly": {
                    "description": "Specify \"true\" to force and set the ReadOnly property in VolumeMounts to \"true\". If omitted, the default is \"false\". More info: https://kubernetes.io/docs/concepts/storage/volumes#awselasticblockstore",
                    "type": [
                      "boolean",
                      "null"
                    ]
                  },
                  "volumeID": {
                    "description": "Unique ID of the persistent disk resource in AWS (Amazon EBS volume). More info: https://kubernetes.io/docs/concepts/storage/volumes#awselasticblockstore",
                    "type": "string"
                  }
                },
                "required": [
                  "volumeID"
                ],
                "type": [
                  "object",
                  "null"
                ]
              },
              "azureDisk": {
                "description": "AzureDisk represents an Azure Data Disk mount on the host and bind mount to the pod.",
                "properties": {
                  "cachingMode": {
                    "description": "Host Caching mode: None, Read Only, Read Write.",
                    "type": [
                      "string",
                      "null"
                    ]
                  },
                  "diskName": {
                    "description": "The Name of the data disk in the blob storage",
                    "type": "string"
                  },
                  "diskURI": {
                    "description": "The URI the data disk in the blob storage",
                    "type": "string"
                  },
                  "fsType": {
                    "description": "Filesystem type to mount. Must be a filesystem type supported by the host operating system. Ex. \"ext4\", \"xfs\", \"ntfs\". Implicitly inferred to be \"ext4\" if unspecified.",
                    "type": [
                      "string",
                      "null"
                    ]
                  },
                  "kind": {
                    "description": "Expected values Shared: multiple blob disks per storage account  Dedicated: single blob disk per storage account  Managed: azure managed data disk (only in managed availability set). defaults to shared",
                    "type": [
                      "string",
                      "null"
                    ]
                  },
                  "readOnly": {
                    "description": "Defaults to false (read/write). ReadOnly here will force the ReadOnly setting in VolumeMounts.",
                    "type": [
                      "boolean",
                      "null"
                    ]
                  }
                },
                "required": [
                  "diskName",
                  "diskURI"
                ],
                "type": [
                  "object",
                  "null"
                ]
              },
              "azureFile": {
                "description": "AzureFile represents an Azure File Service mount on the host and bind mount to the pod.",
                "properties": {
                  "readOnly": {
                    "description": "Defaults to false (read/write). ReadOnly here will force the ReadOnly setting in VolumeMounts.",
                    "type": [
                      "boolean",
                      "null"
                    ]
                  },
                  "secretName": {
                    "description": "the name of secret that contains Azure Storage Account Name and Key",
                    "type": "string"
                  },
                  "secretNamespace": {
                    "description": "the namespace of the secret that contains Azure Storage Account Name and Key default is the same as the Pod",
                    "type": [
                      "string",
                      "null"
                    ]
                  },
                  "shareName": {
                    "description": "Share Name",
                    "type": "string"
                  }
                },
                "required": [
                  "secretName",
                  "shareName"
                ],
                "type": [
                  "object",
                  "null"
                ]
              },
              "capacity": {
                "additionalProperties": {
                  "oneOf": [
                    {
                      "type": [
                        "string",
                        "null"
                      ]
                    },
                    {
                      "type": [
                        "number",
                        "null"
                      ]
                    }
                  ]
                },
                "description": "A description of the persistent volume's resources and capacity. More info: https://kubernetes.io/docs/concepts/storage/persistent-volumes#capacity",
                "type": [
                  "object",
                  "null"
                ]
              },
              "cephfs": {
                "description": "Represents a Ceph Filesystem mount that lasts the lifetime of a pod Cephfs volumes do not support ownership management or SELinux relabeling.",
                "properties": {
                  "monitors": {
                    "description": "Required: Monitors is a collection of Ceph monitors More info: https://examples.k8s.io/volumes/cephfs/README.md#how-to-use-it",
                    "items": {
                      "type": [
                        "string",
                        "null"
                      ]
                    },
                    "type": "array"
                  },
                  "path": {
                    "description": "Optional: Used as the mounted root, rather than the full Ceph tree, default is /",
                    "type": [
                      "string",
                      "null"
                    ]
                  },
                  "readOnly": {
                    "description": "Optional: Defaults to false (read/write). ReadOnly here will force the ReadOnly setting in VolumeMounts. More info: https://examples.k8s.io/volumes/cephfs/README.md#how-to-use-it",
                    "type": [
                      "boolean",
                      "null"
                    ]
                  },
                  "secretFile": {
                    "description": "Optional: SecretFile is the path to key ring for User, default is /etc/ceph/user.secret More info: https://examples.k8s.io/volumes/cephfs/README.md#how-to-use-it",
                    "type": [
                      "string",
                      "null"
                    ]
                  },
                  "secretRef": {
                    "description": "SecretReference represents a Secret Reference. It has enough information to retrieve secret in any namespace",
                    "properties": {
                      "name": {
                        "description": "Name is unique within a namespace to reference a secret resource.",
                        "type": [
                          "string",
                          "null"
                        ]
                      },
                      "namespace": {
                        "description": "Namespace defines the space within which the secret name must be unique.",
                        "type": [
                          "string",
                          "null"
                        ]
                      }
                    },
                    "type": [
                      "object",
                      "null"
                    ],
                    "x-kubernetes-map-type": "atomic"
                  },
                  "user": {
                    "description": "Optional: User is the rados user name, default is admin More info: https://examples.k8s.io/volumes/cephfs/README.md#how-to-use-it",
                    "type": [
                      "string",
                      "null"
                    ]
                  }
                },
                "required": [
                  "monitors"
                ],
                "type": [
                  "object",
                  "null"
                ]
              },
              "cinder": {
                "description": "Represents a cinder volume resource in Openstack. A Cinder volume must exist before mounting to a container. The volume must also be in the same region as the kubelet. Cinder volumes support ownership management and SELinux relabeling.",
                "properties": {
                  "fsType": {
                    "description": "Filesystem type to mount. Must be a filesystem type supported by the host operating system. Examples: \"ext4\", \"xfs\", \"ntfs\". Implicitly inferred to be \"ext4\" if unspecified. More info: https://examples.k8s.io/mysql-cinder-pd/README.md",
                    "type": [
                      "string",
                      "null"
                    ]
                  },
                  "readOnly": {
                    "description": "Optional: Defaults to false (read/write). ReadOnly here will force the ReadOnly setting in VolumeMounts. More info: https://examples.k8s.io/mysql-cinder-pd/README.md",
                    "type": [
                      "boolean",
                      "null"
                    ]
                  },
                  "secretRef": {
                    "description": "SecretReference represents a Secret Reference. It has enough information to retrieve secret in any namespace",
                    "properties": {
                      "name": {
                        "description": "Name is unique within a namespace to reference a secret resource.",
                        "type": [
                          "string",
                          "null"
                        ]
                      },
                      "namespace": {
                        "description": "Namespace defines the space within which the secret name must be unique.",
                        "type": [
                          "string",
                          "null"
                        ]
                      }
                    },
                    "type": [
                      "object",
                      "null"
                    ],
                    "x-kubernetes-map-type": "atomic"
                  },
                  "volumeID": {
                    "description": "volume id used to identify the volume in cinder. More info: https://examples.k8s.io/mysql-cinder-pd/README.md",
                    "type": "string"
                  }
                },
                "required": [
                  "volumeID"
                ],
                "type": [
                  "object",
                  "null"
                ]
              },
              "claimRef": {
                "description": "ObjectReference contains enough information to let you inspect or modify the referred object.",
                "properties": {
                  "apiVersion": {
                    "description": "API version of the referent.",
                    "type": [
                      "string",
                      "null"
                    ]
                  },
                  "fieldPath": {
                    "description": "If referring to a piece of an object instead of an entire object, this string should contain a valid JSON/Go field access statement, such as desiredState.manifest.containers[2]. For example, if the object reference is to a container within a pod, this would take on a value like: \"spec.containers{name}\" (where \"name\" refers to the name of the container that triggered the event) or if no container name is specified \"spec.containers[2]\" (container with index 2 in this pod). This syntax is chosen only to have some well-defined way of referencing a part of an object.",
                    "type": [
                      "string",
                      "null"
                    ]
                  },
                  "kind": {
                    "description": "Kind of the referent. More info: https://git.k8s.io/community/contributors/devel/sig-architecture/api-conventions.md#types-kinds",
                    "type": [
                      "string",
                      "null"
                    ]
                  },
                  "name": {
                    "description": "Name of the referent. More info: https://kubernetes.io/docs/concepts/overview/working-with-objects/names/#names",
                    "type": [
                      "string",
                      "null"
                    ]
                  },
                  "namespace": {
                    "description": "Namespace of the referent. More info: https://kubernetes.io/docs/concepts/overview/working-with-objects/namespaces/",
                    "type": [
                      "string",
                      "null"
                    ]
                  },
                  "resourceVersion": {
                    "description": "Specific resourceVersion to which this reference is made, if any. More info: https://git.k8s.io/community/contributors/devel/sig-architecture/api-conventions.md#concurrency-control-and-consistency",
                    "type": [
                      "string",
                      "null"
                    ]
                  },
                  "uid": {
                    "description": "UID of the referent. More info: https://kubernetes.io/docs/concepts/overview/working-with-objects/names/#uids",
                    "type": [
                      "string",
                      "null"
                    ]
                  }
                },
                "type": [
                  "object",
                  "null"
                ],
                "x-kubernetes-map-type": "atomic"
              },
              "csi": {
                "description": "Represents storage that is managed by an external CSI volume driver (Beta feature)",
                "properties": {
                  "controllerExpandSecretRef": {
                    "description": "SecretReference represents a Secret Reference. It has enough information to retrieve secret in any namespace",
                    "properties": {
                      "name": {
                        "description": "Name is unique within a namespace to reference a secret resource.",
                        "type": [
                          "string",
                          "null"
                        ]
                      },
                      "namespace": {
                        "description": "Namespace defines the space within which the secret name must be unique.",
                        "type": [
                          "string",
                          "null"
                        ]
                      }
                    },
                    "type": [
                      "object",
                      "null"
                    ],
                    "x-kubernetes-map-type": "atomic"
                  },
                  "controllerPublishSecretRef": {
                    "description": "SecretReference represents a Secret Reference. It has enough information to retrieve secret in any namespace",
                    "properties": {
                      "name": {
                        "description": "Name is unique within a namespace to reference a secret resource.",
                        "type": [
                          "string",
                          "null"
                        ]
                      },
                      "namespace": {
                        "description": "Namespace defines the space within which the secret name must be unique.",
                        "type": [
                          "string",
                          "null"
                        ]
                      }
                    },
                    "type": [
                      "object",
                      "null"
                    ],
                    "x-kubernetes-map-type": "atomic"
                  },
                  "driver": {
                    "description": "Driver is the name of the driver to use for this volume. Required.",
                    "type": "string"
                  },
                  "fsType": {
                    "description": "Filesystem type to mount. Must be a filesystem type supported by the host operating system. Ex. \"ext4\", \"xfs\", \"ntfs\".",
                    "type": [
                      "string",
                      "null"
                    ]
                  },
                  "nodePublishSecretRef": {
                    "description": "SecretReference represents a Secret Reference. It has enough information to retrieve secret in any namespace",
                    "properties": {
                      "name": {
                        "description": "Name is unique within a namespace to reference a secret resource.",
                        "type": [
                          "string",
                          "null"
                        ]
                      },
                      "namespace": {
                        "description": "Namespace defines the space within which the secret name must be unique.",
                        "type": [
                          "string",
                          "null"
                        ]
                      }
                    },
                    "type": [
                      "object",
                      "null"
                    ],
                    "x-kubernetes-map-type": "atomic"
                  },
                  "nodeStageSecretRef": {
                    "description": "SecretReference represents a Secret Reference. It has enough information to retrieve secret in any namespace",
                    "properties": {
                      "name": {
                        "description": "Name is unique within a namespace to reference a secret resource.",
                        "type": [
                          "string",
                          "null"
                        ]
                      },
                      "namespace": {
                        "description": "Namespace defines the space within which the secret name must be unique.",
                        "type": [
                          "string",
                          "null"
                        ]
                      }
                    },
                    "type": [
                      "object",
                      "null"
                    ],
                    "x-kubernetes-map-type": "atomic"
                  },
                  "readOnly": {
                    "description": "Optional: The value to pass to ControllerPublishVolumeRequest. Defaults to false (read/write).",
                    "type": [
                      "boolean",
                      "null"
                    ]
                  },
                  "volumeAttributes": {
                    "additionalProperties": {
                      "type": [
                        "string",
                        "null"
                      ]
                    },
                    "description": "Attributes of the volume to publish.",
                    "type": [
                      "object",
                      "null"
                    ]
                  },
                  "volumeHandle": {
                    "description": "VolumeHandle is the unique volume name returned by the CSI volume plugin\u2019s CreateVolume to refer to the volume on all subsequent calls. Required.",
                    "type": "string"
                  }
                },
                "required": [
                  "driver",
                  "volumeHandle"
                ],
                "type": [
                  "object",
                  "null"
                ]
              },
              "fc": {
                "description": "Represents a Fibre Channel volume. Fibre Channel volumes can only be mounted as read/write once. Fibre Channel volumes support ownership management and SELinux relabeling.",
                "properties": {
                  "fsType": {
                    "description": "Filesystem type to mount. Must be a filesystem type supported by the host operating system. Ex. \"ext4\", \"xfs\", \"ntfs\". Implicitly inferred to be \"ext4\" if unspecified.",
                    "type": [
                      "string",
                      "null"
                    ]
                  },
                  "lun": {
                    "description": "Optional: FC target lun number",
                    "format": "int32",
                    "type": [
                      "integer",
                      "null"
                    ]
                  },
                  "readOnly": {
                    "description": "Optional: Defaults to false (read/write). ReadOnly here will force the ReadOnly setting in VolumeMounts.",
                    "type": [
                      "boolean",
                      "null"
                    ]
                  },
                  "targetWWNs": {
                    "description": "Optional: FC target worldwide names (WWNs)",
                    "items": {
                      "type": [
                        "string",
                        "null"
                      ]
                    },
                    "type": [
                      "array",
                      "null"
                    ]
                  },
                  "wwids": {
                    "description": "Optional: FC volume world wide identifiers (wwids) Either wwids or combination of targetWWNs and lun must be set, but not both simultaneously.",
                    "items": {
                      "type": [
                        "string",
                        "null"
                      ]
                    },
                    "type": [
                      "array",
                      "null"
                    ]
                  }
                },
                "type": [
                  "object",
                  "null"
                ]
              },
              "flexVolume": {
                "description": "FlexPersistentVolumeSource represents a generic persistent volume resource that is provisioned/attached using an exec based plugin.",
                "properties": {
                  "driver": {
                    "description": "Driver is the name of the driver to use for this volume.",
                    "type": "string"
                  },
                  "fsType": {
                    "description": "Filesystem type to mount. Must be a filesystem type supported by the host operating system. Ex. \"ext4\", \"xfs\", \"ntfs\". The default filesystem depends on FlexVolume script.",
                    "type": [
                      "string",
                      "null"
                    ]
                  },
                  "options": {
                    "additionalProperties": {
                      "type": [
                        "string",
                        "null"
                      ]
                    },
                    "description": "Optional: Extra command options if any.",
                    "type": [
                      "object",
                      "null"
                    ]
                  },
                  "readOnly": {
                    "description": "Optional: Defaults to false (read/write). ReadOnly here will force the ReadOnly setting in VolumeMounts.",
                    "type": [
                      "boolean",
                      "null"
                    ]
                  },
                  "secretRef": {
                    "description": "SecretReference represents a Secret Reference. It has enough information to retrieve secret in any namespace",
                    "properties": {
                      "name": {
                        "description": "Name is unique within a namespace to reference a secret resource.",
                        "type": [
                          "string",
                          "null"
                        ]
                      },
                      "namespace": {
                        "description": "Namespace defines the space within which the secret name must be unique.",
                        "type": [
                          "string",
                          "null"
                        ]
                      }
                    },
                    "type": [
                      "object",
                      "null"
                    ],
                    "x-kubernetes-map-type": "atomic"
                  }
                },
                "required": [
                  "driver"
                ],
                "type": [
                  "object",
                  "null"
                ]
              },
              "flocker": {
                "description": "Represents a Flocker volume mounted by the Flocker agent. One and only one of datasetName and datasetUUID should be set. Flocker volumes do not support ownership management or SELinux relabeling.",
                "properties": {
                  "datasetName": {
                    "description": "Name of the dataset stored as metadata -> name on the dataset for Flocker should be considered as deprecated",
                    "type": [
                      "string",
                      "null"
                    ]
                  },
                  "datasetUUID": {
                    "description": "UUID of the dataset. This is unique identifier of a Flocker dataset",
                    "type": [
                      "string",
                      "null"
                    ]
                  }
                },
                "type": [
                  "object",
                  "null"
                ]
              },
              "gcePersistentDisk": {
                "description": "Represents a Persistent Disk resource in Google Compute Engine.\n\nA GCE PD must exist before mounting to a container. The disk must also be in the same GCE project and zone as the kubelet. A GCE PD can only be mounted as read/write once or read-only many times. GCE PDs support ownership management and SELinux relabeling.",
                "properties": {
                  "fsType": {
                    "description": "Filesystem type of the volume that you want to mount. Tip: Ensure that the filesystem type is supported by the host operating system. Examples: \"ext4\", \"xfs\", \"ntfs\". Implicitly inferred to be \"ext4\" if unspecified. More info: https://kubernetes.io/docs/concepts/storage/volumes#gcepersistentdisk",
                    "type": [
                      "string",
                      "null"
                    ]
                  },
                  "partition": {
                    "description": "The partition in the volume that you want to mount. If omitted, the default is to mount by volume name. Examples: For volume /dev/sda1, you specify the partition as \"1\". Similarly, the volume partition for /dev/sda is \"0\" (or you can leave the property empty). More info: https://kubernetes.io/docs/concepts/storage/volumes#gcepersistentdisk",
                    "format": "int32",
                    "type": [
                      "integer",
                      "null"
                    ]
                  },
                  "pdName": {
                    "description": "Unique name of the PD resource in GCE. Used to identify the disk in GCE. More info: https://kubernetes.io/docs/concepts/storage/volumes#gcepersistentdisk",
                    "type": "string"
                  },
                  "readOnly": {
                    "description": "ReadOnly here will force the ReadOnly setting in VolumeMounts. Defaults to false. More info: https://kubernetes.io/docs/concepts/storage/volumes#gcepersistentdisk",
                    "type": [
                      "boolean",
                      "null"
                    ]
                  }
                },
                "required": [
                  "pdName"
                ],
                "type": [
                  "object",
                  "null"
                ]
              },
              "glusterfs": {
                "description": "Represents a Glusterfs mount that lasts the lifetime of a pod. Glusterfs volumes do not support ownership management or SELinux relabeling.",
                "properties": {
                  "endpoints": {
                    "description": "EndpointsName is the endpoint name that details Glusterfs topology. More info: https://examples.k8s.io/volumes/glusterfs/README.md#create-a-pod",
                    "type": "string"
                  },
                  "endpointsNamespace": {
                    "description": "EndpointsNamespace is the namespace that contains Glusterfs endpoint. If this field is empty, the EndpointNamespace defaults to the same namespace as the bound PVC. More info: https://examples.k8s.io/volumes/glusterfs/README.md#create-a-pod",
                    "type": [
                      "string",
                      "null"
                    ]
                  },
                  "path": {
                    "description": "Path is the Glusterfs volume path. More info: https://examples.k8s.io/volumes/glusterfs/README.md#create-a-pod",
                    "type": "string"
                  },
                  "readOnly": {
                    "description": "ReadOnly here will force the Glusterfs volume to be mounted with read-only permissions. Defaults to false. More info: https://examples.k8s.io/volumes/glusterfs/README.md#create-a-pod",
                    "type": [
                      "boolean",
                      "null"
                    ]
                  }
                },
                "required": [
                  "endpoints",
                  "path"
                ],
                "type": [
                  "object",
                  "null"
                ]
              },
              "hostPath": {
                "description": "Represents a host path mapped into a pod. Host path volumes do not support ownership management or SELinux relabeling.",
                "properties": {
                  "path": {
                    "description": "Path of the directory on the host. If the path is a symlink, it will follow the link to the real path. More info: https://kubernetes.io/docs/concepts/storage/volumes#hostpath",
                    "type": "string"
                  },
                  "type": {
                    "description": "Type for HostPath Volume Defaults to \"\" More info: https://kubernetes.io/docs/concepts/storage/volumes#hostpath",
                    "type": [
                      "string",
                      "null"
                    ]
                  }
                },
                "required": [
                  "path"
                ],
                "type": [
                  "object",
                  "null"
                ]
              },
              "iscsi": {
                "description": "ISCSIPersistentVolumeSource represents an ISCSI disk. ISCSI volumes can only be mounted as read/write once. ISCSI volumes support ownership management and SELinux relabeling.",
                "properties": {
                  "chapAuthDiscovery": {
                    "description": "whether support iSCSI Discovery CHAP authentication",
                    "type": [
                      "boolean",
                      "null"
                    ]
                  },
                  "chapAuthSession": {
                    "description": "whether support iSCSI Session CHAP authentication",
                    "type": [
                      "boolean",
                      "null"
                    ]
                  },
                  "fsType": {
                    "description": "Filesystem type of the volume that you want to mount. Tip: Ensure that the filesystem type is supported by the host operating system. Examples: \"ext4\", \"xfs\", \"ntfs\". Implicitly inferred to be \"ext4\" if unspecified. More info: https://kubernetes.io/docs/concepts/storage/volumes#iscsi",
                    "type": [
                      "string",
                      "null"
                    ]
                  },
                  "initiatorName": {
                    "description": "Custom iSCSI Initiator Name. If initiatorName is specified with iscsiInterface simultaneously, new iSCSI interface <target portal>:<volume name> will be created for the connection.",
                    "type": [
                      "string",
                      "null"
                    ]
                  },
                  "iqn": {
                    "description": "Target iSCSI Qualified Name.",
                    "type": "string"
                  },
                  "iscsiInterface": {
                    "description": "iSCSI Interface Name that uses an iSCSI transport. Defaults to 'default' (tcp).",
                    "type": [
                      "string",
                      "null"
                    ]
                  },
                  "lun": {
                    "description": "iSCSI Target Lun number.",
                    "format": "int32",
                    "type": "integer"
                  },
                  "portals": {
                    "description": "iSCSI Target Portal List. The Portal is either an IP or ip_addr:port if the port is other than default (typically TCP ports 860 and 3260).",
                    "items": {
                      "type": [
                        "string",
                        "null"
                      ]
                    },
                    "type": [
                      "array",
                      "null"
                    ]
                  },
                  "readOnly": {
                    "description": "ReadOnly here will force the ReadOnly setting in VolumeMounts. Defaults to false.",
                    "type": [
                      "boolean",
                      "null"
                    ]
                  },
                  "secretRef": {
                    "description": "SecretReference represents a Secret Reference. It has enough information to retrieve secret in any namespace",
                    "properties": {
                      "name": {
                        "description": "Name is unique within a namespace to reference a secret resource.",
                        "type": [
                          "string",
                          "null"
                        ]
                      },
                      "namespace": {
                        "description": "Namespace defines the space within which the secret name must be unique.",
                        "type": [
                          "string",
                          "null"
                        ]
                      }
                    },
                    "type": [
                      "object",
                      "null"
                    ],
                    "x-kubernetes-map-type": "atomic"
                  },
                  "targetPortal": {
                    "description": "iSCSI Target Portal. The Portal is either an IP or ip_addr:port if the port is other than default (typically TCP ports 860 and 3260).",
                    "type": "string"
                  }
                },
                "required": [
                  "targetPortal",
                  "iqn",
                  "lun"
                ],
                "type": [
                  "object",
                  "null"
                ]
              },
              "local": {
                "description": "Local represents directly-attached storage with node affinity (Beta feature)",
                "properties": {
                  "fsType": {
                    "description": "Filesystem type to mount. It applies only when the Path is a block device. Must be a filesystem type supported by the host operating system. Ex. \"ext4\", \"xfs\", \"ntfs\". The default value is to auto-select a filesystem if unspecified.",
                    "type": [
                      "string",
                      "null"
                    ]
                  },
                  "path": {
                    "description": "The full path to the volume on the node. It can be either a directory or block device (disk, partition, ...).",
                    "type": "string"
                  }
                },
                "required": [
                  "path"
                ],
                "type": [
                  "object",
                  "null"
                ]
              },
              "mountOptions": {
                "description": "A list of mount options, e.g. [\"ro\", \"soft\"]. Not validated - mount will simply fail if one is invalid. More info: https://kubernetes.io/docs/concepts/storage/persistent-volumes/#mount-options",
                "items": {
                  "type": [
                    "string",
                    "null"
                  ]
                },
                "type": [
                  "array",
                  "null"
                ]
              },
              "nfs": {
                "description": "Represents an NFS mount that lasts the lifetime of a pod. NFS volumes do not support ownership management or SELinux relabeling.",
                "properties": {
                  "path": {
                    "description": "Path that is exported by the NFS server. More info: https://kubernetes.io/docs/concepts/storage/volumes#nfs",
                    "type": "string"
                  },
                  "readOnly": {
                    "description": "ReadOnly here will force the NFS export to be mounted with read-only permissions. Defaults to false. More info: https://kubernetes.io/docs/concepts/storage/volumes#nfs",
                    "type": [
                      "boolean",
                      "null"
                    ]
                  },
                  "server": {
                    "description": "Server is the hostname or IP address of the NFS server. More info: https://kubernetes.io/docs/concepts/storage/volumes#nfs",
                    "type": "string"
                  }
                },
                "required": [
                  "server",
                  "path"
                ],
                "type": [
                  "object",
                  "null"
                ]
              },
              "nodeAffinity": {
                "description": "VolumeNodeAffinity defines constraints that limit what nodes this volume can be accessed from.",
                "properties": {
                  "required": {
                    "description": "A node selector represents the union of the results of one or more label queries over a set of nodes; that is, it represents the OR of the selectors represented by the node selector terms.",
                    "properties": {
                      "nodeSelectorTerms": {
                        "description": "Required. A list of node selector terms. The terms are ORed.",
                        "items": {
                          "description": "A null or empty node selector term matches no objects. The requirements of them are ANDed. The TopologySelectorTerm type implements a subset of the NodeSelectorTerm.",
                          "properties": {
                            "matchExpressions": {
                              "description": "A list of node selector requirements by node's labels.",
                              "items": {
                                "description": "A node selector requirement is a selector that contains values, a key, and an operator that relates the key and values.",
                                "properties": {
                                  "key": {
                                    "description": "The label key that the selector applies to.",
                                    "type": "string"
                                  },
                                  "operator": {
                                    "description": "Represents a key's relationship to a set of values. Valid operators are In, NotIn, Exists, DoesNotExist. Gt, and Lt.",
                                    "type": "string"
                                  },
                                  "values": {
                                    "description": "An array of string values. If the operator is In or NotIn, the values array must be non-empty. If the operator is Exists or DoesNotExist, the values array must be empty. If the operator is Gt or Lt, the values array must have a single element, which will be interpreted as an integer. This array is replaced during a strategic merge patch.",
                                    "items": {
                                      "type": [
                                        "string",
                                        "null"
                                      ]
                                    },
                                    "type": [
                                      "array",
                                      "null"
                                    ]
                                  }
                                },
                                "required": [
                                  "key",
                                  "operator"
                                ],
                                "type": [
                                  "object",
                                  "null"
                                ]
                              },
                              "type": [
                                "array",
                                "null"
                              ]
                            },
                            "matchFields": {
                              "description": "A list of node selector requirements by node's fields.",
                              "items": {
                                "description": "A node selector requirement is a selector that contains values, a key, and an operator that relates the key and values.",
                                "properties": {
                                  "key": {
                                    "description": "The label key that the selector applies to.",
                                    "type": "string"
                                  },
                                  "operator": {
                                    "description": "Represents a key's relationship to a set of values. Valid operators are In, NotIn, Exists, DoesNotExist. Gt, and Lt.",
                                    "type": "string"
                                  },
                                  "values": {
                                    "description": "An array of string values. If the operator is In or NotIn, the values array must be non-empty. If the operator is Exists or DoesNotExist, the values array must be empty. If the operator is Gt or Lt, the values array must have a single element, which will be interpreted as an integer. This array is replaced during a strategic merge patch.",
                                    "items": {
                                      "type": [
                                        "string",
                                        "null"
                                      ]
                                    },
                                    "type": [
                                      "array",
                                      "null"
                                    ]
                                  }
                                },
                                "required": [
                                  "key",
                                  "operator"
                                ],
                                "type": [
                                  "object",
                                  "null"
                                ]
                              },
                              "type": [
                                "array",
                                "null"
                              ]
                            }
                          },
                          "type": [
                            "object",
                            "null"
                          ],
                          "x-kubernetes-map-type": "atomic"
                        },
                        "type": "array"
                      }
                    },
                    "required": [
                      "nodeSelectorTerms"
                    ],
                    "type": [
                      "object",
                      "null"
                    ],
                    "x-kubernetes-map-type": "atomic"
                  }
                },
                "type": [
                  "object",
                  "null"
                ]
              },
              "persistentVolumeReclaimPolicy": {
                "description": "What happens to a persistent volume when released from its claim. Valid options are Retain (default for manually created PersistentVolumes), Delete (default for dynamically provisioned PersistentVolumes), and Recycle (deprecated). Recycle must be supported by the volume plugin underlying this PersistentVolume. More info: https://kubernetes.io/docs/concepts/storage/persistent-volumes#reclaiming",
                "type": [
                  "string",
                  "null"
                ]
              },
              "photonPersistentDisk": {
                "description": "Represents a Photon Controller persistent disk resource.",
                "properties": {
                  "fsType": {
                    "description": "Filesystem type to mount. Must be a filesystem type supported by the host operating system. Ex. \"ext4\", \"xfs\", \"ntfs\". Implicitly inferred to be \"ext4\" if unspecified.",
                    "type": [
                      "string",
                      "null"
                    ]
                  },
                  "pdID": {
                    "description": "ID that identifies Photon Controller persistent disk",
                    "type": "string"
                  }
                },
                "required": [
                  "pdID"
                ],
                "type": [
                  "object",
                  "null"
                ]
              },
              "portworxVolume": {
                "description": "PortworxVolumeSource represents a Portworx volume resource.",
                "properties": {
                  "fsType": {
                    "description": "FSType represents the filesystem type to mount Must be a filesystem type supported by the host operating system. Ex. \"ext4\", \"xfs\". Implicitly inferred to be \"ext4\" if unspecified.",
                    "type": [
                      "string",
                      "null"
                    ]
                  },
                  "readOnly": {
                    "description": "Defaults to false (read/write). ReadOnly here will force the ReadOnly setting in VolumeMounts.",
                    "type": [
                      "boolean",
                      "null"
                    ]
                  },
                  "volumeID": {
                    "description": "VolumeID uniquely identifies a Portworx volume",
                    "type": "string"
                  }
                },
                "required": [
                  "volumeID"
                ],
                "type": [
                  "object",
                  "null"
                ]
              },
              "quobyte": {
                "description": "Represents a Quobyte mount that lasts the lifetime of a pod. Quobyte volumes do not support ownership management or SELinux relabeling.",
                "properties": {
                  "group": {
                    "description": "Group to map volume access to Default is no group",
                    "type": [
                      "string",
                      "null"
                    ]
                  },
                  "readOnly": {
                    "description": "ReadOnly here will force the Quobyte volume to be mounted with read-only permissions. Defaults to false.",
                    "type": [
                      "boolean",
                      "null"
                    ]
                  },
                  "registry": {
                    "description": "Registry represents a single or multiple Quobyte Registry services specified as a string as host:port pair (multiple entries are separated with commas) which acts as the central registry for volumes",
                    "type": "string"
                  },
                  "tenant": {
                    "description": "Tenant owning the given Quobyte volume in the Backend Used with dynamically provisioned Quobyte volumes, value is set by the plugin",
                    "type": [
                      "string",
                      "null"
                    ]
                  },
                  "user": {
                    "description": "User to map volume access to Defaults to serivceaccount user",
                    "type": [
                      "string",
                      "null"
                    ]
                  },
                  "volume": {
                    "description": "Volume is a string that references an already created Quobyte volume by name.",
                    "type": "string"
                  }
                },
                "required": [
                  "registry",
                  "volume"
                ],
                "type": [
                  "object",
                  "null"
                ]
              },
              "rbd": {
                "description": "Represents a Rados Block Device mount that lasts the lifetime of a pod. RBD volumes support ownership management and SELinux relabeling.",
                "properties": {
                  "fsType": {
                    "description": "Filesystem type of the volume that you want to mount. Tip: Ensure that the filesystem type is supported by the host operating system. Examples: \"ext4\", \"xfs\", \"ntfs\". Implicitly inferred to be \"ext4\" if unspecified. More info: https://kubernetes.io/docs/concepts/storage/volumes#rbd",
                    "type": [
                      "string",
                      "null"
                    ]
                  },
                  "image": {
                    "description": "The rados image name. More info: https://examples.k8s.io/volumes/rbd/README.md#how-to-use-it",
                    "type": "string"
                  },
                  "keyring": {
                    "description": "Keyring is the path to key ring for RBDUser. Default is /etc/ceph/keyring. More info: https://examples.k8s.io/volumes/rbd/README.md#how-to-use-it",
                    "type": [
                      "string",
                      "null"
                    ]
                  },
                  "monitors": {
                    "description": "A collection of Ceph monitors. More info: https://examples.k8s.io/volumes/rbd/README.md#how-to-use-it",
                    "items": {
                      "type": [
                        "string",
                        "null"
                      ]
                    },
                    "type": "array"
                  },
                  "pool": {
                    "description": "The rados pool name. Default is rbd. More info: https://examples.k8s.io/volumes/rbd/README.md#how-to-use-it",
                    "type": [
                      "string",
                      "null"
                    ]
                  },
                  "readOnly": {
                    "description": "ReadOnly here will force the ReadOnly setting in VolumeMounts. Defaults to false. More info: https://examples.k8s.io/volumes/rbd/README.md#how-to-use-it",
                    "type": [
                      "boolean",
                      "null"
                    ]
                  },
                  "secretRef": {
                    "description": "SecretReference represents a Secret Reference. It has enough information to retrieve secret in any namespace",
                    "properties": {
                      "name": {
                        "description": "Name is unique within a namespace to reference a secret resource.",
                        "type": [
                          "string",
                          "null"
                        ]
                      },
                      "namespace": {
                        "description": "Namespace defines the space within which the secret name must be unique.",
                        "type": [
                          "string",
                          "null"
                        ]
                      }
                    },
                    "type": [
                      "object",
                      "null"
                    ],
                    "x-kubernetes-map-type": "atomic"
                  },
                  "user": {
                    "description": "The rados user name. Default is admin. More info: https://examples.k8s.io/volumes/rbd/README.md#how-to-use-it",
                    "type": [
                      "string",
                      "null"
                    ]
                  }
                },
                "required": [
                  "monitors",
                  "image"
                ],
                "type": [
                  "object",
                  "null"
                ]
              },
              "scaleIO": {
                "description": "ScaleIOPersistentVolumeSource represents a persistent ScaleIO volume",
                "properties": {
                  "fsType": {
                    "description": "Filesystem type to mount. Must be a filesystem type supported by the host operating system. Ex. \"ext4\", \"xfs\", \"ntfs\". Default is \"xfs\"",
                    "type": [
                      "string",
                      "null"
                    ]
                  },
                  "gateway": {
                    "description": "The host address of the ScaleIO API Gateway.",
                    "type": "string"
                  },
                  "protectionDomain": {
                    "description": "The name of the ScaleIO Protection Domain for the configured storage.",
                    "type": [
                      "string",
                      "null"
                    ]
                  },
                  "readOnly": {
                    "description": "Defaults to false (read/write). ReadOnly here will force the ReadOnly setting in VolumeMounts.",
                    "type": [
                      "boolean",
                      "null"
                    ]
                  },
                  "secretRef": {
                    "description": "SecretReference represents a Secret Reference. It has enough information to retrieve secret in any namespace",
                    "properties": {
                      "name": {
                        "description": "Name is unique within a namespace to reference a secret resource.",
                        "type": [
                          "string",
                          "null"
                        ]
                      },
                      "namespace": {
                        "description": "Namespace defines the space within which the secret name must be unique.",
                        "type": [
                          "string",
                          "null"
                        ]
                      }
                    },
                    "type": "object",
                    "x-kubernetes-map-type": "atomic"
                  },
                  "sslEnabled": {
                    "description": "Flag to enable/disable SSL communication with Gateway, default false",
                    "type": [
                      "boolean",
                      "null"
                    ]
                  },
                  "storageMode": {
                    "description": "Indicates whether the storage for a volume should be ThickProvisioned or ThinProvisioned. Default is ThinProvisioned.",
                    "type": [
                      "string",
                      "null"
                    ]
                  },
                  "storagePool": {
                    "description": "The ScaleIO Storage Pool associated with the protection domain.",
                    "type": [
                      "string",
                      "null"
                    ]
                  },
                  "system": {
                    "description": "The name of the storage system as configured in ScaleIO.",
                    "type": "string"
                  },
                  "volumeName": {
                    "description": "The name of a volume already created in the ScaleIO system that is associated with this volume source.",
                    "type": [
                      "string",
                      "null"
                    ]
                  }
                },
                "required": [
                  "gateway",
                  "system",
                  "secretRef"
                ],
                "type": [
                  "object",
                  "null"
                ]
              },
              "storageClassName": {
                "description": "Name of StorageClass to which this persistent volume belongs. Empty value means that this volume does not belong to any StorageClass.",
                "type": [
                  "string",
                  "null"
                ]
              },
              "storageos": {
                "description": "Represents a StorageOS persistent volume resource.",
                "properties": {
                  "fsType": {
                    "description": "Filesystem type to mount. Must be a filesystem type supported by the host operating system. Ex. \"ext4\", \"xfs\", \"ntfs\". Implicitly inferred to be \"ext4\" if unspecified.",
                    "type": [
                      "string",
                      "null"
                    ]
                  },
                  "readOnly": {
                    "description": "Defaults to false (read/write). ReadOnly here will force the ReadOnly setting in VolumeMounts.",
                    "type": [
                      "boolean",
                      "null"
                    ]
                  },
                  "secretRef": {
                    "description": "ObjectReference contains enough information to let you inspect or modify the referred object.",
                    "properties": {
                      "apiVersion": {
                        "description": "API version of the referent.",
                        "type": [
                          "string",
                          "null"
                        ]
                      },
                      "fieldPath": {
                        "description": "If referring to a piece of an object instead of an entire object, this string should contain a valid JSON/Go field access statement, such as desiredState.manifest.containers[2]. For example, if the object reference is to a container within a pod, this would take on a value like: \"spec.containers{name}\" (where \"name\" refers to the name of the container that triggered the event) or if no container name is specified \"spec.containers[2]\" (container with index 2 in this pod). This syntax is chosen only to have some well-defined way of referencing a part of an object.",
                        "type": [
                          "string",
                          "null"
                        ]
                      },
                      "kind": {
                        "description": "Kind of the referent. More info: https://git.k8s.io/community/contributors/devel/sig-architecture/api-conventions.md#types-kinds",
                        "type": [
                          "string",
                          "null"
                        ]
                      },
                      "name": {
                        "description": "Name of the referent. More info: https://kubernetes.io/docs/concepts/overview/working-with-objects/names/#names",
                        "type": [
                          "string",
                          "null"
                        ]
                      },
                      "namespace": {
                        "description": "Namespace of the referent. More info: https://kubernetes.io/docs/concepts/overview/working-with-objects/namespaces/",
                        "type": [
                          "string",
                          "null"
                        ]
                      },
                      "resourceVersion": {
                        "description": "Specific resourceVersion to which this reference is made, if any. More info: https://git.k8s.io/community/contributors/devel/sig-architecture/api-conventions.md#concurrency-control-and-consistency",
                        "type": [
                          "string",
                          "null"
                        ]
                      },
                      "uid": {
                        "description": "UID of the referent. More info: https://kubernetes.io/docs/concepts/overview/working-with-objects/names/#uids",
                        "type": [
                          "string",
                          "null"
                        ]
                      }
                    },
                    "type": [
                      "object",
                      "null"
                    ],
                    "x-kubernetes-map-type": "atomic"
                  },
                  "volumeName": {
                    "description": "VolumeName is the human-readable name of the StorageOS volume.  Volume names are only unique within a namespace.",
                    "type": [
                      "string",
                      "null"
                    ]
                  },
                  "volumeNamespace": {
                    "description": "VolumeNamespace specifies the scope of the volume within StorageOS.  If no namespace is specified then the Pod's namespace will be used.  This allows the Kubernetes name scoping to be mirrored within StorageOS for tighter integration. Set VolumeName to any name to override the default behaviour. Set to \"default\" if you are not using namespaces within StorageOS. Namespaces that do not pre-exist within StorageOS will be created.",
                    "type": [
                      "string",
                      "null"
                    ]
                  }
                },
                "type": [
                  "object",
                  "null"
                ]
              },
              "volumeMode": {
                "description": "volumeMode defines if a volume is intended to be used with a formatted filesystem or to remain in raw block state. Value of Filesystem is implied when not included in spec.",
                "type": [
                  "string",
                  "null"
                ]
              },
              "vsphereVolume": {
                "description": "Represents a vSphere volume resource.",
                "properties": {
                  "fsType": {
                    "description": "Filesystem type to mount. Must be a filesystem type supported by the host operating system. Ex. \"ext4\", \"xfs\", \"ntfs\". Implicitly inferred to be \"ext4\" if unspecified.",
                    "type": [
                      "string",
                      "null"
                    ]
                  },
                  "storagePolicyID": {
                    "description": "Storage Policy Based Management (SPBM) profile ID associated with the StoragePolicyName.",
                    "type": [
                      "string",
                      "null"
                    ]
                  },
                  "storagePolicyName": {
                    "description": "Storage Policy Based Management (SPBM) profile name.",
                    "type": [
                      "string",
                      "null"
                    ]
                  },
                  "volumePath": {
                    "description": "Path that identifies vSphere volume vmdk",
                    "type": "string"
                  }
                },
                "required": [
                  "volumePath"
                ],
                "type": [
                  "object",
                  "null"
                ]
              }
            },
            "type": [
              "object",
              "null"
            ]
          },
          "status": {
            "description": "PersistentVolumeStatus is the current status of a persistent volume.",
            "properties": {
              "message": {
                "description": "A human-readable message indicating details about why the volume is in this state.",
                "type": [
                  "string",
                  "null"
                ]
              },
              "phase": {
                "description": "Phase indicates if a volume is available, bound to a claim, or released by a claim. More info: https://kubernetes.io/docs/concepts/storage/persistent-volumes#phase",
                "type": [
                  "string",
                  "null"
                ]
              },
              "reason": {
                "description": "Reason is a brief CamelCase string that describes any failure and is meant for machine parsing and tidy display in the CLI.",
                "type": [
                  "string",
                  "null"
                ]
              }
            },
            "type": [
              "object",
              "null"
            ]
          }
        },
        "type": [
          "object",
          "null"
        ],
        "x-kubernetes-group-version-kind": [
          {
            "group": "",
            "kind": "PersistentVolume",
            "version": "v1"
          }
        ]
      },
      "type": [
        "array",
        "null"
      ]
    },
    "kind": {
      "description": "Kind is a string value representing the REST resource this object represents. Servers may infer this from the endpoint the client submits requests to. Cannot be updated. In CamelCase. More info: https://git.k8s.io/community/contributors/devel/sig-architecture/api-conventions.md#types-kinds",
      "type": [
        "string",
        "null"
      ],
      "enum": [
        "PersistentVolumeList"
      ]
    },
    "metadata": {
      "description": "ListMeta describes metadata that synthetic resources must have, including lists and various status objects. A resource may have only one of {ObjectMeta, ListMeta}.",
      "properties": {
        "continue": {
          "description": "continue may be set if the user set a limit on the number of items returned, and indicates that the server has more data available. The value is opaque and may be used to issue another request to the endpoint that served this list to retrieve the next set of available objects. Continuing a consistent list may not be possible if the server configuration has changed or more than a few minutes have passed. The resourceVersion field returned when using this continue value will be identical to the value in the first response, unless you have received this token from an error message.",
          "type": [
            "string",
            "null"
          ]
        },
        "remainingItemCount": {
          "description": "remainingItemCount is the number of subsequent items in the list which are not included in this list response. If the list request contained label or field selectors, then the number of remaining items is unknown and the field will be left unset and omitted during serialization. If the list is complete (either because it is not chunking or because this is the last chunk), then there are no more remaining items and this field will be left unset and omitted during serialization. Servers older than v1.15 do not set this field. The intended use of the remainingItemCount is *estimating* the size of a collection. Clients should not rely on the remainingItemCount to be set or to be exact.",
          "format": "int64",
          "type": [
            "integer",
            "null"
          ]
        },
        "resourceVersion": {
          "description": "String that identifies the server's internal version of this object that can be used by clients to determine when objects have changed. Value must be treated as opaque by clients and passed unmodified back to the server. Populated by the system. Read-only. More info: https://git.k8s.io/community/contributors/devel/sig-architecture/api-conventions.md#concurrency-control-and-consistency",
          "type": [
            "string",
            "null"
          ]
        },
        "selfLink": {
          "description": "selfLink is a URL representing this object. Populated by the system. Read-only.\n\nDEPRECATED Kubernetes will stop propagating this field in 1.20 release and the field is planned to be removed in 1.21 release.",
          "type": [
            "string",
            "null"
          ]
        }
      },
      "type": [
        "object",
        "null"
      ]
    }
  },
  "required": [
    "items"
  ],
  "type": "object",
  "x-kubernetes-group-version-kind": [
    {
      "group": "",
      "kind": "PersistentVolumeList",
      "version": "v1"
    }
  ],
  "$schema": "http://json-schema.org/schema#"
}