{
  "description": "PodStatus represents information about the status of a pod. Status may trail the actual state of a system, especially if the node that hosts the pod cannot contact the control plane.",
  "properties": {
    "conditions": {
      "description": "Current service state of pod. More info: https://kubernetes.io/docs/concepts/workloads/pods/pod-lifecycle#pod-conditions",
      "items": {
        "description": "PodCondition contains details for the current condition of this pod.",
        "properties": {
          "lastProbeTime": {
            "description": "Time is a wrapper around time.Time which supports correct marshaling to YAML and JSON.  Wrappers are provided for many of the factory methods that the time package offers.",
            "format": "date-time",
            "type": [
              "string",
              "null"
            ]
          },
          "lastTransitionTime": {
            "description": "Time is a wrapper around time.Time which supports correct marshaling to YAML and JSON.  Wrappers are provided for many of the factory methods that the time package offers.",
            "format": "date-time",
            "type": [
              "string",
              "null"
            ]
          },
          "message": {
            "description": "Human-readable message indicating details about last transition.",
            "type": [
              "string",
              "null"
            ]
          },
          "reason": {
            "description": "Unique, one-word, CamelCase reason for the condition's last transition.",
            "type": [
              "string",
              "null"
            ]
          },
          "status": {
            "description": "Status is the status of the condition. Can be True, False, Unknown. More info: https://kubernetes.io/docs/concepts/workloads/pods/pod-lifecycle#pod-conditions",
            "type": "string"
          },
          "type": {
            "description": "Type is the type of the condition. More info: https://kubernetes.io/docs/concepts/workloads/pods/pod-lifecycle#pod-conditions",
            "type": "string"
          }
        },
        "required": [
          "type",
          "status"
        ],
        "type": [
          "object",
          "null"
        ]
      },
      "type": [
        "array",
        "null"
      ],
      "x-kubernetes-patch-merge-key": "type",
      "x-kubernetes-patch-strategy": "merge"
    },
    "containerStatuses": {
      "description": "The list has one entry per container in the manifest. Each entry is currently the output of `docker inspect`. More info: https://kubernetes.io/docs/concepts/workloads/pods/pod-lifecycle#pod-and-container-status",
      "items": {
        "description": "ContainerStatus contains details for the current status of this container.",
        "properties": {
          "containerID": {
            "description": "Container's ID in the format 'docker://<container_id>'.",
            "type": [
              "string",
              "null"
            ]
          },
          "image": {
            "description": "The image the container is running. More info: https://kubernetes.io/docs/concepts/containers/images.",
            "type": "string"
          },
          "imageID": {
            "description": "ImageID of the container's image.",
            "type": "string"
          },
          "lastState": {
            "description": "ContainerState holds a possible state of container. Only one of its members may be specified. If none of them is specified, the default one is ContainerStateWaiting.",
            "properties": {
              "running": {
                "description": "ContainerStateRunning is a running state of a container.",
                "properties": {
                  "startedAt": {
                    "description": "Time is a wrapper around time.Time which supports correct marshaling to YAML and JSON.  Wrappers are provided for many of the factory methods that the time package offers.",
                    "format": "date-time",
                    "type": [
                      "string",
                      "null"
                    ]
                  }
                },
                "type": [
                  "object",
                  "null"
                ]
              },
              "terminated": {
                "description": "ContainerStateTerminated is a terminated state of a container.",
                "properties": {
                  "containerID": {
                    "description": "Container's ID in the format 'docker://<container_id>'",
                    "type": [
                      "string",
                      "null"
                    ]
                  },
                  "exitCode": {
                    "description": "Exit status from the last termination of the container",
                    "format": "int32",
                    "type": "integer"
                  },
                  "finishedAt": {
                    "description": "Time is a wrapper around time.Time which supports correct marshaling to YAML and JSON.  Wrappers are provided for many of the factory methods that the time package offers.",
                    "format": "date-time",
                    "type": [
                      "string",
                      "null"
                    ]
                  },
                  "message": {
                    "description": "Message regarding the last termination of the container",
                    "type": [
                      "string",
                      "null"
                    ]
                  },
                  "reason": {
                    "description": "(brief) reason from the last termination of the container",
                    "type": [
                      "string",
                      "null"
                    ]
                  },
                  "signal": {
                    "description": "Signal from the last termination of the container",
                    "format": "int32",
                    "type": [
                      "integer",
                      "null"
                    ]
                  },
                  "startedAt": {
                    "description": "Time is a wrapper around time.Time which supports correct marshaling to YAML and JSON.  Wrappers are provided for many of the factory methods that the time package offers.",
                    "format": "date-time",
                    "type": [
                      "string",
                      "null"
                    ]
                  }
                },
                "required": [
                  "exitCode"
                ],
                "type": [
                  "object",
                  "null"
                ]
              },
              "waiting": {
                "description": "ContainerStateWaiting is a waiting state of a container.",
                "properties": {
                  "message": {
                    "description": "Message regarding why the container is not yet running.",
                    "type": [
                      "string",
                      "null"
                    ]
                  },
                  "reason": {
                    "description": "(brief) reason the container is not yet running.",
                    "type": [
                      "string",
                      "null"
                    ]
                  }
                },
                "type": [
                  "object",
                  "null"
                ]
              }
            },
            "type": [
              "object",
              "null"
            ]
          },
          "name": {
            "description": "This must be a DNS_LABEL. Each container in a pod must have a unique name. Cannot be updated.",
            "type": "string"
          },
          "ready": {
            "description": "Specifies whether the container has passed its readiness probe.",
            "type": "boolean"
          },
          "restartCount": {
            "description": "The number of times the container has been restarted.",
            "format": "int32",
            "type": "integer"
          },
          "started": {
            "description": "Specifies whether the container has passed its startup probe. Initialized as false, becomes true after startupProbe is considered successful. Resets to false when the container is restarted, or if kubelet loses state temporarily. Is always true when no startupProbe is defined.",
            "type": [
              "boolean",
              "null"
            ]
          },
          "state": {
            "description": "ContainerState holds a possible state of container. Only one of its members may be specified. If none of them is specified, the default one is ContainerStateWaiting.",
            "properties": {
              "running": {
                "description": "ContainerStateRunning is a running state of a container.",
                "properties": {
                  "startedAt": {
                    "description": "Time is a wrapper around time.Time which supports correct marshaling to YAML and JSON.  Wrappers are provided for many of the factory methods that the time package offers.",
                    "format": "date-time",
                    "type": [
                      "string",
                      "null"
                    ]
                  }
                },
                "type": [
                  "object",
                  "null"
                ]
              },
              "terminated": {
                "description": "ContainerStateTerminated is a terminated state of a container.",
                "properties": {
                  "containerID": {
                    "description": "Container's ID in the format 'docker://<container_id>'",
                    "type": [
                      "string",
                      "null"
                    ]
                  },
                  "exitCode": {
                    "description": "Exit status from the last termination of the container",
                    "format": "int32",
                    "type": "integer"
                  },
                  "finishedAt": {
                    "description": "Time is a wrapper around time.Time which supports correct marshaling to YAML and JSON.  Wrappers are provided for many of the factory methods that the time package offers.",
                    "format": "date-time",
                    "type": [
                      "string",
                      "null"
                    ]
                  },
                  "message": {
                    "description": "Message regarding the last termination of the container",
                    "type": [
                      "string",
                      "null"
                    ]
                  },
                  "reason": {
                    "description": "(brief) reason from the last termination of the container",
                    "type": [
                      "string",
                      "null"
                    ]
                  },
                  "signal": {
                    "description": "Signal from the last termination of the container",
                    "format": "int32",
                    "type": [
                      "integer",
                      "null"
                    ]
                  },
                  "startedAt": {
                    "description": "Time is a wrapper around time.Time which supports correct marshaling to YAML and JSON.  Wrappers are provided for many of the factory methods that the time package offers.",
                    "format": "date-time",
                    "type": [
                      "string",
                      "null"
                    ]
                  }
                },
                "required": [
                  "exitCode"
                ],
                "type": [
                  "object",
                  "null"
                ]
              },
              "waiting": {
                "description": "ContainerStateWaiting is a waiting state of a container.",
                "properties": {
                  "message": {
                    "description": "Message regarding why the container is not yet running.",
                    "type": [
                      "string",
                      "null"
                    ]
                  },
                  "reason": {
                    "description": "(brief) reason the container is not yet running.",
                    "type": [
                      "string",
                      "null"
                    ]
                  }
                },
                "type": [
                  "object",
                  "null"
                ]
              }
            },
            "type": [
              "object",
              "null"
            ]
          }
        },
        "required": [
          "name",
          "ready",
          "restartCount",
          "image",
          "imageID"
        ],
        "type": [
          "object",
          "null"
        ]
      },
      "type": [
        "array",
        "null"
      ]
    },
    "ephemeralContainerStatuses": {
      "description": "Status for any ephemeral containers that have run in this pod. This field is beta-level and available on clusters that haven't disabled the EphemeralContainers feature gate.",
      "items": {
        "description": "ContainerStatus contains details for the current status of this container.",
        "properties": {
          "containerID": {
            "description": "Container's ID in the format 'docker://<container_id>'.",
            "type": [
              "string",
              "null"
            ]
          },
          "image": {
            "description": "The image the container is running. More info: https://kubernetes.io/docs/concepts/containers/images.",
            "type": "string"
          },
          "imageID": {
            "description": "ImageID of the container's image.",
            "type": "string"
          },
          "lastState": {
            "description": "ContainerState holds a possible state of container. Only one of its members may be specified. If none of them is specified, the default one is ContainerStateWaiting.",
            "properties": {
              "running": {
                "description": "ContainerStateRunning is a running state of a container.",
                "properties": {
                  "startedAt": {
                    "description": "Time is a wrapper around time.Time which supports correct marshaling to YAML and JSON.  Wrappers are provided for many of the factory methods that the time package offers.",
                    "format": "date-time",
                    "type": [
                      "string",
                      "null"
                    ]
                  }
                },
                "type": [
                  "object",
                  "null"
                ]
              },
              "terminated": {
                "description": "ContainerStateTerminated is a terminated state of a container.",
                "properties": {
                  "containerID": {
                    "description": "Container's ID in the format 'docker://<container_id>'",
                    "type": [
                      "string",
                      "null"
                    ]
                  },
                  "exitCode": {
                    "description": "Exit status from the last termination of the container",
                    "format": "int32",
                    "type": "integer"
                  },
                  "finishedAt": {
                    "description": "Time is a wrapper around time.Time which supports correct marshaling to YAML and JSON.  Wrappers are provided for many of the factory methods that the time package offers.",
                    "format": "date-time",
                    "type": [
                      "string",
                      "null"
                    ]
                  },
                  "message": {
                    "description": "Message regarding the last termination of the container",
                    "type": [
                      "string",
                      "null"
                    ]
                  },
                  "reason": {
                    "description": "(brief) reason from the last termination of the container",
                    "type": [
                      "string",
                      "null"
                    ]
                  },
                  "signal": {
                    "description": "Signal from the last termination of the container",
                    "format": "int32",
                    "type": [
                      "integer",
                      "null"
                    ]
                  },
                  "startedAt": {
                    "description": "Time is a wrapper around time.Time which supports correct marshaling to YAML and JSON.  Wrappers are provided for many of the factory methods that the time package offers.",
                    "format": "date-time",
                    "type": [
                      "string",
                      "null"
                    ]
                  }
                },
                "required": [
                  "exitCode"
                ],
                "type": [
                  "object",
                  "null"
                ]
              },
              "waiting": {
                "description": "ContainerStateWaiting is a waiting state of a container.",
                "properties": {
                  "message": {
                    "description": "Message regarding why the container is not yet running.",
                    "type": [
                      "string",
                      "null"
                    ]
                  },
                  "reason": {
                    "description": "(brief) reason the container is not yet running.",
                    "type": [
                      "string",
                      "null"
                    ]
                  }
                },
                "type": [
                  "object",
                  "null"
                ]
              }
            },
            "type": [
              "object",
              "null"
            ]
          },
          "name": {
            "description": "This must be a DNS_LABEL. Each container in a pod must have a unique name. Cannot be updated.",
            "type": "string"
          },
          "ready": {
            "description": "Specifies whether the container has passed its readiness probe.",
            "type": "boolean"
          },
          "restartCount": {
            "description": "The number of times the container has been restarted.",
            "format": "int32",
            "type": "integer"
          },
          "started": {
            "description": "Specifies whether the container has passed its startup probe. Initialized as false, becomes true after startupProbe is considered successful. Resets to false when the container is restarted, or if kubelet loses state temporarily. Is always true when no startupProbe is defined.",
            "type": [
              "boolean",
              "null"
            ]
          },
          "state": {
            "description": "ContainerState holds a possible state of container. Only one of its members may be specified. If none of them is specified, the default one is ContainerStateWaiting.",
            "properties": {
              "running": {
                "description": "ContainerStateRunning is a running state of a container.",
                "properties": {
                  "startedAt": {
                    "description": "Time is a wrapper around time.Time which supports correct marshaling to YAML and JSON.  Wrappers are provided for many of the factory methods that the time package offers.",
                    "format": "date-time",
                    "type": [
                      "string",
                      "null"
                    ]
                  }
                },
                "type": [
                  "object",
                  "null"
                ]
              },
              "terminated": {
                "description": "ContainerStateTerminated is a terminated state of a container.",
                "properties": {
                  "containerID": {
                    "description": "Container's ID in the format 'docker://<container_id>'",
                    "type": [
                      "string",
                      "null"
                    ]
                  },
                  "exitCode": {
                    "description": "Exit status from the last termination of the container",
                    "format": "int32",
                    "type": "integer"
                  },
                  "finishedAt": {
                    "description": "Time is a wrapper around time.Time which supports correct marshaling to YAML and JSON.  Wrappers are provided for many of the factory methods that the time package offers.",
                    "format": "date-time",
                    "type": [
                      "string",
                      "null"
                    ]
                  },
                  "message": {
                    "description": "Message regarding the last termination of the container",
                    "type": [
                      "string",
                      "null"
                    ]
                  },
                  "reason": {
                    "description": "(brief) reason from the last termination of the container",
                    "type": [
                      "string",
                      "null"
                    ]
                  },
                  "signal": {
                    "description": "Signal from the last termination of the container",
                    "format": "int32",
                    "type": [
                      "integer",
                      "null"
                    ]
                  },
                  "startedAt": {
                    "description": "Time is a wrapper around time.Time which supports correct marshaling to YAML and JSON.  Wrappers are provided for many of the factory methods that the time package offers.",
                    "format": "date-time",
                    "type": [
                      "string",
                      "null"
                    ]
                  }
                },
                "required": [
                  "exitCode"
                ],
                "type": [
                  "object",
                  "null"
                ]
              },
              "waiting": {
                "description": "ContainerStateWaiting is a waiting state of a container.",
                "properties": {
                  "message": {
                    "description": "Message regarding why the container is not yet running.",
                    "type": [
                      "string",
                      "null"
                    ]
                  },
                  "reason": {
                    "description": "(brief) reason the container is not yet running.",
                    "type": [
                      "string",
                      "null"
                    ]
                  }
                },
                "type": [
                  "object",
                  "null"
                ]
              }
            },
            "type": [
              "object",
              "null"
            ]
          }
        },
        "required": [
          "name",
          "ready",
          "restartCount",
          "image",
          "imageID"
        ],
        "type": [
          "object",
          "null"
        ]
      },
      "type": [
        "array",
        "null"
      ]
    },
    "hostIP": {
      "description": "IP address of the host to which the pod is assigned. Empty if not yet scheduled.",
      "type": [
        "string",
        "null"
      ]
    },
    "initContainerStatuses": {
      "description": "The list has one entry per init container in the manifest. The most recent successful init container will have ready = true, the most recently started container will have startTime set. More info: https://kubernetes.io/docs/concepts/workloads/pods/pod-lifecycle#pod-and-container-status",
      "items": {
        "description": "ContainerStatus contains details for the current status of this container.",
        "properties": {
          "containerID": {
            "description": "Container's ID in the format 'docker://<container_id>'.",
            "type": [
              "string",
              "null"
            ]
          },
          "image": {
            "description": "The image the container is running. More info: https://kubernetes.io/docs/concepts/containers/images.",
            "type": "string"
          },
          "imageID": {
            "description": "ImageID of the container's image.",
            "type": "string"
          },
          "lastState": {
            "description": "ContainerState holds a possible state of container. Only one of its members may be specified. If none of them is specified, the default one is ContainerStateWaiting.",
            "properties": {
              "running": {
                "description": "ContainerStateRunning is a running state of a container.",
                "properties": {
                  "startedAt": {
                    "description": "Time is a wrapper around time.Time which supports correct marshaling to YAML and JSON.  Wrappers are provided for many of the factory methods that the time package offers.",
                    "format": "date-time",
                    "type": [
                      "string",
                      "null"
                    ]
                  }
                },
                "type": [
                  "object",
                  "null"
                ]
              },
              "terminated": {
                "description": "ContainerStateTerminated is a terminated state of a container.",
                "properties": {
                  "containerID": {
                    "description": "Container's ID in the format 'docker://<container_id>'",
                    "type": [
                      "string",
                      "null"
                    ]
                  },
                  "exitCode": {
                    "description": "Exit status from the last termination of the container",
                    "format": "int32",
                    "type": "integer"
                  },
                  "finishedAt": {
                    "description": "Time is a wrapper around time.Time which supports correct marshaling to YAML and JSON.  Wrappers are provided for many of the factory methods that the time package offers.",
                    "format": "date-time",
                    "type": [
                      "string",
                      "null"
                    ]
                  },
                  "message": {
                    "description": "Message regarding the last termination of the container",
                    "type": [
                      "string",
                      "null"
                    ]
                  },
                  "reason": {
                    "description": "(brief) reason from the last termination of the container",
                    "type": [
                      "string",
                      "null"
                    ]
                  },
                  "signal": {
                    "description": "Signal from the last termination of the container",
                    "format": "int32",
                    "type": [
                      "integer",
                      "null"
                    ]
                  },
                  "startedAt": {
                    "description": "Time is a wrapper around time.Time which supports correct marshaling to YAML and JSON.  Wrappers are provided for many of the factory methods that the time package offers.",
                    "format": "date-time",
                    "type": [
                      "string",
                      "null"
                    ]
                  }
                },
                "required": [
                  "exitCode"
                ],
                "type": [
                  "object",
                  "null"
                ]
              },
              "waiting": {
                "description": "ContainerStateWaiting is a waiting state of a container.",
                "properties": {
                  "message": {
                    "description": "Message regarding why the container is not yet running.",
                    "type": [
                      "string",
                      "null"
                    ]
                  },
                  "reason": {
                    "description": "(brief) reason the container is not yet running.",
                    "type": [
                      "string",
                      "null"
                    ]
                  }
                },
                "type": [
                  "object",
                  "null"
                ]
              }
            },
            "type": [
              "object",
              "null"
            ]
          },
          "name": {
            "description": "This must be a DNS_LABEL. Each container in a pod must have a unique name. Cannot be updated.",
            "type": "string"
          },
          "ready": {
            "description": "Specifies whether the container has passed its readiness probe.",
            "type": "boolean"
          },
          "restartCount": {
            "description": "The number of times the container has been restarted.",
            "format": "int32",
            "type": "integer"
          },
          "started": {
            "description": "Specifies whether the container has passed its startup probe. Initialized as false, becomes true after startupProbe is considered successful. Resets to false when the container is restarted, or if kubelet loses state temporarily. Is always true when no startupProbe is defined.",
            "type": [
              "boolean",
              "null"
            ]
          },
          "state": {
            "description": "ContainerState holds a possible state of container. Only one of its members may be specified. If none of them is specified, the default one is ContainerStateWaiting.",
            "properties": {
              "running": {
                "description": "ContainerStateRunning is a running state of a container.",
                "properties": {
                  "startedAt": {
                    "description": "Time is a wrapper around time.Time which supports correct marshaling to YAML and JSON.  Wrappers are provided for many of the factory methods that the time package offers.",
                    "format": "date-time",
                    "type": [
                      "string",
                      "null"
                    ]
                  }
                },
                "type": [
                  "object",
                  "null"
                ]
              },
              "terminated": {
                "description": "ContainerStateTerminated is a terminated state of a container.",
                "properties": {
                  "containerID": {
                    "description": "Container's ID in the format 'docker://<container_id>'",
                    "type": [
                      "string",
                      "null"
                    ]
                  },
                  "exitCode": {
                    "description": "Exit status from the last termination of the container",
                    "format": "int32",
                    "type": "integer"
                  },
                  "finishedAt": {
                    "description": "Time is a wrapper around time.Time which supports correct marshaling to YAML and JSON.  Wrappers are provided for many of the factory methods that the time package offers.",
                    "format": "date-time",
                    "type": [
                      "string",
                      "null"
                    ]
                  },
                  "message": {
                    "description": "Message regarding the last termination of the container",
                    "type": [
                      "string",
                      "null"
                    ]
                  },
                  "reason": {
                    "description": "(brief) reason from the last termination of the container",
                    "type": [
                      "string",
                      "null"
                    ]
                  },
                  "signal": {
                    "description": "Signal from the last termination of the container",
                    "format": "int32",
                    "type": [
                      "integer",
                      "null"
                    ]
                  },
                  "startedAt": {
                    "description": "Time is a wrapper around time.Time which supports correct marshaling to YAML and JSON.  Wrappers are provided for many of the factory methods that the time package offers.",
                    "format": "date-time",
                    "type": [
                      "string",
                      "null"
                    ]
                  }
                },
                "required": [
                  "exitCode"
                ],
                "type": [
                  "object",
                  "null"
                ]
              },
              "waiting": {
                "description": "ContainerStateWaiting is a waiting state of a container.",
                "properties": {
                  "message": {
                    "description": "Message regarding why the container is not yet running.",
                    "type": [
                      "string",
                      "null"
                    ]
                  },
                  "reason": {
                    "description": "(brief) reason the container is not yet running.",
                    "type": [
                      "string",
                      "null"
                    ]
                  }
                },
                "type": [
                  "object",
                  "null"
                ]
              }
            },
            "type": [
              "object",
              "null"
            ]
          }
        },
        "required": [
          "name",
          "ready",
          "restartCount",
          "image",
          "imageID"
        ],
        "type": [
          "object",
          "null"
        ]
      },
      "type": [
        "array",
        "null"
      ]
    },
    "message": {
      "description": "A human readable message indicating details about why the pod is in this condition.",
      "type": [
        "string",
        "null"
      ]
    },
    "nominatedNodeName": {
      "description": "nominatedNodeName is set only when this pod preempts other pods on the node, but it cannot be scheduled right away as preemption victims receive their graceful termination periods. This field does not guarantee that the pod will be scheduled on this node. Scheduler may decide to place the pod elsewhere if other nodes become available sooner. Scheduler may also decide to give the resources on this node to a higher priority pod that is created after preemption. As a result, this field may be different than PodSpec.nodeName when the pod is scheduled.",
      "type": [
        "string",
        "null"
      ]
    },
    "phase": {
      "description": "The phase of a Pod is a simple, high-level summary of where the Pod is in its lifecycle. The conditions array, the reason and message fields, and the individual container status arrays contain more detail about the pod's status. There are five possible phase values:\n\nPending: The pod has been accepted by the Kubernetes system, but one or more of the container images has not been created. This includes time before being scheduled as well as time spent downloading images over the network, which could take a while. Running: The pod has been bound to a node, and all of the containers have been created. At least one container is still running, or is in the process of starting or restarting. Succeeded: All containers in the pod have terminated in success, and will not be restarted. Failed: All containers in the pod have terminated, and at least one container has terminated in failure. The container either exited with non-zero status or was terminated by the system. Unknown: For some reason the state of the pod could not be obtained, typically due to an error in communicating with the host of the pod.\n\nMore info: https://kubernetes.io/docs/concepts/workloads/pods/pod-lifecycle#pod-phase",
      "type": [
        "string",
        "null"
      ]
    },
    "podIP": {
      "description": "IP address allocated to the pod. Routable at least within the cluster. Empty if not yet allocated.",
      "type": [
        "string",
        "null"
      ]
    },
    "podIPs": {
      "description": "podIPs holds the IP addresses allocated to the pod. If this field is specified, the 0th entry must match the podIP field. Pods may be allocated at most 1 value for each of IPv4 and IPv6. This list is empty if no IPs have been allocated yet.",
      "items": {
        "description": "IP address information for entries in the (plural) PodIPs field. Each entry includes:\n   IP: An IP address allocated to the pod. Routable at least within the cluster.",
        "properties": {
          "ip": {
            "description": "ip is an IP address (IPv4 or IPv6) assigned to the pod",
            "type": [
              "string",
              "null"
            ]
          }
        },
        "type": [
          "object",
          "null"
        ]
      },
      "type": [
        "array",
        "null"
      ],
      "x-kubernetes-patch-merge-key": "ip",
      "x-kubernetes-patch-strategy": "merge"
    },
    "qosClass": {
      "description": "The Quality of Service (QOS) classification assigned to the pod based on resource requirements See PodQOSClass type for available QOS classes More info: https://git.k8s.io/community/contributors/design-proposals/node/resource-qos.md",
      "type": [
        "string",
        "null"
      ]
    },
    "reason": {
      "description": "A brief CamelCase message indicating details about why the pod is in this state. e.g. 'Evicted'",
      "type": [
        "string",
        "null"
      ]
    },
    "startTime": {
      "description": "Time is a wrapper around time.Time which supports correct marshaling to YAML and JSON.  Wrappers are provided for many of the factory methods that the time package offers.",
      "format": "date-time",
      "type": [
        "string",
        "null"
      ]
    }
  },
  "type": "object",
  "$schema": "http://json-schema.org/schema#"
}