{
  "description": "A node selector represents the union of the results of one or more label queries over a set of nodes; that is, it represents the OR of the selectors represented by the node selector terms.",
  "properties": {
    "nodeSelectorTerms": {
      "description": "Required. A list of node selector terms. The terms are ORed.",
      "items": {
        "$ref": "https://raw.githubusercontent.com/yannh/kubernetes-json-schema/master/v1.16.8/_definitions.json#/definitions/io.k8s.api.core.v1.NodeSelectorTerm"
      },
      "type": [
        "array",
        "null"
      ]
    }
  },
  "required": [
    "nodeSelectorTerms"
  ],
  "type": "object",
  "$schema": "http://json-schema.org/schema#"
}