{
  "description": "StatefulSetUpdateStrategy indicates the strategy that the StatefulSet controller will use to perform updates. It includes any additional parameters necessary to perform the update for the indicated strategy.",
  "properties": {
    "rollingUpdate": {
      "$ref": "https://raw.githubusercontent.com/yannh/kubernetes-json-schema/master/v1.18.4/_definitions.json#/definitions/io.k8s.api.apps.v1.RollingUpdateStatefulSetStrategy",
      "description": "RollingUpdate is used to communicate parameters when Type is RollingUpdateStatefulSetStrategyType."
    },
    "type": {
      "description": "Type indicates the type of the StatefulSetUpdateStrategy. Default is RollingUpdate.",
      "type": [
        "string",
        "null"
      ]
    }
  },
  "type": "object",
  "$schema": "http://json-schema.org/schema#"
}