{
  "description": "ExternalMetricSource indicates how to scale on a metric not associated with any Kubernetes object (for example length of queue in cloud messaging service, or QPS from loadbalancer running outside of cluster).",
  "properties": {
    "metric": {
      "$ref": "https://raw.githubusercontent.com/yannh/kubernetes-json-schema/master/v1.17.4/_definitions.json#/definitions/io.k8s.api.autoscaling.v2beta2.MetricIdentifier",
      "description": "metric identifies the target metric by name and selector"
    },
    "target": {
      "$ref": "https://raw.githubusercontent.com/yannh/kubernetes-json-schema/master/v1.17.4/_definitions.json#/definitions/io.k8s.api.autoscaling.v2beta2.MetricTarget",
      "description": "target specifies the target value for the given metric"
    }
  },
  "required": [
    "metric",
    "target"
  ],
  "type": "object",
  "$schema": "http://json-schema.org/schema#"
}