{
  "description": "DEPRECATED 1.9 - This group version of NetworkPolicyPeer is deprecated by networking/v1/NetworkPolicyPeer.",
  "properties": {
    "ipBlock": {
      "$ref": "https://raw.githubusercontent.com/yannh/kubernetes-json-schema/master/v1.17.4/_definitions.json#/definitions/io.k8s.api.extensions.v1beta1.IPBlock",
      "description": "IPBlock defines policy on a particular IPBlock. If this field is set then neither of the other fields can be."
    },
    "namespaceSelector": {
      "$ref": "https://raw.githubusercontent.com/yannh/kubernetes-json-schema/master/v1.17.4/_definitions.json#/definitions/io.k8s.apimachinery.pkg.apis.meta.v1.LabelSelector",
      "description": "Selects Namespaces using cluster-scoped labels. This field follows standard label selector semantics; if present but empty, it selects all namespaces.\n\nIf PodSelector is also set, then the NetworkPolicyPeer as a whole selects the Pods matching PodSelector in the Namespaces selected by NamespaceSelector. Otherwise it selects all Pods in the Namespaces selected by NamespaceSelector."
    },
    "podSelector": {
      "$ref": "https://raw.githubusercontent.com/yannh/kubernetes-json-schema/master/v1.17.4/_definitions.json#/definitions/io.k8s.apimachinery.pkg.apis.meta.v1.LabelSelector",
      "description": "This is a label selector which selects Pods. This field follows standard label selector semantics; if present but empty, it selects all pods.\n\nIf NamespaceSelector is also set, then the NetworkPolicyPeer as a whole selects the Pods matching PodSelector in the Namespaces selected by NamespaceSelector. Otherwise it selects the Pods matching PodSelector in the policy's own Namespace."
    }
  },
  "type": "object",
  "$schema": "http://json-schema.org/schema#"
}