{
  "description": "CustomResourceSubresources defines the status and scale subresources for CustomResources.",
  "properties": {
    "scale": {
      "$ref": "https://raw.githubusercontent.com/yannh/kubernetes-json-schema/master/v1.15.5/_definitions.json#/definitions/io.k8s.apiextensions-apiserver.pkg.apis.apiextensions.v1beta1.CustomResourceSubresourceScale",
      "description": "Scale denotes the scale subresource for CustomResources"
    },
    "status": {
      "$ref": "https://raw.githubusercontent.com/yannh/kubernetes-json-schema/master/v1.15.5/_definitions.json#/definitions/io.k8s.apiextensions-apiserver.pkg.apis.apiextensions.v1beta1.CustomResourceSubresourceStatus",
      "description": "Status denotes the status subresource for CustomResources"
    }
  },
  "type": "object",
  "$schema": "http://json-schema.org/schema#"
}