{
  "description": "HorizontalPodAutoscaler is the configuration for a horizontal pod autoscaler, which automatically manages the replica count of any resource implementing the scale subresource based on the metrics specified.",
  "properties": {
    "apiVersion": {
      "description": "APIVersion defines the versioned schema of this representation of an object. Servers should convert recognized schemas to the latest internal value, and may reject unrecognized values. More info: https://git.k8s.io/community/contributors/devel/sig-architecture/api-conventions.md#resources",
      "type": [
        "string",
        "null"
      ],
      "enum": [
        "autoscaling/v2beta2"
      ]
    },
    "kind": {
      "description": "Kind is a string value representing the REST resource this object represents. Servers may infer this from the endpoint the client submits requests to. Cannot be updated. In CamelCase. More info: https://git.k8s.io/community/contributors/devel/sig-architecture/api-conventions.md#types-kinds",
      "type": [
        "string",
        "null"
      ],
      "enum": [
        "HorizontalPodAutoscaler"
      ]
    },
    "metadata": {
      "$ref": "https://raw.githubusercontent.com/yannh/kubernetes-json-schema/master/v1.17.15/_definitions.json#/definitions/io.k8s.apimachinery.pkg.apis.meta.v1.ObjectMeta",
      "description": "metadata is the standard object metadata. More info: https://git.k8s.io/community/contributors/devel/sig-architecture/api-conventions.md#metadata"
    },
    "spec": {
      "$ref": "https://raw.githubusercontent.com/yannh/kubernetes-json-schema/master/v1.17.15/_definitions.json#/definitions/io.k8s.api.autoscaling.v2beta2.HorizontalPodAutoscalerSpec",
      "description": "spec is the specification for the behaviour of the autoscaler. More info: https://git.k8s.io/community/contributors/devel/sig-architecture/api-conventions.md#spec-and-status."
    },
    "status": {
      "$ref": "https://raw.githubusercontent.com/yannh/kubernetes-json-schema/master/v1.17.15/_definitions.json#/definitions/io.k8s.api.autoscaling.v2beta2.HorizontalPodAutoscalerStatus",
      "description": "status is the current information about the autoscaler."
    }
  },
  "type": "object",
  "x-kubernetes-group-version-kind": [
    {
      "group": "autoscaling",
      "kind": "HorizontalPodAutoscaler",
      "version": "v2beta2"
    }
  ],
  "$schema": "http://json-schema.org/schema#"
}