{
  "description": "ClusterRole is a cluster level, logical grouping of PolicyRules that can be referenced as a unit by a RoleBinding or ClusterRoleBinding.",
  "properties": {
    "aggregationRule": {
      "$ref": "https://raw.githubusercontent.com/yannh/kubernetes-json-schema/master/v1.18.1/_definitions.json#/definitions/io.k8s.api.rbac.v1.AggregationRule",
      "description": "AggregationRule is an optional field that describes how to build the Rules for this ClusterRole. If AggregationRule is set, then the Rules are controller managed and direct changes to Rules will be stomped by the controller."
    },
    "apiVersion": {
      "description": "APIVersion defines the versioned schema of this representation of an object. Servers should convert recognized schemas to the latest internal value, and may reject unrecognized values. More info: https://git.k8s.io/community/contributors/devel/sig-architecture/api-conventions.md#resources",
      "type": [
        "string",
        "null"
      ],
      "enum": [
        "rbac.authorization.k8s.io/v1"
      ]
    },
    "kind": {
      "description": "Kind is a string value representing the REST resource this object represents. Servers may infer this from the endpoint the client submits requests to. Cannot be updated. In CamelCase. More info: https://git.k8s.io/community/contributors/devel/sig-architecture/api-conventions.md#types-kinds",
      "type": [
        "string",
        "null"
      ],
      "enum": [
        "ClusterRole"
      ]
    },
    "metadata": {
      "$ref": "https://raw.githubusercontent.com/yannh/kubernetes-json-schema/master/v1.18.1/_definitions.json#/definitions/io.k8s.apimachinery.pkg.apis.meta.v1.ObjectMeta",
      "description": "Standard object's metadata."
    },
    "rules": {
      "description": "Rules holds all the PolicyRules for this ClusterRole",
      "items": {
        "$ref": "https://raw.githubusercontent.com/yannh/kubernetes-json-schema/master/v1.18.1/_definitions.json#/definitions/io.k8s.api.rbac.v1.PolicyRule"
      },
      "type": [
        "array",
        "null"
      ]
    }
  },
  "type": "object",
  "x-kubernetes-group-version-kind": [
    {
      "group": "rbac.authorization.k8s.io",
      "kind": "ClusterRole",
      "version": "v1"
    }
  ],
  "$schema": "http://json-schema.org/schema#"
}