{
  "description": "NodeDaemonEndpoints lists ports opened by daemons running on the Node.",
  "properties": {
    "kubeletEndpoint": {
      "$ref": "https://raw.githubusercontent.com/yannh/kubernetes-json-schema/master/v1.15.4/_definitions.json#/definitions/io.k8s.api.core.v1.DaemonEndpoint",
      "description": "Endpoint on which Kubelet is listening."
    }
  },
  "type": "object",
  "$schema": "http://json-schema.org/schema#"
}