{
  "description": "PodDNSConfig defines the DNS parameters of a pod in addition to those generated from DNSPolicy.",
  "properties": {
    "nameservers": {
      "description": "A list of DNS name server IP addresses. This will be appended to the base nameservers generated from DNSPolicy. Duplicated nameservers will be removed.",
      "items": {
        "type": [
          "string",
          "null"
        ]
      },
      "type": [
        "array",
        "null"
      ]
    },
    "options": {
      "description": "A list of DNS resolver options. This will be merged with the base options generated from DNSPolicy. Duplicated entries will be removed. Resolution options given in Options will override those that appear in the base DNSPolicy.",
      "items": {
        "$ref": "https://raw.githubusercontent.com/yannh/kubernetes-json-schema/master/v1.18.20/_definitions.json#/definitions/io.k8s.api.core.v1.PodDNSConfigOption"
      },
      "type": [
        "array",
        "null"
      ]
    },
    "searches": {
      "description": "A list of DNS search domains for host-name lookup. This will be appended to the base search paths generated from DNSPolicy. Duplicated search paths will be removed.",
      "items": {
        "type": [
          "string",
          "null"
        ]
      },
      "type": [
        "array",
        "null"
      ]
    }
  },
  "type": "object",
  "$schema": "http://json-schema.org/schema#"
}