{
  "properties": {
    "rollingUpdate": {
      "$ref": "https://raw.githubusercontent.com/yannh/kubernetes-json-schema/master/v1.15.8/_definitions.json#/definitions/io.k8s.api.extensions.v1beta1.RollingUpdateDaemonSet",
      "description": "Rolling update config params. Present only if type = \"RollingUpdate\"."
    },
    "type": {
      "description": "Type of daemon set update. Can be \"RollingUpdate\" or \"OnDelete\". Default is OnDelete.",
      "type": [
        "string",
        "null"
      ]
    }
  },
  "type": "object",
  "$schema": "http://json-schema.org/schema#"
}