{
  "description": "CSIDriver captures information about a Container Storage Interface (CSI) volume driver deployed on the cluster. CSI drivers do not need to create the CSIDriver object directly. Instead they may use the cluster-driver-registrar sidecar container. When deployed with a CSI driver it automatically creates a CSIDriver object representing the driver. Kubernetes attach detach controller uses this object to determine whether attach is required. Kubelet uses this object to determine whether pod information needs to be passed on mount. CSIDriver objects are non-namespaced.",
  "properties": {
    "apiVersion": {
      "description": "APIVersion defines the versioned schema of this representation of an object. Servers should convert recognized schemas to the latest internal value, and may reject unrecognized values. More info: https://git.k8s.io/community/contributors/devel/sig-architecture/api-conventions.md#resources",
      "type": [
        "string",
        "null"
      ],
      "enum": [
        "storage.k8s.io/v1beta1"
      ]
    },
    "kind": {
      "description": "Kind is a string value representing the REST resource this object represents. Servers may infer this from the endpoint the client submits requests to. Cannot be updated. In CamelCase. More info: https://git.k8s.io/community/contributors/devel/sig-architecture/api-conventions.md#types-kinds",
      "type": [
        "string",
        "null"
      ],
      "enum": [
        "CSIDriver"
      ]
    },
    "metadata": {
      "$ref": "https://raw.githubusercontent.com/yannh/kubernetes-json-schema/master/v1.18.0/_definitions.json#/definitions/io.k8s.apimachinery.pkg.apis.meta.v1.ObjectMeta",
      "description": "Standard object metadata. metadata.Name indicates the name of the CSI driver that this object refers to; it MUST be the same name returned by the CSI GetPluginName() call for that driver. The driver name must be 63 characters or less, beginning and ending with an alphanumeric character ([a-z0-9A-Z]) with dashes (-), dots (.), and alphanumerics between. More info: https://git.k8s.io/community/contributors/devel/sig-architecture/api-conventions.md#metadata"
    },
    "spec": {
      "$ref": "https://raw.githubusercontent.com/yannh/kubernetes-json-schema/master/v1.18.0/_definitions.json#/definitions/io.k8s.api.storage.v1beta1.CSIDriverSpec",
      "description": "Specification of the CSI Driver."
    }
  },
  "required": [
    "spec"
  ],
  "type": "object",
  "x-kubernetes-group-version-kind": [
    {
      "group": "storage.k8s.io",
      "kind": "CSIDriver",
      "version": "v1beta1"
    }
  ],
  "$schema": "http://json-schema.org/schema#"
}