{
  "description": "PodDisruptionBudget is an object to define the max disruption that can be caused to a collection of pods",
  "properties": {
    "apiVersion": {
      "description": "APIVersion defines the versioned schema of this representation of an object. Servers should convert recognized schemas to the latest internal value, and may reject unrecognized values. More info: https://git.k8s.io/community/contributors/devel/sig-architecture/api-conventions.md#resources",
      "type": [
        "string",
        "null"
      ]
    },
    "kind": {
      "description": "Kind is a string value representing the REST resource this object represents. Servers may infer this from the endpoint the client submits requests to. Cannot be updated. In CamelCase. More info: https://git.k8s.io/community/contributors/devel/sig-architecture/api-conventions.md#types-kinds",
      "type": [
        "string",
        "null"
      ],
      "enum": [
        "PodDisruptionBudget"
      ]
    },
    "metadata": {
      "$ref": "https://raw.githubusercontent.com/yannh/kubernetes-json-schema/master/v1.16.10/_definitions.json#/definitions/io.k8s.apimachinery.pkg.apis.meta.v1.ObjectMeta"
    },
    "spec": {
      "$ref": "https://raw.githubusercontent.com/yannh/kubernetes-json-schema/master/v1.16.10/_definitions.json#/definitions/io.k8s.api.policy.v1beta1.PodDisruptionBudgetSpec",
      "description": "Specification of the desired behavior of the PodDisruptionBudget."
    },
    "status": {
      "$ref": "https://raw.githubusercontent.com/yannh/kubernetes-json-schema/master/v1.16.10/_definitions.json#/definitions/io.k8s.api.policy.v1beta1.PodDisruptionBudgetStatus",
      "description": "Most recently observed status of the PodDisruptionBudget."
    }
  },
  "type": "object",
  "x-kubernetes-group-version-kind": [
    {
      "group": "policy",
      "kind": "PodDisruptionBudget",
      "version": "v1beta1"
    }
  ],
  "$schema": "http://json-schema.org/schema#"
}