{
  "description": "Volume represents a named volume in a pod that may be accessed by any container in the pod.",
  "properties": {
    "awsElasticBlockStore": {
      "$ref": "https://raw.githubusercontent.com/yannh/kubernetes-json-schema/master/v1.16.10/_definitions.json#/definitions/io.k8s.api.core.v1.AWSElasticBlockStoreVolumeSource",
      "description": "AWSElasticBlockStore represents an AWS Disk resource that is attached to a kubelet's host machine and then exposed to the pod. More info: https://kubernetes.io/docs/concepts/storage/volumes#awselasticblockstore"
    },
    "azureDisk": {
      "$ref": "https://raw.githubusercontent.com/yannh/kubernetes-json-schema/master/v1.16.10/_definitions.json#/definitions/io.k8s.api.core.v1.AzureDiskVolumeSource",
      "description": "AzureDisk represents an Azure Data Disk mount on the host and bind mount to the pod."
    },
    "azureFile": {
      "$ref": "https://raw.githubusercontent.com/yannh/kubernetes-json-schema/master/v1.16.10/_definitions.json#/definitions/io.k8s.api.core.v1.AzureFileVolumeSource",
      "description": "AzureFile represents an Azure File Service mount on the host and bind mount to the pod."
    },
    "cephfs": {
      "$ref": "https://raw.githubusercontent.com/yannh/kubernetes-json-schema/master/v1.16.10/_definitions.json#/definitions/io.k8s.api.core.v1.CephFSVolumeSource",
      "description": "CephFS represents a Ceph FS mount on the host that shares a pod's lifetime"
    },
    "cinder": {
      "$ref": "https://raw.githubusercontent.com/yannh/kubernetes-json-schema/master/v1.16.10/_definitions.json#/definitions/io.k8s.api.core.v1.CinderVolumeSource",
      "description": "Cinder represents a cinder volume attached and mounted on kubelets host machine. More info: https://examples.k8s.io/mysql-cinder-pd/README.md"
    },
    "configMap": {
      "$ref": "https://raw.githubusercontent.com/yannh/kubernetes-json-schema/master/v1.16.10/_definitions.json#/definitions/io.k8s.api.core.v1.ConfigMapVolumeSource",
      "description": "ConfigMap represents a configMap that should populate this volume"
    },
    "csi": {
      "$ref": "https://raw.githubusercontent.com/yannh/kubernetes-json-schema/master/v1.16.10/_definitions.json#/definitions/io.k8s.api.core.v1.CSIVolumeSource",
      "description": "CSI (Container Storage Interface) represents storage that is handled by an external CSI driver (Alpha feature)."
    },
    "downwardAPI": {
      "$ref": "https://raw.githubusercontent.com/yannh/kubernetes-json-schema/master/v1.16.10/_definitions.json#/definitions/io.k8s.api.core.v1.DownwardAPIVolumeSource",
      "description": "DownwardAPI represents downward API about the pod that should populate this volume"
    },
    "emptyDir": {
      "$ref": "https://raw.githubusercontent.com/yannh/kubernetes-json-schema/master/v1.16.10/_definitions.json#/definitions/io.k8s.api.core.v1.EmptyDirVolumeSource",
      "description": "EmptyDir represents a temporary directory that shares a pod's lifetime. More info: https://kubernetes.io/docs/concepts/storage/volumes#emptydir"
    },
    "fc": {
      "$ref": "https://raw.githubusercontent.com/yannh/kubernetes-json-schema/master/v1.16.10/_definitions.json#/definitions/io.k8s.api.core.v1.FCVolumeSource",
      "description": "FC represents a Fibre Channel resource that is attached to a kubelet's host machine and then exposed to the pod."
    },
    "flexVolume": {
      "$ref": "https://raw.githubusercontent.com/yannh/kubernetes-json-schema/master/v1.16.10/_definitions.json#/definitions/io.k8s.api.core.v1.FlexVolumeSource",
      "description": "FlexVolume represents a generic volume resource that is provisioned/attached using an exec based plugin."
    },
    "flocker": {
      "$ref": "https://raw.githubusercontent.com/yannh/kubernetes-json-schema/master/v1.16.10/_definitions.json#/definitions/io.k8s.api.core.v1.FlockerVolumeSource",
      "description": "Flocker represents a Flocker volume attached to a kubelet's host machine. This depends on the Flocker control service being running"
    },
    "gcePersistentDisk": {
      "$ref": "https://raw.githubusercontent.com/yannh/kubernetes-json-schema/master/v1.16.10/_definitions.json#/definitions/io.k8s.api.core.v1.GCEPersistentDiskVolumeSource",
      "description": "GCEPersistentDisk represents a GCE Disk resource that is attached to a kubelet's host machine and then exposed to the pod. More info: https://kubernetes.io/docs/concepts/storage/volumes#gcepersistentdisk"
    },
    "gitRepo": {
      "$ref": "https://raw.githubusercontent.com/yannh/kubernetes-json-schema/master/v1.16.10/_definitions.json#/definitions/io.k8s.api.core.v1.GitRepoVolumeSource",
      "description": "GitRepo represents a git repository at a particular revision. DEPRECATED: GitRepo is deprecated. To provision a container with a git repo, mount an EmptyDir into an InitContainer that clones the repo using git, then mount the EmptyDir into the Pod's container."
    },
    "glusterfs": {
      "$ref": "https://raw.githubusercontent.com/yannh/kubernetes-json-schema/master/v1.16.10/_definitions.json#/definitions/io.k8s.api.core.v1.GlusterfsVolumeSource",
      "description": "Glusterfs represents a Glusterfs mount on the host that shares a pod's lifetime. More info: https://examples.k8s.io/volumes/glusterfs/README.md"
    },
    "hostPath": {
      "$ref": "https://raw.githubusercontent.com/yannh/kubernetes-json-schema/master/v1.16.10/_definitions.json#/definitions/io.k8s.api.core.v1.HostPathVolumeSource",
      "description": "HostPath represents a pre-existing file or directory on the host machine that is directly exposed to the container. This is generally used for system agents or other privileged things that are allowed to see the host machine. Most containers will NOT need this. More info: https://kubernetes.io/docs/concepts/storage/volumes#hostpath"
    },
    "iscsi": {
      "$ref": "https://raw.githubusercontent.com/yannh/kubernetes-json-schema/master/v1.16.10/_definitions.json#/definitions/io.k8s.api.core.v1.ISCSIVolumeSource",
      "description": "ISCSI represents an ISCSI Disk resource that is attached to a kubelet's host machine and then exposed to the pod. More info: https://examples.k8s.io/volumes/iscsi/README.md"
    },
    "name": {
      "description": "Volume's name. Must be a DNS_LABEL and unique within the pod. More info: https://kubernetes.io/docs/concepts/overview/working-with-objects/names/#names",
      "type": [
        "string",
        "null"
      ]
    },
    "nfs": {
      "$ref": "https://raw.githubusercontent.com/yannh/kubernetes-json-schema/master/v1.16.10/_definitions.json#/definitions/io.k8s.api.core.v1.NFSVolumeSource",
      "description": "NFS represents an NFS mount on the host that shares a pod's lifetime More info: https://kubernetes.io/docs/concepts/storage/volumes#nfs"
    },
    "persistentVolumeClaim": {
      "$ref": "https://raw.githubusercontent.com/yannh/kubernetes-json-schema/master/v1.16.10/_definitions.json#/definitions/io.k8s.api.core.v1.PersistentVolumeClaimVolumeSource",
      "description": "PersistentVolumeClaimVolumeSource represents a reference to a PersistentVolumeClaim in the same namespace. More info: https://kubernetes.io/docs/concepts/storage/persistent-volumes#persistentvolumeclaims"
    },
    "photonPersistentDisk": {
      "$ref": "https://raw.githubusercontent.com/yannh/kubernetes-json-schema/master/v1.16.10/_definitions.json#/definitions/io.k8s.api.core.v1.PhotonPersistentDiskVolumeSource",
      "description": "PhotonPersistentDisk represents a PhotonController persistent disk attached and mounted on kubelets host machine"
    },
    "portworxVolume": {
      "$ref": "https://raw.githubusercontent.com/yannh/kubernetes-json-schema/master/v1.16.10/_definitions.json#/definitions/io.k8s.api.core.v1.PortworxVolumeSource",
      "description": "PortworxVolume represents a portworx volume attached and mounted on kubelets host machine"
    },
    "projected": {
      "$ref": "https://raw.githubusercontent.com/yannh/kubernetes-json-schema/master/v1.16.10/_definitions.json#/definitions/io.k8s.api.core.v1.ProjectedVolumeSource",
      "description": "Items for all in one resources secrets, configmaps, and downward API"
    },
    "quobyte": {
      "$ref": "https://raw.githubusercontent.com/yannh/kubernetes-json-schema/master/v1.16.10/_definitions.json#/definitions/io.k8s.api.core.v1.QuobyteVolumeSource",
      "description": "Quobyte represents a Quobyte mount on the host that shares a pod's lifetime"
    },
    "rbd": {
      "$ref": "https://raw.githubusercontent.com/yannh/kubernetes-json-schema/master/v1.16.10/_definitions.json#/definitions/io.k8s.api.core.v1.RBDVolumeSource",
      "description": "RBD represents a Rados Block Device mount on the host that shares a pod's lifetime. More info: https://examples.k8s.io/volumes/rbd/README.md"
    },
    "scaleIO": {
      "$ref": "https://raw.githubusercontent.com/yannh/kubernetes-json-schema/master/v1.16.10/_definitions.json#/definitions/io.k8s.api.core.v1.ScaleIOVolumeSource",
      "description": "ScaleIO represents a ScaleIO persistent volume attached and mounted on Kubernetes nodes."
    },
    "secret": {
      "$ref": "https://raw.githubusercontent.com/yannh/kubernetes-json-schema/master/v1.16.10/_definitions.json#/definitions/io.k8s.api.core.v1.SecretVolumeSource",
      "description": "Secret represents a secret that should populate this volume. More info: https://kubernetes.io/docs/concepts/storage/volumes#secret"
    },
    "storageos": {
      "$ref": "https://raw.githubusercontent.com/yannh/kubernetes-json-schema/master/v1.16.10/_definitions.json#/definitions/io.k8s.api.core.v1.StorageOSVolumeSource",
      "description": "StorageOS represents a StorageOS volume attached and mounted on Kubernetes nodes."
    },
    "vsphereVolume": {
      "$ref": "https://raw.githubusercontent.com/yannh/kubernetes-json-schema/master/v1.16.10/_definitions.json#/definitions/io.k8s.api.core.v1.VsphereVirtualDiskVolumeSource",
      "description": "VsphereVolume represents a vSphere volume attached and mounted on kubelets host machine"
    }
  },
  "required": [
    "name"
  ],
  "type": "object",
  "$schema": "http://json-schema.org/schema#"
}