{
  "description": "EndpointSliceList represents a list of endpoint slices",
  "properties": {
    "apiVersion": {
      "description": "APIVersion defines the versioned schema of this representation of an object. Servers should convert recognized schemas to the latest internal value, and may reject unrecognized values. More info: https://git.k8s.io/community/contributors/devel/sig-architecture/api-conventions.md#resources",
      "type": [
        "string",
        "null"
      ],
      "enum": [
        "discovery.k8s.io/v1beta1"
      ]
    },
    "items": {
      "description": "List of endpoint slices",
      "items": {
        "$ref": "https://raw.githubusercontent.com/yannh/kubernetes-json-schema/master/v1.18.5/_definitions.json#/definitions/io.k8s.api.discovery.v1beta1.EndpointSlice"
      },
      "type": [
        "array",
        "null"
      ],
      "x-kubernetes-list-type": "set"
    },
    "kind": {
      "description": "Kind is a string value representing the REST resource this object represents. Servers may infer this from the endpoint the client submits requests to. Cannot be updated. In CamelCase. More info: https://git.k8s.io/community/contributors/devel/sig-architecture/api-conventions.md#types-kinds",
      "type": [
        "string",
        "null"
      ],
      "enum": [
        "EndpointSliceList"
      ]
    },
    "metadata": {
      "$ref": "https://raw.githubusercontent.com/yannh/kubernetes-json-schema/master/v1.18.5/_definitions.json#/definitions/io.k8s.apimachinery.pkg.apis.meta.v1.ListMeta",
      "description": "Standard list metadata."
    }
  },
  "required": [
    "items"
  ],
  "type": "object",
  "x-kubernetes-group-version-kind": [
    {
      "group": "discovery.k8s.io",
      "kind": "EndpointSliceList",
      "version": "v1beta1"
    }
  ],
  "$schema": "http://json-schema.org/schema#"
}