{
  "description": "Defines a set of pods (namely those matching the labelSelector relative to the given namespace(s)) that this pod should be co-located (affinity) or not co-located (anti-affinity) with, where co-located is defined as running on a node whose value of the label with key <topologyKey> matches that of any node on which a pod of the set of pods is running",
  "properties": {
    "labelSelector": {
      "$ref": "https://raw.githubusercontent.com/yannh/kubernetes-json-schema/master/v1.17.16/_definitions.json#/definitions/io.k8s.apimachinery.pkg.apis.meta.v1.LabelSelector",
      "description": "A label query over a set of resources, in this case pods."
    },
    "namespaces": {
      "description": "namespaces specifies which namespaces the labelSelector applies to (matches against); null or empty list means \"this pod's namespace\"",
      "items": {
        "type": [
          "string",
          "null"
        ]
      },
      "type": [
        "array",
        "null"
      ]
    },
    "topologyKey": {
      "description": "This pod should be co-located (affinity) or not co-located (anti-affinity) with the pods matching the labelSelector in the specified namespaces, where co-located is defined as running on a node whose value of the label with key topologyKey matches that of any node on which any of the selected pods is running. Empty topologyKey is not allowed.",
      "type": [
        "string",
        "null"
      ]
    }
  },
  "required": [
    "topologyKey"
  ],
  "type": "object",
  "$schema": "http://json-schema.org/schema#"
}