{
  "description": "CSIDriverList is a collection of CSIDriver objects.",
  "properties": {
    "apiVersion": {
      "description": "APIVersion defines the versioned schema of this representation of an object. Servers should convert recognized schemas to the latest internal value, and may reject unrecognized values. More info: https://git.k8s.io/community/contributors/devel/sig-architecture/api-conventions.md#resources",
      "type": [
        "string",
        "null"
      ],
      "enum": [
        "storage.k8s.io/v1"
      ]
    },
    "items": {
      "description": "items is the list of CSIDriver",
      "items": {
        "description": "CSIDriver captures information about a Container Storage Interface (CSI) volume driver deployed on the cluster. Kubernetes attach detach controller uses this object to determine whether attach is required. Kubelet uses this object to determine whether pod information needs to be passed on mount. CSIDriver objects are non-namespaced.",
        "properties": {
          "apiVersion": {
            "description": "APIVersion defines the versioned schema of this representation of an object. Servers should convert recognized schemas to the latest internal value, and may reject unrecognized values. More info: https://git.k8s.io/community/contributors/devel/sig-architecture/api-conventions.md#resources",
            "type": [
              "string",
              "null"
            ],
            "enum": [
              "storage.k8s.io/v1"
            ]
          },
          "kind": {
            "description": "Kind is a string value representing the REST resource this object represents. Servers may infer this from the endpoint the client submits requests to. Cannot be updated. In CamelCase. More info: https://git.k8s.io/community/contributors/devel/sig-architecture/api-conventions.md#types-kinds",
            "type": [
              "string",
              "null"
            ],
            "enum": [
              "CSIDriver"
            ]
          },
          "metadata": {
            "description": "ObjectMeta is metadata that all persisted resources must have, which includes all objects users must create.",
            "properties": {
              "annotations": {
                "additionalProperties": {
                  "type": [
                    "string",
                    "null"
                  ]
                },
                "description": "Annotations is an unstructured key value map stored with a resource that may be set by external tools to store and retrieve arbitrary metadata. They are not queryable and should be preserved when modifying objects. More info: http://kubernetes.io/docs/user-guide/annotations",
                "type": [
                  "object",
                  "null"
                ]
              },
              "clusterName": {
                "description": "The name of the cluster which the object belongs to. This is used to distinguish resources with same name and namespace in different clusters. This field is not set anywhere right now and apiserver is going to ignore it if set in create or update request.",
                "type": [
                  "string",
                  "null"
                ]
              },
              "creationTimestamp": {
                "description": "Time is a wrapper around time.Time which supports correct marshaling to YAML and JSON.  Wrappers are provided for many of the factory methods that the time package offers.",
                "format": "date-time",
                "type": [
                  "string",
                  "null"
                ]
              },
              "deletionGracePeriodSeconds": {
                "description": "Number of seconds allowed for this object to gracefully terminate before it will be removed from the system. Only set when deletionTimestamp is also set. May only be shortened. Read-only.",
                "format": "int64",
                "type": [
                  "integer",
                  "null"
                ]
              },
              "deletionTimestamp": {
                "description": "Time is a wrapper around time.Time which supports correct marshaling to YAML and JSON.  Wrappers are provided for many of the factory methods that the time package offers.",
                "format": "date-time",
                "type": [
                  "string",
                  "null"
                ]
              },
              "finalizers": {
                "description": "Must be empty before the object is deleted from the registry. Each entry is an identifier for the responsible component that will remove the entry from the list. If the deletionTimestamp of the object is non-nil, entries in this list can only be removed. Finalizers may be processed and removed in any order.  Order is NOT enforced because it introduces significant risk of stuck finalizers. finalizers is a shared field, any actor with permission can reorder it. If the finalizer list is processed in order, then this can lead to a situation in which the component responsible for the first finalizer in the list is waiting for a signal (field value, external system, or other) produced by a component responsible for a finalizer later in the list, resulting in a deadlock. Without enforced ordering finalizers are free to order amongst themselves and are not vulnerable to ordering changes in the list.",
                "items": {
                  "type": [
                    "string",
                    "null"
                  ]
                },
                "type": [
                  "array",
                  "null"
                ],
                "x-kubernetes-patch-strategy": "merge"
              },
              "generateName": {
                "description": "GenerateName is an optional prefix, used by the server, to generate a unique name ONLY IF the Name field has not been provided. If this field is used, the name returned to the client will be different than the name passed. This value will also be combined with a unique suffix. The provided value has the same validation rules as the Name field, and may be truncated by the length of the suffix required to make the value unique on the server.\n\nIf this field is specified and the generated name exists, the server will NOT return a 409 - instead, it will either return 201 Created or 500 with Reason ServerTimeout indicating a unique name could not be found in the time allotted, and the client should retry (optionally after the time indicated in the Retry-After header).\n\nApplied only if Name is not specified. More info: https://git.k8s.io/community/contributors/devel/sig-architecture/api-conventions.md#idempotency",
                "type": [
                  "string",
                  "null"
                ]
              },
              "generation": {
                "description": "A sequence number representing a specific generation of the desired state. Populated by the system. Read-only.",
                "format": "int64",
                "type": [
                  "integer",
                  "null"
                ]
              },
              "labels": {
                "additionalProperties": {
                  "type": [
                    "string",
                    "null"
                  ]
                },
                "description": "Map of string keys and values that can be used to organize and categorize (scope and select) objects. May match selectors of replication controllers and services. More info: http://kubernetes.io/docs/user-guide/labels",
                "type": [
                  "object",
                  "null"
                ]
              },
              "managedFields": {
                "description": "ManagedFields maps workflow-id and version to the set of fields that are managed by that workflow. This is mostly for internal housekeeping, and users typically shouldn't need to set or understand this field. A workflow can be the user's name, a controller's name, or the name of a specific apply path like \"ci-cd\". The set of fields is always in the version that the workflow used when modifying the object.",
                "items": {
                  "description": "ManagedFieldsEntry is a workflow-id, a FieldSet and the group version of the resource that the fieldset applies to.",
                  "properties": {
                    "apiVersion": {
                      "description": "APIVersion defines the version of this resource that this field set applies to. The format is \"group/version\" just like the top-level APIVersion field. It is necessary to track the version of a field set because it cannot be automatically converted.",
                      "type": [
                        "string",
                        "null"
                      ]
                    },
                    "fieldsType": {
                      "description": "FieldsType is the discriminator for the different fields format and version. There is currently only one possible value: \"FieldsV1\"",
                      "type": [
                        "string",
                        "null"
                      ]
                    },
                    "fieldsV1": {
                      "description": "FieldsV1 stores a set of fields in a data structure like a Trie, in JSON format.\n\nEach key is either a '.' representing the field itself, and will always map to an empty set, or a string representing a sub-field or item. The string will follow one of these four formats: 'f:<name>', where <name> is the name of a field in a struct, or key in a map 'v:<value>', where <value> is the exact json formatted value of a list item 'i:<index>', where <index> is position of a item in a list 'k:<keys>', where <keys> is a map of  a list item's key fields to their unique values If a key maps to an empty Fields value, the field that key represents is part of the set.\n\nThe exact format is defined in sigs.k8s.io/structured-merge-diff",
                      "type": [
                        "object",
                        "null"
                      ]
                    },
                    "manager": {
                      "description": "Manager is an identifier of the workflow managing these fields.",
                      "type": [
                        "string",
                        "null"
                      ]
                    },
                    "operation": {
                      "description": "Operation is the type of operation which lead to this ManagedFieldsEntry being created. The only valid values for this field are 'Apply' and 'Update'.",
                      "type": [
                        "string",
                        "null"
                      ]
                    },
                    "subresource": {
                      "description": "Subresource is the name of the subresource used to update that object, or empty string if the object was updated through the main resource. The value of this field is used to distinguish between managers, even if they share the same name. For example, a status update will be distinct from a regular update using the same manager name. Note that the APIVersion field is not related to the Subresource field and it always corresponds to the version of the main resource.",
                      "type": [
                        "string",
                        "null"
                      ]
                    },
                    "time": {
                      "description": "Time is a wrapper around time.Time which supports correct marshaling to YAML and JSON.  Wrappers are provided for many of the factory methods that the time package offers.",
                      "format": "date-time",
                      "type": [
                        "string",
                        "null"
                      ]
                    }
                  },
                  "type": [
                    "object",
                    "null"
                  ],
                  "additionalProperties": false
                },
                "type": [
                  "array",
                  "null"
                ]
              },
              "name": {
                "description": "Name must be unique within a namespace. Is required when creating resources, although some resources may allow a client to request the generation of an appropriate name automatically. Name is primarily intended for creation idempotence and configuration definition. Cannot be updated. More info: http://kubernetes.io/docs/user-guide/identifiers#names",
                "type": [
                  "string",
                  "null"
                ]
              },
              "namespace": {
                "description": "Namespace defines the space within which each name must be unique. An empty namespace is equivalent to the \"default\" namespace, but \"default\" is the canonical representation. Not all objects are required to be scoped to a namespace - the value of this field for those objects will be empty.\n\nMust be a DNS_LABEL. Cannot be updated. More info: http://kubernetes.io/docs/user-guide/namespaces",
                "type": [
                  "string",
                  "null"
                ]
              },
              "ownerReferences": {
                "description": "List of objects depended by this object. If ALL objects in the list have been deleted, this object will be garbage collected. If this object is managed by a controller, then an entry in this list will point to this controller, with the controller field set to true. There cannot be more than one managing controller.",
                "items": {
                  "description": "OwnerReference contains enough information to let you identify an owning object. An owning object must be in the same namespace as the dependent, or be cluster-scoped, so there is no namespace field.",
                  "properties": {
                    "apiVersion": {
                      "description": "API version of the referent.",
                      "type": "string"
                    },
                    "blockOwnerDeletion": {
                      "description": "If true, AND if the owner has the \"foregroundDeletion\" finalizer, then the owner cannot be deleted from the key-value store until this reference is removed. Defaults to false. To set this field, a user needs \"delete\" permission of the owner, otherwise 422 (Unprocessable Entity) will be returned.",
                      "type": [
                        "boolean",
                        "null"
                      ]
                    },
                    "controller": {
                      "description": "If true, this reference points to the managing controller.",
                      "type": [
                        "boolean",
                        "null"
                      ]
                    },
                    "kind": {
                      "description": "Kind of the referent. More info: https://git.k8s.io/community/contributors/devel/sig-architecture/api-conventions.md#types-kinds",
                      "type": "string"
                    },
                    "name": {
                      "description": "Name of the referent. More info: http://kubernetes.io/docs/user-guide/identifiers#names",
                      "type": "string"
                    },
                    "uid": {
                      "description": "UID of the referent. More info: http://kubernetes.io/docs/user-guide/identifiers#uids",
                      "type": "string"
                    }
                  },
                  "required": [
                    "apiVersion",
                    "kind",
                    "name",
                    "uid"
                  ],
                  "type": [
                    "object",
                    "null"
                  ],
                  "x-kubernetes-map-type": "atomic",
                  "additionalProperties": false
                },
                "type": [
                  "array",
                  "null"
                ],
                "x-kubernetes-patch-merge-key": "uid",
                "x-kubernetes-patch-strategy": "merge"
              },
              "resourceVersion": {
                "description": "An opaque value that represents the internal version of this object that can be used by clients to determine when objects have changed. May be used for optimistic concurrency, change detection, and the watch operation on a resource or set of resources. Clients must treat these values as opaque and passed unmodified back to the server. They may only be valid for a particular resource or set of resources.\n\nPopulated by the system. Read-only. Value must be treated as opaque by clients and . More info: https://git.k8s.io/community/contributors/devel/sig-architecture/api-conventions.md#concurrency-control-and-consistency",
                "type": [
                  "string",
                  "null"
                ]
              },
              "selfLink": {
                "description": "SelfLink is a URL representing this object. Populated by the system. Read-only.\n\nDEPRECATED Kubernetes will stop propagating this field in 1.20 release and the field is planned to be removed in 1.21 release.",
                "type": [
                  "string",
                  "null"
                ]
              },
              "uid": {
                "description": "UID is the unique in time and space value for this object. It is typically generated by the server on successful creation of a resource and is not allowed to change on PUT operations.\n\nPopulated by the system. Read-only. More info: http://kubernetes.io/docs/user-guide/identifiers#uids",
                "type": [
                  "string",
                  "null"
                ]
              }
            },
            "type": [
              "object",
              "null"
            ],
            "additionalProperties": false
          },
          "spec": {
            "description": "CSIDriverSpec is the specification of a CSIDriver.",
            "properties": {
              "attachRequired": {
                "description": "attachRequired indicates this CSI volume driver requires an attach operation (because it implements the CSI ControllerPublishVolume() method), and that the Kubernetes attach detach controller should call the attach volume interface which checks the volumeattachment status and waits until the volume is attached before proceeding to mounting. The CSI external-attacher coordinates with CSI volume driver and updates the volumeattachment status when the attach operation is complete. If the CSIDriverRegistry feature gate is enabled and the value is specified to false, the attach operation will be skipped. Otherwise the attach operation will be called.\n\nThis field is immutable.",
                "type": [
                  "boolean",
                  "null"
                ]
              },
              "fsGroupPolicy": {
                "description": "Defines if the underlying volume supports changing ownership and permission of the volume before being mounted. Refer to the specific FSGroupPolicy values for additional details. This field is beta, and is only honored by servers that enable the CSIVolumeFSGroupPolicy feature gate.\n\nThis field is immutable.\n\nDefaults to ReadWriteOnceWithFSType, which will examine each volume to determine if Kubernetes should modify ownership and permissions of the volume. With the default policy the defined fsGroup will only be applied if a fstype is defined and the volume's access mode contains ReadWriteOnce.",
                "type": [
                  "string",
                  "null"
                ]
              },
              "podInfoOnMount": {
                "description": "If set to true, podInfoOnMount indicates this CSI volume driver requires additional pod information (like podName, podUID, etc.) during mount operations. If set to false, pod information will not be passed on mount. Default is false. The CSI driver specifies podInfoOnMount as part of driver deployment. If true, Kubelet will pass pod information as VolumeContext in the CSI NodePublishVolume() calls. The CSI driver is responsible for parsing and validating the information passed in as VolumeContext. The following VolumeConext will be passed if podInfoOnMount is set to true. This list might grow, but the prefix will be used. \"csi.storage.k8s.io/pod.name\": pod.Name \"csi.storage.k8s.io/pod.namespace\": pod.Namespace \"csi.storage.k8s.io/pod.uid\": string(pod.UID) \"csi.storage.k8s.io/ephemeral\": \"true\" if the volume is an ephemeral inline volume\n                                defined by a CSIVolumeSource, otherwise \"false\"\n\n\"csi.storage.k8s.io/ephemeral\" is a new feature in Kubernetes 1.16. It is only required for drivers which support both the \"Persistent\" and \"Ephemeral\" VolumeLifecycleMode. Other drivers can leave pod info disabled and/or ignore this field. As Kubernetes 1.15 doesn't support this field, drivers can only support one mode when deployed on such a cluster and the deployment determines which mode that is, for example via a command line parameter of the driver.\n\nThis field is immutable.",
                "type": [
                  "boolean",
                  "null"
                ]
              },
              "requiresRepublish": {
                "description": "RequiresRepublish indicates the CSI driver wants `NodePublishVolume` being periodically called to reflect any possible change in the mounted volume. This field defaults to false.\n\nNote: After a successful initial NodePublishVolume call, subsequent calls to NodePublishVolume should only update the contents of the volume. New mount points will not be seen by a running container.",
                "type": [
                  "boolean",
                  "null"
                ]
              },
              "storageCapacity": {
                "description": "If set to true, storageCapacity indicates that the CSI volume driver wants pod scheduling to consider the storage capacity that the driver deployment will report by creating CSIStorageCapacity objects with capacity information.\n\nThe check can be enabled immediately when deploying a driver. In that case, provisioning new volumes with late binding will pause until the driver deployment has published some suitable CSIStorageCapacity object.\n\nAlternatively, the driver can be deployed with the field unset or false and it can be flipped later when storage capacity information has been published.\n\nThis field was immutable in Kubernetes <= 1.22 and now is mutable.\n\nThis is a beta field and only available when the CSIStorageCapacity feature is enabled. The default is false.",
                "type": [
                  "boolean",
                  "null"
                ]
              },
              "tokenRequests": {
                "description": "TokenRequests indicates the CSI driver needs pods' service account tokens it is mounting volume for to do necessary authentication. Kubelet will pass the tokens in VolumeContext in the CSI NodePublishVolume calls. The CSI driver should parse and validate the following VolumeContext: \"csi.storage.k8s.io/serviceAccount.tokens\": {\n  \"<audience>\": {\n    \"token\": <token>,\n    \"expirationTimestamp\": <expiration timestamp in RFC3339>,\n  },\n  ...\n}\n\nNote: Audience in each TokenRequest should be different and at most one token is empty string. To receive a new token after expiry, RequiresRepublish can be used to trigger NodePublishVolume periodically.",
                "items": {
                  "description": "TokenRequest contains parameters of a service account token.",
                  "properties": {
                    "audience": {
                      "description": "Audience is the intended audience of the token in \"TokenRequestSpec\". It will default to the audiences of kube apiserver.",
                      "type": "string"
                    },
                    "expirationSeconds": {
                      "description": "ExpirationSeconds is the duration of validity of the token in \"TokenRequestSpec\". It has the same default value of \"ExpirationSeconds\" in \"TokenRequestSpec\".",
                      "format": "int64",
                      "type": [
                        "integer",
                        "null"
                      ]
                    }
                  },
                  "required": [
                    "audience"
                  ],
                  "type": [
                    "object",
                    "null"
                  ],
                  "additionalProperties": false
                },
                "type": [
                  "array",
                  "null"
                ],
                "x-kubernetes-list-type": "atomic"
              },
              "volumeLifecycleModes": {
                "description": "volumeLifecycleModes defines what kind of volumes this CSI volume driver supports. The default if the list is empty is \"Persistent\", which is the usage defined by the CSI specification and implemented in Kubernetes via the usual PV/PVC mechanism. The other mode is \"Ephemeral\". In this mode, volumes are defined inline inside the pod spec with CSIVolumeSource and their lifecycle is tied to the lifecycle of that pod. A driver has to be aware of this because it is only going to get a NodePublishVolume call for such a volume. For more information about implementing this mode, see https://kubernetes-csi.github.io/docs/ephemeral-local-volumes.html A driver can support one or more of these modes and more modes may be added in the future. This field is beta.\n\nThis field is immutable.",
                "items": {
                  "type": [
                    "string",
                    "null"
                  ]
                },
                "type": [
                  "array",
                  "null"
                ],
                "x-kubernetes-list-type": "set"
              }
            },
            "type": "object",
            "additionalProperties": false
          }
        },
        "required": [
          "spec"
        ],
        "type": [
          "object",
          "null"
        ],
        "x-kubernetes-group-version-kind": [
          {
            "group": "storage.k8s.io",
            "kind": "CSIDriver",
            "version": "v1"
          }
        ],
        "additionalProperties": false
      },
      "type": [
        "array",
        "null"
      ]
    },
    "kind": {
      "description": "Kind is a string value representing the REST resource this object represents. Servers may infer this from the endpoint the client submits requests to. Cannot be updated. In CamelCase. More info: https://git.k8s.io/community/contributors/devel/sig-architecture/api-conventions.md#types-kinds",
      "type": [
        "string",
        "null"
      ],
      "enum": [
        "CSIDriverList"
      ]
    },
    "metadata": {
      "description": "ListMeta describes metadata that synthetic resources must have, including lists and various status objects. A resource may have only one of {ObjectMeta, ListMeta}.",
      "properties": {
        "continue": {
          "description": "continue may be set if the user set a limit on the number of items returned, and indicates that the server has more data available. The value is opaque and may be used to issue another request to the endpoint that served this list to retrieve the next set of available objects. Continuing a consistent list may not be possible if the server configuration has changed or more than a few minutes have passed. The resourceVersion field returned when using this continue value will be identical to the value in the first response, unless you have received this token from an error message.",
          "type": [
            "string",
            "null"
          ]
        },
        "remainingItemCount": {
          "description": "remainingItemCount is the number of subsequent items in the list which are not included in this list response. If the list request contained label or field selectors, then the number of remaining items is unknown and the field will be left unset and omitted during serialization. If the list is complete (either because it is not chunking or because this is the last chunk), then there are no more remaining items and this field will be left unset and omitted during serialization. Servers older than v1.15 do not set this field. The intended use of the remainingItemCount is *estimating* the size of a collection. Clients should not rely on the remainingItemCount to be set or to be exact.",
          "format": "int64",
          "type": [
            "integer",
            "null"
          ]
        },
        "resourceVersion": {
          "description": "String that identifies the server's internal version of this object that can be used by clients to determine when objects have changed. Value must be treated as opaque by clients and passed unmodified back to the server. Populated by the system. Read-only. More info: https://git.k8s.io/community/contributors/devel/sig-architecture/api-conventions.md#concurrency-control-and-consistency",
          "type": [
            "string",
            "null"
          ]
        },
        "selfLink": {
          "description": "selfLink is a URL representing this object. Populated by the system. Read-only.\n\nDEPRECATED Kubernetes will stop propagating this field in 1.20 release and the field is planned to be removed in 1.21 release.",
          "type": [
            "string",
            "null"
          ]
        }
      },
      "type": [
        "object",
        "null"
      ],
      "additionalProperties": false
    }
  },
  "required": [
    "items"
  ],
  "type": "object",
  "x-kubernetes-group-version-kind": [
    {
      "group": "storage.k8s.io",
      "kind": "CSIDriverList",
      "version": "v1"
    }
  ],
  "additionalProperties": false,
  "$schema": "http://json-schema.org/schema#"
}