{
  "description": "An EphemeralContainer is a temporary container that you may add to an existing Pod for user-initiated activities such as debugging. Ephemeral containers have no resource or scheduling guarantees, and they will not be restarted when they exit or when a Pod is removed or restarted. The kubelet may evict a Pod if an ephemeral container causes the Pod to exceed its resource allocation.\n\nTo add an ephemeral container, use the ephemeralcontainers subresource of an existing Pod. Ephemeral containers may not be removed or restarted.\n\nThis is a beta feature available on clusters that haven't disabled the EphemeralContainers feature gate.",
  "properties": {
    "args": {
      "description": "Arguments to the entrypoint. The docker image's CMD is used if this is not provided. Variable references $(VAR_NAME) are expanded using the container's environment. If a variable cannot be resolved, the reference in the input string will be unchanged. Double $$ are reduced to a single $, which allows for escaping the $(VAR_NAME) syntax: i.e. \"$$(VAR_NAME)\" will produce the string literal \"$(VAR_NAME)\". Escaped references will never be expanded, regardless of whether the variable exists or not. Cannot be updated. More info: https://kubernetes.io/docs/tasks/inject-data-application/define-command-argument-container/#running-a-command-in-a-shell",
      "items": {
        "type": [
          "string",
          "null"
        ]
      },
      "type": [
        "array",
        "null"
      ]
    },
    "command": {
      "description": "Entrypoint array. Not executed within a shell. The docker image's ENTRYPOINT is used if this is not provided. Variable references $(VAR_NAME) are expanded using the container's environment. If a variable cannot be resolved, the reference in the input string will be unchanged. Double $$ are reduced to a single $, which allows for escaping the $(VAR_NAME) syntax: i.e. \"$$(VAR_NAME)\" will produce the string literal \"$(VAR_NAME)\". Escaped references will never be expanded, regardless of whether the variable exists or not. Cannot be updated. More info: https://kubernetes.io/docs/tasks/inject-data-application/define-command-argument-container/#running-a-command-in-a-shell",
      "items": {
        "type": [
          "string",
          "null"
        ]
      },
      "type": [
        "array",
        "null"
      ]
    },
    "env": {
      "description": "List of environment variables to set in the container. Cannot be updated.",
      "items": {
        "description": "EnvVar represents an environment variable present in a Container.",
        "properties": {
          "name": {
            "description": "Name of the environment variable. Must be a C_IDENTIFIER.",
            "type": "string"
          },
          "value": {
            "description": "Variable references $(VAR_NAME) are expanded using the previously defined environment variables in the container and any service environment variables. If a variable cannot be resolved, the reference in the input string will be unchanged. Double $$ are reduced to a single $, which allows for escaping the $(VAR_NAME) syntax: i.e. \"$$(VAR_NAME)\" will produce the string literal \"$(VAR_NAME)\". Escaped references will never be expanded, regardless of whether the variable exists or not. Defaults to \"\".",
            "type": [
              "string",
              "null"
            ]
          },
          "valueFrom": {
            "description": "EnvVarSource represents a source for the value of an EnvVar.",
            "properties": {
              "configMapKeyRef": {
                "description": "Selects a key from a ConfigMap.",
                "properties": {
                  "key": {
                    "description": "The key to select.",
                    "type": "string"
                  },
                  "name": {
                    "description": "Name of the referent. More info: https://kubernetes.io/docs/concepts/overview/working-with-objects/names/#names",
                    "type": [
                      "string",
                      "null"
                    ]
                  },
                  "optional": {
                    "description": "Specify whether the ConfigMap or its key must be defined",
                    "type": [
                      "boolean",
                      "null"
                    ]
                  }
                },
                "required": [
                  "key"
                ],
                "type": [
                  "object",
                  "null"
                ],
                "x-kubernetes-map-type": "atomic",
                "additionalProperties": false
              },
              "fieldRef": {
                "description": "ObjectFieldSelector selects an APIVersioned field of an object.",
                "properties": {
                  "apiVersion": {
                    "description": "Version of the schema the FieldPath is written in terms of, defaults to \"v1\".",
                    "type": [
                      "string",
                      "null"
                    ]
                  },
                  "fieldPath": {
                    "description": "Path of the field to select in the specified API version.",
                    "type": "string"
                  }
                },
                "required": [
                  "fieldPath"
                ],
                "type": [
                  "object",
                  "null"
                ],
                "x-kubernetes-map-type": "atomic",
                "additionalProperties": false
              },
              "resourceFieldRef": {
                "description": "ResourceFieldSelector represents container resources (cpu, memory) and their output format",
                "properties": {
                  "containerName": {
                    "description": "Container name: required for volumes, optional for env vars",
                    "type": [
                      "string",
                      "null"
                    ]
                  },
                  "divisor": {
                    "oneOf": [
                      {
                        "type": [
                          "string",
                          "null"
                        ]
                      },
                      {
                        "type": [
                          "number",
                          "null"
                        ]
                      }
                    ]
                  },
                  "resource": {
                    "description": "Required: resource to select",
                    "type": "string"
                  }
                },
                "required": [
                  "resource"
                ],
                "type": [
                  "object",
                  "null"
                ],
                "x-kubernetes-map-type": "atomic",
                "additionalProperties": false
              },
              "secretKeyRef": {
                "description": "SecretKeySelector selects a key of a Secret.",
                "properties": {
                  "key": {
                    "description": "The key of the secret to select from.  Must be a valid secret key.",
                    "type": "string"
                  },
                  "name": {
                    "description": "Name of the referent. More info: https://kubernetes.io/docs/concepts/overview/working-with-objects/names/#names",
                    "type": [
                      "string",
                      "null"
                    ]
                  },
                  "optional": {
                    "description": "Specify whether the Secret or its key must be defined",
                    "type": [
                      "boolean",
                      "null"
                    ]
                  }
                },
                "required": [
                  "key"
                ],
                "type": [
                  "object",
                  "null"
                ],
                "x-kubernetes-map-type": "atomic",
                "additionalProperties": false
              }
            },
            "type": [
              "object",
              "null"
            ],
            "additionalProperties": false
          }
        },
        "required": [
          "name"
        ],
        "type": [
          "object",
          "null"
        ],
        "additionalProperties": false
      },
      "type": [
        "array",
        "null"
      ],
      "x-kubernetes-patch-merge-key": "name",
      "x-kubernetes-patch-strategy": "merge"
    },
    "envFrom": {
      "description": "List of sources to populate environment variables in the container. The keys defined within a source must be a C_IDENTIFIER. All invalid keys will be reported as an event when the container is starting. When a key exists in multiple sources, the value associated with the last source will take precedence. Values defined by an Env with a duplicate key will take precedence. Cannot be updated.",
      "items": {
        "description": "EnvFromSource represents the source of a set of ConfigMaps",
        "properties": {
          "configMapRef": {
            "description": "ConfigMapEnvSource selects a ConfigMap to populate the environment variables with.\n\nThe contents of the target ConfigMap's Data field will represent the key-value pairs as environment variables.",
            "properties": {
              "name": {
                "description": "Name of the referent. More info: https://kubernetes.io/docs/concepts/overview/working-with-objects/names/#names",
                "type": [
                  "string",
                  "null"
                ]
              },
              "optional": {
                "description": "Specify whether the ConfigMap must be defined",
                "type": [
                  "boolean",
                  "null"
                ]
              }
            },
            "type": [
              "object",
              "null"
            ],
            "additionalProperties": false
          },
          "prefix": {
            "description": "An optional identifier to prepend to each key in the ConfigMap. Must be a C_IDENTIFIER.",
            "type": [
              "string",
              "null"
            ]
          },
          "secretRef": {
            "description": "SecretEnvSource selects a Secret to populate the environment variables with.\n\nThe contents of the target Secret's Data field will represent the key-value pairs as environment variables.",
            "properties": {
              "name": {
                "description": "Name of the referent. More info: https://kubernetes.io/docs/concepts/overview/working-with-objects/names/#names",
                "type": [
                  "string",
                  "null"
                ]
              },
              "optional": {
                "description": "Specify whether the Secret must be defined",
                "type": [
                  "boolean",
                  "null"
                ]
              }
            },
            "type": [
              "object",
              "null"
            ],
            "additionalProperties": false
          }
        },
        "type": [
          "object",
          "null"
        ],
        "additionalProperties": false
      },
      "type": [
        "array",
        "null"
      ]
    },
    "image": {
      "description": "Docker image name. More info: https://kubernetes.io/docs/concepts/containers/images",
      "type": [
        "string",
        "null"
      ]
    },
    "imagePullPolicy": {
      "description": "Image pull policy. One of Always, Never, IfNotPresent. Defaults to Always if :latest tag is specified, or IfNotPresent otherwise. Cannot be updated. More info: https://kubernetes.io/docs/concepts/containers/images#updating-images",
      "type": [
        "string",
        "null"
      ]
    },
    "lifecycle": {
      "description": "Lifecycle describes actions that the management system should take in response to container lifecycle events. For the PostStart and PreStop lifecycle handlers, management of the container blocks until the action is complete, unless the container process fails, in which case the handler is aborted.",
      "properties": {
        "postStart": {
          "description": "Handler defines a specific action that should be taken",
          "properties": {
            "exec": {
              "description": "ExecAction describes a \"run in container\" action.",
              "properties": {
                "command": {
                  "description": "Command is the command line to execute inside the container, the working directory for the command  is root ('/') in the container's filesystem. The command is simply exec'd, it is not run inside a shell, so traditional shell instructions ('|', etc) won't work. To use a shell, you need to explicitly call out to that shell. Exit status of 0 is treated as live/healthy and non-zero is unhealthy.",
                  "items": {
                    "type": [
                      "string",
                      "null"
                    ]
                  },
                  "type": [
                    "array",
                    "null"
                  ]
                }
              },
              "type": [
                "object",
                "null"
              ],
              "additionalProperties": false
            },
            "httpGet": {
              "description": "HTTPGetAction describes an action based on HTTP Get requests.",
              "properties": {
                "host": {
                  "description": "Host name to connect to, defaults to the pod IP. You probably want to set \"Host\" in httpHeaders instead.",
                  "type": [
                    "string",
                    "null"
                  ]
                },
                "httpHeaders": {
                  "description": "Custom headers to set in the request. HTTP allows repeated headers.",
                  "items": {
                    "description": "HTTPHeader describes a custom header to be used in HTTP probes",
                    "properties": {
                      "name": {
                        "description": "The header field name",
                        "type": "string"
                      },
                      "value": {
                        "description": "The header field value",
                        "type": "string"
                      }
                    },
                    "required": [
                      "name",
                      "value"
                    ],
                    "type": [
                      "object",
                      "null"
                    ],
                    "additionalProperties": false
                  },
                  "type": [
                    "array",
                    "null"
                  ]
                },
                "path": {
                  "description": "Path to access on the HTTP server.",
                  "type": [
                    "string",
                    "null"
                  ]
                },
                "port": {
                  "oneOf": [
                    {
                      "type": [
                        "string",
                        "null"
                      ]
                    },
                    {
                      "type": [
                        "integer",
                        "null"
                      ]
                    }
                  ]
                },
                "scheme": {
                  "description": "Scheme to use for connecting to the host. Defaults to HTTP.",
                  "type": [
                    "string",
                    "null"
                  ]
                }
              },
              "required": [
                "port"
              ],
              "type": [
                "object",
                "null"
              ],
              "additionalProperties": false
            },
            "tcpSocket": {
              "description": "TCPSocketAction describes an action based on opening a socket",
              "properties": {
                "host": {
                  "description": "Optional: Host name to connect to, defaults to the pod IP.",
                  "type": [
                    "string",
                    "null"
                  ]
                },
                "port": {
                  "oneOf": [
                    {
                      "type": [
                        "string",
                        "null"
                      ]
                    },
                    {
                      "type": [
                        "integer",
                        "null"
                      ]
                    }
                  ]
                }
              },
              "required": [
                "port"
              ],
              "type": [
                "object",
                "null"
              ],
              "additionalProperties": false
            }
          },
          "type": [
            "object",
            "null"
          ],
          "additionalProperties": false
        },
        "preStop": {
          "description": "Handler defines a specific action that should be taken",
          "properties": {
            "exec": {
              "description": "ExecAction describes a \"run in container\" action.",
              "properties": {
                "command": {
                  "description": "Command is the command line to execute inside the container, the working directory for the command  is root ('/') in the container's filesystem. The command is simply exec'd, it is not run inside a shell, so traditional shell instructions ('|', etc) won't work. To use a shell, you need to explicitly call out to that shell. Exit status of 0 is treated as live/healthy and non-zero is unhealthy.",
                  "items": {
                    "type": [
                      "string",
                      "null"
                    ]
                  },
                  "type": [
                    "array",
                    "null"
                  ]
                }
              },
              "type": [
                "object",
                "null"
              ],
              "additionalProperties": false
            },
            "httpGet": {
              "description": "HTTPGetAction describes an action based on HTTP Get requests.",
              "properties": {
                "host": {
                  "description": "Host name to connect to, defaults to the pod IP. You probably want to set \"Host\" in httpHeaders instead.",
                  "type": [
                    "string",
                    "null"
                  ]
                },
                "httpHeaders": {
                  "description": "Custom headers to set in the request. HTTP allows repeated headers.",
                  "items": {
                    "description": "HTTPHeader describes a custom header to be used in HTTP probes",
                    "properties": {
                      "name": {
                        "description": "The header field name",
                        "type": "string"
                      },
                      "value": {
                        "description": "The header field value",
                        "type": "string"
                      }
                    },
                    "required": [
                      "name",
                      "value"
                    ],
                    "type": [
                      "object",
                      "null"
                    ],
                    "additionalProperties": false
                  },
                  "type": [
                    "array",
                    "null"
                  ]
                },
                "path": {
                  "description": "Path to access on the HTTP server.",
                  "type": [
                    "string",
                    "null"
                  ]
                },
                "port": {
                  "oneOf": [
                    {
                      "type": [
                        "string",
                        "null"
                      ]
                    },
                    {
                      "type": [
                        "integer",
                        "null"
                      ]
                    }
                  ]
                },
                "scheme": {
                  "description": "Scheme to use for connecting to the host. Defaults to HTTP.",
                  "type": [
                    "string",
                    "null"
                  ]
                }
              },
              "required": [
                "port"
              ],
              "type": [
                "object",
                "null"
              ],
              "additionalProperties": false
            },
            "tcpSocket": {
              "description": "TCPSocketAction describes an action based on opening a socket",
              "properties": {
                "host": {
                  "description": "Optional: Host name to connect to, defaults to the pod IP.",
                  "type": [
                    "string",
                    "null"
                  ]
                },
                "port": {
                  "oneOf": [
                    {
                      "type": [
                        "string",
                        "null"
                      ]
                    },
                    {
                      "type": [
                        "integer",
                        "null"
                      ]
                    }
                  ]
                }
              },
              "required": [
                "port"
              ],
              "type": [
                "object",
                "null"
              ],
              "additionalProperties": false
            }
          },
          "type": [
            "object",
            "null"
          ],
          "additionalProperties": false
        }
      },
      "type": [
        "object",
        "null"
      ],
      "additionalProperties": false
    },
    "livenessProbe": {
      "description": "Probe describes a health check to be performed against a container to determine whether it is alive or ready to receive traffic.",
      "properties": {
        "exec": {
          "description": "ExecAction describes a \"run in container\" action.",
          "properties": {
            "command": {
              "description": "Command is the command line to execute inside the container, the working directory for the command  is root ('/') in the container's filesystem. The command is simply exec'd, it is not run inside a shell, so traditional shell instructions ('|', etc) won't work. To use a shell, you need to explicitly call out to that shell. Exit status of 0 is treated as live/healthy and non-zero is unhealthy.",
              "items": {
                "type": [
                  "string",
                  "null"
                ]
              },
              "type": [
                "array",
                "null"
              ]
            }
          },
          "type": [
            "object",
            "null"
          ],
          "additionalProperties": false
        },
        "failureThreshold": {
          "description": "Minimum consecutive failures for the probe to be considered failed after having succeeded. Defaults to 3. Minimum value is 1.",
          "format": "int32",
          "type": [
            "integer",
            "null"
          ]
        },
        "httpGet": {
          "description": "HTTPGetAction describes an action based on HTTP Get requests.",
          "properties": {
            "host": {
              "description": "Host name to connect to, defaults to the pod IP. You probably want to set \"Host\" in httpHeaders instead.",
              "type": [
                "string",
                "null"
              ]
            },
            "httpHeaders": {
              "description": "Custom headers to set in the request. HTTP allows repeated headers.",
              "items": {
                "description": "HTTPHeader describes a custom header to be used in HTTP probes",
                "properties": {
                  "name": {
                    "description": "The header field name",
                    "type": "string"
                  },
                  "value": {
                    "description": "The header field value",
                    "type": "string"
                  }
                },
                "required": [
                  "name",
                  "value"
                ],
                "type": [
                  "object",
                  "null"
                ],
                "additionalProperties": false
              },
              "type": [
                "array",
                "null"
              ]
            },
            "path": {
              "description": "Path to access on the HTTP server.",
              "type": [
                "string",
                "null"
              ]
            },
            "port": {
              "oneOf": [
                {
                  "type": [
                    "string",
                    "null"
                  ]
                },
                {
                  "type": [
                    "integer",
                    "null"
                  ]
                }
              ]
            },
            "scheme": {
              "description": "Scheme to use for connecting to the host. Defaults to HTTP.",
              "type": [
                "string",
                "null"
              ]
            }
          },
          "required": [
            "port"
          ],
          "type": [
            "object",
            "null"
          ],
          "additionalProperties": false
        },
        "initialDelaySeconds": {
          "description": "Number of seconds after the container has started before liveness probes are initiated. More info: https://kubernetes.io/docs/concepts/workloads/pods/pod-lifecycle#container-probes",
          "format": "int32",
          "type": [
            "integer",
            "null"
          ]
        },
        "periodSeconds": {
          "description": "How often (in seconds) to perform the probe. Default to 10 seconds. Minimum value is 1.",
          "format": "int32",
          "type": [
            "integer",
            "null"
          ]
        },
        "successThreshold": {
          "description": "Minimum consecutive successes for the probe to be considered successful after having failed. Defaults to 1. Must be 1 for liveness and startup. Minimum value is 1.",
          "format": "int32",
          "type": [
            "integer",
            "null"
          ]
        },
        "tcpSocket": {
          "description": "TCPSocketAction describes an action based on opening a socket",
          "properties": {
            "host": {
              "description": "Optional: Host name to connect to, defaults to the pod IP.",
              "type": [
                "string",
                "null"
              ]
            },
            "port": {
              "oneOf": [
                {
                  "type": [
                    "string",
                    "null"
                  ]
                },
                {
                  "type": [
                    "integer",
                    "null"
                  ]
                }
              ]
            }
          },
          "required": [
            "port"
          ],
          "type": [
            "object",
            "null"
          ],
          "additionalProperties": false
        },
        "terminationGracePeriodSeconds": {
          "description": "Optional duration in seconds the pod needs to terminate gracefully upon probe failure. The grace period is the duration in seconds after the processes running in the pod are sent a termination signal and the time when the processes are forcibly halted with a kill signal. Set this value longer than the expected cleanup time for your process. If this value is nil, the pod's terminationGracePeriodSeconds will be used. Otherwise, this value overrides the value provided by the pod spec. Value must be non-negative integer. The value zero indicates stop immediately via the kill signal (no opportunity to shut down). This is a beta field and requires enabling ProbeTerminationGracePeriod feature gate. Minimum value is 1. spec.terminationGracePeriodSeconds is used if unset.",
          "format": "int64",
          "type": [
            "integer",
            "null"
          ]
        },
        "timeoutSeconds": {
          "description": "Number of seconds after which the probe times out. Defaults to 1 second. Minimum value is 1. More info: https://kubernetes.io/docs/concepts/workloads/pods/pod-lifecycle#container-probes",
          "format": "int32",
          "type": [
            "integer",
            "null"
          ]
        }
      },
      "type": [
        "object",
        "null"
      ],
      "additionalProperties": false
    },
    "name": {
      "description": "Name of the ephemeral container specified as a DNS_LABEL. This name must be unique among all containers, init containers and ephemeral containers.",
      "type": [
        "string",
        "null"
      ]
    },
    "ports": {
      "description": "Ports are not allowed for ephemeral containers.",
      "items": {
        "description": "ContainerPort represents a network port in a single container.",
        "properties": {
          "containerPort": {
            "description": "Number of port to expose on the pod's IP address. This must be a valid port number, 0 < x < 65536.",
            "format": "int32",
            "type": "integer"
          },
          "hostIP": {
            "description": "What host IP to bind the external port to.",
            "type": [
              "string",
              "null"
            ]
          },
          "hostPort": {
            "description": "Number of port to expose on the host. If specified, this must be a valid port number, 0 < x < 65536. If HostNetwork is specified, this must match ContainerPort. Most containers do not need this.",
            "format": "int32",
            "type": [
              "integer",
              "null"
            ]
          },
          "name": {
            "description": "If specified, this must be an IANA_SVC_NAME and unique within the pod. Each named port in a pod must have a unique name. Name for the port that can be referred to by services.",
            "type": [
              "string",
              "null"
            ]
          },
          "protocol": {
            "description": "Protocol for port. Must be UDP, TCP, or SCTP. Defaults to \"TCP\".",
            "type": [
              "string",
              "null"
            ]
          }
        },
        "required": [
          "containerPort"
        ],
        "type": [
          "object",
          "null"
        ],
        "additionalProperties": false
      },
      "type": [
        "array",
        "null"
      ],
      "x-kubernetes-list-map-keys": [
        "containerPort",
        "protocol"
      ],
      "x-kubernetes-list-type": "map",
      "x-kubernetes-patch-merge-key": "containerPort",
      "x-kubernetes-patch-strategy": "merge"
    },
    "readinessProbe": {
      "description": "Probe describes a health check to be performed against a container to determine whether it is alive or ready to receive traffic.",
      "properties": {
        "exec": {
          "description": "ExecAction describes a \"run in container\" action.",
          "properties": {
            "command": {
              "description": "Command is the command line to execute inside the container, the working directory for the command  is root ('/') in the container's filesystem. The command is simply exec'd, it is not run inside a shell, so traditional shell instructions ('|', etc) won't work. To use a shell, you need to explicitly call out to that shell. Exit status of 0 is treated as live/healthy and non-zero is unhealthy.",
              "items": {
                "type": [
                  "string",
                  "null"
                ]
              },
              "type": [
                "array",
                "null"
              ]
            }
          },
          "type": [
            "object",
            "null"
          ],
          "additionalProperties": false
        },
        "failureThreshold": {
          "description": "Minimum consecutive failures for the probe to be considered failed after having succeeded. Defaults to 3. Minimum value is 1.",
          "format": "int32",
          "type": [
            "integer",
            "null"
          ]
        },
        "httpGet": {
          "description": "HTTPGetAction describes an action based on HTTP Get requests.",
          "properties": {
            "host": {
              "description": "Host name to connect to, defaults to the pod IP. You probably want to set \"Host\" in httpHeaders instead.",
              "type": [
                "string",
                "null"
              ]
            },
            "httpHeaders": {
              "description": "Custom headers to set in the request. HTTP allows repeated headers.",
              "items": {
                "description": "HTTPHeader describes a custom header to be used in HTTP probes",
                "properties": {
                  "name": {
                    "description": "The header field name",
                    "type": "string"
                  },
                  "value": {
                    "description": "The header field value",
                    "type": "string"
                  }
                },
                "required": [
                  "name",
                  "value"
                ],
                "type": [
                  "object",
                  "null"
                ],
                "additionalProperties": false
              },
              "type": [
                "array",
                "null"
              ]
            },
            "path": {
              "description": "Path to access on the HTTP server.",
              "type": [
                "string",
                "null"
              ]
            },
            "port": {
              "oneOf": [
                {
                  "type": [
                    "string",
                    "null"
                  ]
                },
                {
                  "type": [
                    "integer",
                    "null"
                  ]
                }
              ]
            },
            "scheme": {
              "description": "Scheme to use for connecting to the host. Defaults to HTTP.",
              "type": [
                "string",
                "null"
              ]
            }
          },
          "required": [
            "port"
          ],
          "type": [
            "object",
            "null"
          ],
          "additionalProperties": false
        },
        "initialDelaySeconds": {
          "description": "Number of seconds after the container has started before liveness probes are initiated. More info: https://kubernetes.io/docs/concepts/workloads/pods/pod-lifecycle#container-probes",
          "format": "int32",
          "type": [
            "integer",
            "null"
          ]
        },
        "periodSeconds": {
          "description": "How often (in seconds) to perform the probe. Default to 10 seconds. Minimum value is 1.",
          "format": "int32",
          "type": [
            "integer",
            "null"
          ]
        },
        "successThreshold": {
          "description": "Minimum consecutive successes for the probe to be considered successful after having failed. Defaults to 1. Must be 1 for liveness and startup. Minimum value is 1.",
          "format": "int32",
          "type": [
            "integer",
            "null"
          ]
        },
        "tcpSocket": {
          "description": "TCPSocketAction describes an action based on opening a socket",
          "properties": {
            "host": {
              "description": "Optional: Host name to connect to, defaults to the pod IP.",
              "type": [
                "string",
                "null"
              ]
            },
            "port": {
              "oneOf": [
                {
                  "type": [
                    "string",
                    "null"
                  ]
                },
                {
                  "type": [
                    "integer",
                    "null"
                  ]
                }
              ]
            }
          },
          "required": [
            "port"
          ],
          "type": [
            "object",
            "null"
          ],
          "additionalProperties": false
        },
        "terminationGracePeriodSeconds": {
          "description": "Optional duration in seconds the pod needs to terminate gracefully upon probe failure. The grace period is the duration in seconds after the processes running in the pod are sent a termination signal and the time when the processes are forcibly halted with a kill signal. Set this value longer than the expected cleanup time for your process. If this value is nil, the pod's terminationGracePeriodSeconds will be used. Otherwise, this value overrides the value provided by the pod spec. Value must be non-negative integer. The value zero indicates stop immediately via the kill signal (no opportunity to shut down). This is a beta field and requires enabling ProbeTerminationGracePeriod feature gate. Minimum value is 1. spec.terminationGracePeriodSeconds is used if unset.",
          "format": "int64",
          "type": [
            "integer",
            "null"
          ]
        },
        "timeoutSeconds": {
          "description": "Number of seconds after which the probe times out. Defaults to 1 second. Minimum value is 1. More info: https://kubernetes.io/docs/concepts/workloads/pods/pod-lifecycle#container-probes",
          "format": "int32",
          "type": [
            "integer",
            "null"
          ]
        }
      },
      "type": [
        "object",
        "null"
      ],
      "additionalProperties": false
    },
    "resources": {
      "description": "ResourceRequirements describes the compute resource requirements.",
      "properties": {
        "limits": {
          "additionalProperties": {
            "oneOf": [
              {
                "type": [
                  "string",
                  "null"
                ]
              },
              {
                "type": [
                  "number",
                  "null"
                ]
              }
            ]
          },
          "description": "Limits describes the maximum amount of compute resources allowed. More info: https://kubernetes.io/docs/concepts/configuration/manage-resources-containers/",
          "type": [
            "object",
            "null"
          ]
        },
        "requests": {
          "additionalProperties": {
            "oneOf": [
              {
                "type": [
                  "string",
                  "null"
                ]
              },
              {
                "type": [
                  "number",
                  "null"
                ]
              }
            ]
          },
          "description": "Requests describes the minimum amount of compute resources required. If Requests is omitted for a container, it defaults to Limits if that is explicitly specified, otherwise to an implementation-defined value. More info: https://kubernetes.io/docs/concepts/configuration/manage-resources-containers/",
          "type": [
            "object",
            "null"
          ]
        }
      },
      "type": [
        "object",
        "null"
      ],
      "additionalProperties": false
    },
    "securityContext": {
      "description": "SecurityContext holds security configuration that will be applied to a container. Some fields are present in both SecurityContext and PodSecurityContext.  When both are set, the values in SecurityContext take precedence.",
      "properties": {
        "allowPrivilegeEscalation": {
          "description": "AllowPrivilegeEscalation controls whether a process can gain more privileges than its parent process. This bool directly controls if the no_new_privs flag will be set on the container process. AllowPrivilegeEscalation is true always when the container is: 1) run as Privileged 2) has CAP_SYS_ADMIN",
          "type": [
            "boolean",
            "null"
          ]
        },
        "capabilities": {
          "description": "Adds and removes POSIX capabilities from running containers.",
          "properties": {
            "add": {
              "description": "Added capabilities",
              "items": {
                "type": [
                  "string",
                  "null"
                ]
              },
              "type": [
                "array",
                "null"
              ]
            },
            "drop": {
              "description": "Removed capabilities",
              "items": {
                "type": [
                  "string",
                  "null"
                ]
              },
              "type": [
                "array",
                "null"
              ]
            }
          },
          "type": [
            "object",
            "null"
          ],
          "additionalProperties": false
        },
        "privileged": {
          "description": "Run container in privileged mode. Processes in privileged containers are essentially equivalent to root on the host. Defaults to false.",
          "type": [
            "boolean",
            "null"
          ]
        },
        "procMount": {
          "description": "procMount denotes the type of proc mount to use for the containers. The default is DefaultProcMount which uses the container runtime defaults for readonly paths and masked paths. This requires the ProcMountType feature flag to be enabled.",
          "type": [
            "string",
            "null"
          ]
        },
        "readOnlyRootFilesystem": {
          "description": "Whether this container has a read-only root filesystem. Default is false.",
          "type": [
            "boolean",
            "null"
          ]
        },
        "runAsGroup": {
          "description": "The GID to run the entrypoint of the container process. Uses runtime default if unset. May also be set in PodSecurityContext.  If set in both SecurityContext and PodSecurityContext, the value specified in SecurityContext takes precedence.",
          "format": "int64",
          "type": [
            "integer",
            "null"
          ]
        },
        "runAsNonRoot": {
          "description": "Indicates that the container must run as a non-root user. If true, the Kubelet will validate the image at runtime to ensure that it does not run as UID 0 (root) and fail to start the container if it does. If unset or false, no such validation will be performed. May also be set in PodSecurityContext.  If set in both SecurityContext and PodSecurityContext, the value specified in SecurityContext takes precedence.",
          "type": [
            "boolean",
            "null"
          ]
        },
        "runAsUser": {
          "description": "The UID to run the entrypoint of the container process. Defaults to user specified in image metadata if unspecified. May also be set in PodSecurityContext.  If set in both SecurityContext and PodSecurityContext, the value specified in SecurityContext takes precedence.",
          "format": "int64",
          "type": [
            "integer",
            "null"
          ]
        },
        "seLinuxOptions": {
          "description": "SELinuxOptions are the labels to be applied to the container",
          "properties": {
            "level": {
              "description": "Level is SELinux level label that applies to the container.",
              "type": [
                "string",
                "null"
              ]
            },
            "role": {
              "description": "Role is a SELinux role label that applies to the container.",
              "type": [
                "string",
                "null"
              ]
            },
            "type": {
              "description": "Type is a SELinux type label that applies to the container.",
              "type": [
                "string",
                "null"
              ]
            },
            "user": {
              "description": "User is a SELinux user label that applies to the container.",
              "type": [
                "string",
                "null"
              ]
            }
          },
          "type": [
            "object",
            "null"
          ],
          "additionalProperties": false
        },
        "seccompProfile": {
          "description": "SeccompProfile defines a pod/container's seccomp profile settings. Only one profile source may be set.",
          "properties": {
            "localhostProfile": {
              "description": "localhostProfile indicates a profile defined in a file on the node should be used. The profile must be preconfigured on the node to work. Must be a descending path, relative to the kubelet's configured seccomp profile location. Must only be set if type is \"Localhost\".",
              "type": [
                "string",
                "null"
              ]
            },
            "type": {
              "description": "type indicates which kind of seccomp profile will be applied. Valid options are:\n\nLocalhost - a profile defined in a file on the node should be used. RuntimeDefault - the container runtime default profile should be used. Unconfined - no profile should be applied.",
              "type": "string"
            }
          },
          "required": [
            "type"
          ],
          "type": [
            "object",
            "null"
          ],
          "x-kubernetes-unions": [
            {
              "discriminator": "type",
              "fields-to-discriminateBy": {
                "localhostProfile": "LocalhostProfile"
              }
            }
          ],
          "additionalProperties": false
        },
        "windowsOptions": {
          "description": "WindowsSecurityContextOptions contain Windows-specific options and credentials.",
          "properties": {
            "gmsaCredentialSpec": {
              "description": "GMSACredentialSpec is where the GMSA admission webhook (https://github.com/kubernetes-sigs/windows-gmsa) inlines the contents of the GMSA credential spec named by the GMSACredentialSpecName field.",
              "type": [
                "string",
                "null"
              ]
            },
            "gmsaCredentialSpecName": {
              "description": "GMSACredentialSpecName is the name of the GMSA credential spec to use.",
              "type": [
                "string",
                "null"
              ]
            },
            "hostProcess": {
              "description": "HostProcess determines if a container should be run as a 'Host Process' container. This field is alpha-level and will only be honored by components that enable the WindowsHostProcessContainers feature flag. Setting this field without the feature flag will result in errors when validating the Pod. All of a Pod's containers must have the same effective HostProcess value (it is not allowed to have a mix of HostProcess containers and non-HostProcess containers).  In addition, if HostProcess is true then HostNetwork must also be set to true.",
              "type": [
                "boolean",
                "null"
              ]
            },
            "runAsUserName": {
              "description": "The UserName in Windows to run the entrypoint of the container process. Defaults to the user specified in image metadata if unspecified. May also be set in PodSecurityContext. If set in both SecurityContext and PodSecurityContext, the value specified in SecurityContext takes precedence.",
              "type": [
                "string",
                "null"
              ]
            }
          },
          "type": [
            "object",
            "null"
          ],
          "additionalProperties": false
        }
      },
      "type": [
        "object",
        "null"
      ],
      "additionalProperties": false
    },
    "startupProbe": {
      "description": "Probe describes a health check to be performed against a container to determine whether it is alive or ready to receive traffic.",
      "properties": {
        "exec": {
          "description": "ExecAction describes a \"run in container\" action.",
          "properties": {
            "command": {
              "description": "Command is the command line to execute inside the container, the working directory for the command  is root ('/') in the container's filesystem. The command is simply exec'd, it is not run inside a shell, so traditional shell instructions ('|', etc) won't work. To use a shell, you need to explicitly call out to that shell. Exit status of 0 is treated as live/healthy and non-zero is unhealthy.",
              "items": {
                "type": [
                  "string",
                  "null"
                ]
              },
              "type": [
                "array",
                "null"
              ]
            }
          },
          "type": [
            "object",
            "null"
          ],
          "additionalProperties": false
        },
        "failureThreshold": {
          "description": "Minimum consecutive failures for the probe to be considered failed after having succeeded. Defaults to 3. Minimum value is 1.",
          "format": "int32",
          "type": [
            "integer",
            "null"
          ]
        },
        "httpGet": {
          "description": "HTTPGetAction describes an action based on HTTP Get requests.",
          "properties": {
            "host": {
              "description": "Host name to connect to, defaults to the pod IP. You probably want to set \"Host\" in httpHeaders instead.",
              "type": [
                "string",
                "null"
              ]
            },
            "httpHeaders": {
              "description": "Custom headers to set in the request. HTTP allows repeated headers.",
              "items": {
                "description": "HTTPHeader describes a custom header to be used in HTTP probes",
                "properties": {
                  "name": {
                    "description": "The header field name",
                    "type": "string"
                  },
                  "value": {
                    "description": "The header field value",
                    "type": "string"
                  }
                },
                "required": [
                  "name",
                  "value"
                ],
                "type": [
                  "object",
                  "null"
                ],
                "additionalProperties": false
              },
              "type": [
                "array",
                "null"
              ]
            },
            "path": {
              "description": "Path to access on the HTTP server.",
              "type": [
                "string",
                "null"
              ]
            },
            "port": {
              "oneOf": [
                {
                  "type": [
                    "string",
                    "null"
                  ]
                },
                {
                  "type": [
                    "integer",
                    "null"
                  ]
                }
              ]
            },
            "scheme": {
              "description": "Scheme to use for connecting to the host. Defaults to HTTP.",
              "type": [
                "string",
                "null"
              ]
            }
          },
          "required": [
            "port"
          ],
          "type": [
            "object",
            "null"
          ],
          "additionalProperties": false
        },
        "initialDelaySeconds": {
          "description": "Number of seconds after the container has started before liveness probes are initiated. More info: https://kubernetes.io/docs/concepts/workloads/pods/pod-lifecycle#container-probes",
          "format": "int32",
          "type": [
            "integer",
            "null"
          ]
        },
        "periodSeconds": {
          "description": "How often (in seconds) to perform the probe. Default to 10 seconds. Minimum value is 1.",
          "format": "int32",
          "type": [
            "integer",
            "null"
          ]
        },
        "successThreshold": {
          "description": "Minimum consecutive successes for the probe to be considered successful after having failed. Defaults to 1. Must be 1 for liveness and startup. Minimum value is 1.",
          "format": "int32",
          "type": [
            "integer",
            "null"
          ]
        },
        "tcpSocket": {
          "description": "TCPSocketAction describes an action based on opening a socket",
          "properties": {
            "host": {
              "description": "Optional: Host name to connect to, defaults to the pod IP.",
              "type": [
                "string",
                "null"
              ]
            },
            "port": {
              "oneOf": [
                {
                  "type": [
                    "string",
                    "null"
                  ]
                },
                {
                  "type": [
                    "integer",
                    "null"
                  ]
                }
              ]
            }
          },
          "required": [
            "port"
          ],
          "type": [
            "object",
            "null"
          ],
          "additionalProperties": false
        },
        "terminationGracePeriodSeconds": {
          "description": "Optional duration in seconds the pod needs to terminate gracefully upon probe failure. The grace period is the duration in seconds after the processes running in the pod are sent a termination signal and the time when the processes are forcibly halted with a kill signal. Set this value longer than the expected cleanup time for your process. If this value is nil, the pod's terminationGracePeriodSeconds will be used. Otherwise, this value overrides the value provided by the pod spec. Value must be non-negative integer. The value zero indicates stop immediately via the kill signal (no opportunity to shut down). This is a beta field and requires enabling ProbeTerminationGracePeriod feature gate. Minimum value is 1. spec.terminationGracePeriodSeconds is used if unset.",
          "format": "int64",
          "type": [
            "integer",
            "null"
          ]
        },
        "timeoutSeconds": {
          "description": "Number of seconds after which the probe times out. Defaults to 1 second. Minimum value is 1. More info: https://kubernetes.io/docs/concepts/workloads/pods/pod-lifecycle#container-probes",
          "format": "int32",
          "type": [
            "integer",
            "null"
          ]
        }
      },
      "type": [
        "object",
        "null"
      ],
      "additionalProperties": false
    },
    "stdin": {
      "description": "Whether this container should allocate a buffer for stdin in the container runtime. If this is not set, reads from stdin in the container will always result in EOF. Default is false.",
      "type": [
        "boolean",
        "null"
      ]
    },
    "stdinOnce": {
      "description": "Whether the container runtime should close the stdin channel after it has been opened by a single attach. When stdin is true the stdin stream will remain open across multiple attach sessions. If stdinOnce is set to true, stdin is opened on container start, is empty until the first client attaches to stdin, and then remains open and accepts data until the client disconnects, at which time stdin is closed and remains closed until the container is restarted. If this flag is false, a container processes that reads from stdin will never receive an EOF. Default is false",
      "type": [
        "boolean",
        "null"
      ]
    },
    "targetContainerName": {
      "description": "If set, the name of the container from PodSpec that this ephemeral container targets. The ephemeral container will be run in the namespaces (IPC, PID, etc) of this container. If not set then the ephemeral container uses the namespaces configured in the Pod spec.\n\nThe container runtime must implement support for this feature. If the runtime does not support namespace targeting then the result of setting this field is undefined.",
      "type": [
        "string",
        "null"
      ]
    },
    "terminationMessagePath": {
      "description": "Optional: Path at which the file to which the container's termination message will be written is mounted into the container's filesystem. Message written is intended to be brief final status, such as an assertion failure message. Will be truncated by the node if greater than 4096 bytes. The total message length across all containers will be limited to 12kb. Defaults to /dev/termination-log. Cannot be updated.",
      "type": [
        "string",
        "null"
      ]
    },
    "terminationMessagePolicy": {
      "description": "Indicate how the termination message should be populated. File will use the contents of terminationMessagePath to populate the container status message on both success and failure. FallbackToLogsOnError will use the last chunk of container log output if the termination message file is empty and the container exited with an error. The log output is limited to 2048 bytes or 80 lines, whichever is smaller. Defaults to File. Cannot be updated.",
      "type": [
        "string",
        "null"
      ]
    },
    "tty": {
      "description": "Whether this container should allocate a TTY for itself, also requires 'stdin' to be true. Default is false.",
      "type": [
        "boolean",
        "null"
      ]
    },
    "volumeDevices": {
      "description": "volumeDevices is the list of block devices to be used by the container.",
      "items": {
        "description": "volumeDevice describes a mapping of a raw block device within a container.",
        "properties": {
          "devicePath": {
            "description": "devicePath is the path inside of the container that the device will be mapped to.",
            "type": "string"
          },
          "name": {
            "description": "name must match the name of a persistentVolumeClaim in the pod",
            "type": "string"
          }
        },
        "required": [
          "name",
          "devicePath"
        ],
        "type": [
          "object",
          "null"
        ],
        "additionalProperties": false
      },
      "type": [
        "array",
        "null"
      ],
      "x-kubernetes-patch-merge-key": "devicePath",
      "x-kubernetes-patch-strategy": "merge"
    },
    "volumeMounts": {
      "description": "Pod volumes to mount into the container's filesystem. Subpath mounts are not allowed for ephemeral containers. Cannot be updated.",
      "items": {
        "description": "VolumeMount describes a mounting of a Volume within a container.",
        "properties": {
          "mountPath": {
            "description": "Path within the container at which the volume should be mounted.  Must not contain ':'.",
            "type": "string"
          },
          "mountPropagation": {
            "description": "mountPropagation determines how mounts are propagated from the host to container and the other way around. When not set, MountPropagationNone is used. This field is beta in 1.10.",
            "type": [
              "string",
              "null"
            ]
          },
          "name": {
            "description": "This must match the Name of a Volume.",
            "type": "string"
          },
          "readOnly": {
            "description": "Mounted read-only if true, read-write otherwise (false or unspecified). Defaults to false.",
            "type": [
              "boolean",
              "null"
            ]
          },
          "subPath": {
            "description": "Path within the volume from which the container's volume should be mounted. Defaults to \"\" (volume's root).",
            "type": [
              "string",
              "null"
            ]
          },
          "subPathExpr": {
            "description": "Expanded path within the volume from which the container's volume should be mounted. Behaves similarly to SubPath but environment variable references $(VAR_NAME) are expanded using the container's environment. Defaults to \"\" (volume's root). SubPathExpr and SubPath are mutually exclusive.",
            "type": [
              "string",
              "null"
            ]
          }
        },
        "required": [
          "name",
          "mountPath"
        ],
        "type": [
          "object",
          "null"
        ],
        "additionalProperties": false
      },
      "type": [
        "array",
        "null"
      ],
      "x-kubernetes-patch-merge-key": "mountPath",
      "x-kubernetes-patch-strategy": "merge"
    },
    "workingDir": {
      "description": "Container's working directory. If not specified, the container runtime's default will be used, which might be configured in the container image. Cannot be updated.",
      "type": [
        "string",
        "null"
      ]
    }
  },
  "required": [
    "name"
  ],
  "type": "object",
  "additionalProperties": false,
  "$schema": "http://json-schema.org/schema#"
}