{
  "description": "VolumeAttachmentSource represents a volume that should be attached. Right now only PersistenVolumes can be attached via external attacher, in future we may allow also inline volumes in pods. Exactly one member can be set.",
  "properties": {
    "inlineVolumeSpec": {
      "description": "PersistentVolumeSpec is the specification of a persistent volume.",
      "properties": {
        "accessModes": {
          "description": "AccessModes contains all ways the volume can be mounted. More info: https://kubernetes.io/docs/concepts/storage/persistent-volumes#access-modes",
          "items": {
            "type": [
              "string",
              "null"
            ]
          },
          "type": [
            "array",
            "null"
          ]
        },
        "awsElasticBlockStore": {
          "description": "Represents a Persistent Disk resource in AWS.\n\nAn AWS EBS disk must exist before mounting to a container. The disk must also be in the same AWS zone as the kubelet. An AWS EBS disk can only be mounted as read/write once. AWS EBS volumes support ownership management and SELinux relabeling.",
          "properties": {
            "fsType": {
              "description": "Filesystem type of the volume that you want to mount. Tip: Ensure that the filesystem type is supported by the host operating system. Examples: \"ext4\", \"xfs\", \"ntfs\". Implicitly inferred to be \"ext4\" if unspecified. More info: https://kubernetes.io/docs/concepts/storage/volumes#awselasticblockstore",
              "type": [
                "string",
                "null"
              ]
            },
            "partition": {
              "description": "The partition in the volume that you want to mount. If omitted, the default is to mount by volume name. Examples: For volume /dev/sda1, you specify the partition as \"1\". Similarly, the volume partition for /dev/sda is \"0\" (or you can leave the property empty).",
              "format": "int32",
              "type": [
                "integer",
                "null"
              ]
            },
            "readOnly": {
              "description": "Specify \"true\" to force and set the ReadOnly property in VolumeMounts to \"true\". If omitted, the default is \"false\". More info: https://kubernetes.io/docs/concepts/storage/volumes#awselasticblockstore",
              "type": [
                "boolean",
                "null"
              ]
            },
            "volumeID": {
              "description": "Unique ID of the persistent disk resource in AWS (Amazon EBS volume). More info: https://kubernetes.io/docs/concepts/storage/volumes#awselasticblockstore",
              "type": "string"
            }
          },
          "required": [
            "volumeID"
          ],
          "type": [
            "object",
            "null"
          ],
          "additionalProperties": false
        },
        "azureDisk": {
          "description": "AzureDisk represents an Azure Data Disk mount on the host and bind mount to the pod.",
          "properties": {
            "cachingMode": {
              "description": "Host Caching mode: None, Read Only, Read Write.",
              "type": [
                "string",
                "null"
              ]
            },
            "diskName": {
              "description": "The Name of the data disk in the blob storage",
              "type": "string"
            },
            "diskURI": {
              "description": "The URI the data disk in the blob storage",
              "type": "string"
            },
            "fsType": {
              "description": "Filesystem type to mount. Must be a filesystem type supported by the host operating system. Ex. \"ext4\", \"xfs\", \"ntfs\". Implicitly inferred to be \"ext4\" if unspecified.",
              "type": [
                "string",
                "null"
              ]
            },
            "kind": {
              "description": "Expected values Shared: multiple blob disks per storage account  Dedicated: single blob disk per storage account  Managed: azure managed data disk (only in managed availability set). defaults to shared",
              "type": [
                "string",
                "null"
              ]
            },
            "readOnly": {
              "description": "Defaults to false (read/write). ReadOnly here will force the ReadOnly setting in VolumeMounts.",
              "type": [
                "boolean",
                "null"
              ]
            }
          },
          "required": [
            "diskName",
            "diskURI"
          ],
          "type": [
            "object",
            "null"
          ],
          "additionalProperties": false
        },
        "azureFile": {
          "description": "AzureFile represents an Azure File Service mount on the host and bind mount to the pod.",
          "properties": {
            "readOnly": {
              "description": "Defaults to false (read/write). ReadOnly here will force the ReadOnly setting in VolumeMounts.",
              "type": [
                "boolean",
                "null"
              ]
            },
            "secretName": {
              "description": "the name of secret that contains Azure Storage Account Name and Key",
              "type": "string"
            },
            "secretNamespace": {
              "description": "the namespace of the secret that contains Azure Storage Account Name and Key default is the same as the Pod",
              "type": [
                "string",
                "null"
              ]
            },
            "shareName": {
              "description": "Share Name",
              "type": "string"
            }
          },
          "required": [
            "secretName",
            "shareName"
          ],
          "type": [
            "object",
            "null"
          ],
          "additionalProperties": false
        },
        "capacity": {
          "additionalProperties": {
            "oneOf": [
              {
                "type": [
                  "string",
                  "null"
                ]
              },
              {
                "type": [
                  "number",
                  "null"
                ]
              }
            ]
          },
          "description": "A description of the persistent volume's resources and capacity. More info: https://kubernetes.io/docs/concepts/storage/persistent-volumes#capacity",
          "type": [
            "object",
            "null"
          ]
        },
        "cephfs": {
          "description": "Represents a Ceph Filesystem mount that lasts the lifetime of a pod Cephfs volumes do not support ownership management or SELinux relabeling.",
          "properties": {
            "monitors": {
              "description": "Required: Monitors is a collection of Ceph monitors More info: https://examples.k8s.io/volumes/cephfs/README.md#how-to-use-it",
              "items": {
                "type": [
                  "string",
                  "null"
                ]
              },
              "type": "array"
            },
            "path": {
              "description": "Optional: Used as the mounted root, rather than the full Ceph tree, default is /",
              "type": [
                "string",
                "null"
              ]
            },
            "readOnly": {
              "description": "Optional: Defaults to false (read/write). ReadOnly here will force the ReadOnly setting in VolumeMounts. More info: https://examples.k8s.io/volumes/cephfs/README.md#how-to-use-it",
              "type": [
                "boolean",
                "null"
              ]
            },
            "secretFile": {
              "description": "Optional: SecretFile is the path to key ring for User, default is /etc/ceph/user.secret More info: https://examples.k8s.io/volumes/cephfs/README.md#how-to-use-it",
              "type": [
                "string",
                "null"
              ]
            },
            "secretRef": {
              "description": "SecretReference represents a Secret Reference. It has enough information to retrieve secret in any namespace",
              "properties": {
                "name": {
                  "description": "Name is unique within a namespace to reference a secret resource.",
                  "type": [
                    "string",
                    "null"
                  ]
                },
                "namespace": {
                  "description": "Namespace defines the space within which the secret name must be unique.",
                  "type": [
                    "string",
                    "null"
                  ]
                }
              },
              "type": [
                "object",
                "null"
              ],
              "x-kubernetes-map-type": "atomic",
              "additionalProperties": false
            },
            "user": {
              "description": "Optional: User is the rados user name, default is admin More info: https://examples.k8s.io/volumes/cephfs/README.md#how-to-use-it",
              "type": [
                "string",
                "null"
              ]
            }
          },
          "required": [
            "monitors"
          ],
          "type": [
            "object",
            "null"
          ],
          "additionalProperties": false
        },
        "cinder": {
          "description": "Represents a cinder volume resource in Openstack. A Cinder volume must exist before mounting to a container. The volume must also be in the same region as the kubelet. Cinder volumes support ownership management and SELinux relabeling.",
          "properties": {
            "fsType": {
              "description": "Filesystem type to mount. Must be a filesystem type supported by the host operating system. Examples: \"ext4\", \"xfs\", \"ntfs\". Implicitly inferred to be \"ext4\" if unspecified. More info: https://examples.k8s.io/mysql-cinder-pd/README.md",
              "type": [
                "string",
                "null"
              ]
            },
            "readOnly": {
              "description": "Optional: Defaults to false (read/write). ReadOnly here will force the ReadOnly setting in VolumeMounts. More info: https://examples.k8s.io/mysql-cinder-pd/README.md",
              "type": [
                "boolean",
                "null"
              ]
            },
            "secretRef": {
              "description": "SecretReference represents a Secret Reference. It has enough information to retrieve secret in any namespace",
              "properties": {
                "name": {
                  "description": "Name is unique within a namespace to reference a secret resource.",
                  "type": [
                    "string",
                    "null"
                  ]
                },
                "namespace": {
                  "description": "Namespace defines the space within which the secret name must be unique.",
                  "type": [
                    "string",
                    "null"
                  ]
                }
              },
              "type": [
                "object",
                "null"
              ],
              "x-kubernetes-map-type": "atomic",
              "additionalProperties": false
            },
            "volumeID": {
              "description": "volume id used to identify the volume in cinder. More info: https://examples.k8s.io/mysql-cinder-pd/README.md",
              "type": "string"
            }
          },
          "required": [
            "volumeID"
          ],
          "type": [
            "object",
            "null"
          ],
          "additionalProperties": false
        },
        "claimRef": {
          "description": "ObjectReference contains enough information to let you inspect or modify the referred object.",
          "properties": {
            "apiVersion": {
              "description": "API version of the referent.",
              "type": [
                "string",
                "null"
              ]
            },
            "fieldPath": {
              "description": "If referring to a piece of an object instead of an entire object, this string should contain a valid JSON/Go field access statement, such as desiredState.manifest.containers[2]. For example, if the object reference is to a container within a pod, this would take on a value like: \"spec.containers{name}\" (where \"name\" refers to the name of the container that triggered the event) or if no container name is specified \"spec.containers[2]\" (container with index 2 in this pod). This syntax is chosen only to have some well-defined way of referencing a part of an object.",
              "type": [
                "string",
                "null"
              ]
            },
            "kind": {
              "description": "Kind of the referent. More info: https://git.k8s.io/community/contributors/devel/sig-architecture/api-conventions.md#types-kinds",
              "type": [
                "string",
                "null"
              ]
            },
            "name": {
              "description": "Name of the referent. More info: https://kubernetes.io/docs/concepts/overview/working-with-objects/names/#names",
              "type": [
                "string",
                "null"
              ]
            },
            "namespace": {
              "description": "Namespace of the referent. More info: https://kubernetes.io/docs/concepts/overview/working-with-objects/namespaces/",
              "type": [
                "string",
                "null"
              ]
            },
            "resourceVersion": {
              "description": "Specific resourceVersion to which this reference is made, if any. More info: https://git.k8s.io/community/contributors/devel/sig-architecture/api-conventions.md#concurrency-control-and-consistency",
              "type": [
                "string",
                "null"
              ]
            },
            "uid": {
              "description": "UID of the referent. More info: https://kubernetes.io/docs/concepts/overview/working-with-objects/names/#uids",
              "type": [
                "string",
                "null"
              ]
            }
          },
          "type": [
            "object",
            "null"
          ],
          "x-kubernetes-map-type": "atomic",
          "additionalProperties": false
        },
        "csi": {
          "description": "Represents storage that is managed by an external CSI volume driver (Beta feature)",
          "properties": {
            "controllerExpandSecretRef": {
              "description": "SecretReference represents a Secret Reference. It has enough information to retrieve secret in any namespace",
              "properties": {
                "name": {
                  "description": "Name is unique within a namespace to reference a secret resource.",
                  "type": [
                    "string",
                    "null"
                  ]
                },
                "namespace": {
                  "description": "Namespace defines the space within which the secret name must be unique.",
                  "type": [
                    "string",
                    "null"
                  ]
                }
              },
              "type": [
                "object",
                "null"
              ],
              "x-kubernetes-map-type": "atomic",
              "additionalProperties": false
            },
            "controllerPublishSecretRef": {
              "description": "SecretReference represents a Secret Reference. It has enough information to retrieve secret in any namespace",
              "properties": {
                "name": {
                  "description": "Name is unique within a namespace to reference a secret resource.",
                  "type": [
                    "string",
                    "null"
                  ]
                },
                "namespace": {
                  "description": "Namespace defines the space within which the secret name must be unique.",
                  "type": [
                    "string",
                    "null"
                  ]
                }
              },
              "type": [
                "object",
                "null"
              ],
              "x-kubernetes-map-type": "atomic",
              "additionalProperties": false
            },
            "driver": {
              "description": "Driver is the name of the driver to use for this volume. Required.",
              "type": "string"
            },
            "fsType": {
              "description": "Filesystem type to mount. Must be a filesystem type supported by the host operating system. Ex. \"ext4\", \"xfs\", \"ntfs\".",
              "type": [
                "string",
                "null"
              ]
            },
            "nodePublishSecretRef": {
              "description": "SecretReference represents a Secret Reference. It has enough information to retrieve secret in any namespace",
              "properties": {
                "name": {
                  "description": "Name is unique within a namespace to reference a secret resource.",
                  "type": [
                    "string",
                    "null"
                  ]
                },
                "namespace": {
                  "description": "Namespace defines the space within which the secret name must be unique.",
                  "type": [
                    "string",
                    "null"
                  ]
                }
              },
              "type": [
                "object",
                "null"
              ],
              "x-kubernetes-map-type": "atomic",
              "additionalProperties": false
            },
            "nodeStageSecretRef": {
              "description": "SecretReference represents a Secret Reference. It has enough information to retrieve secret in any namespace",
              "properties": {
                "name": {
                  "description": "Name is unique within a namespace to reference a secret resource.",
                  "type": [
                    "string",
                    "null"
                  ]
                },
                "namespace": {
                  "description": "Namespace defines the space within which the secret name must be unique.",
                  "type": [
                    "string",
                    "null"
                  ]
                }
              },
              "type": [
                "object",
                "null"
              ],
              "x-kubernetes-map-type": "atomic",
              "additionalProperties": false
            },
            "readOnly": {
              "description": "Optional: The value to pass to ControllerPublishVolumeRequest. Defaults to false (read/write).",
              "type": [
                "boolean",
                "null"
              ]
            },
            "volumeAttributes": {
              "additionalProperties": {
                "type": [
                  "string",
                  "null"
                ]
              },
              "description": "Attributes of the volume to publish.",
              "type": [
                "object",
                "null"
              ]
            },
            "volumeHandle": {
              "description": "VolumeHandle is the unique volume name returned by the CSI volume plugin\u2019s CreateVolume to refer to the volume on all subsequent calls. Required.",
              "type": "string"
            }
          },
          "required": [
            "driver",
            "volumeHandle"
          ],
          "type": [
            "object",
            "null"
          ],
          "additionalProperties": false
        },
        "fc": {
          "description": "Represents a Fibre Channel volume. Fibre Channel volumes can only be mounted as read/write once. Fibre Channel volumes support ownership management and SELinux relabeling.",
          "properties": {
            "fsType": {
              "description": "Filesystem type to mount. Must be a filesystem type supported by the host operating system. Ex. \"ext4\", \"xfs\", \"ntfs\". Implicitly inferred to be \"ext4\" if unspecified.",
              "type": [
                "string",
                "null"
              ]
            },
            "lun": {
              "description": "Optional: FC target lun number",
              "format": "int32",
              "type": [
                "integer",
                "null"
              ]
            },
            "readOnly": {
              "description": "Optional: Defaults to false (read/write). ReadOnly here will force the ReadOnly setting in VolumeMounts.",
              "type": [
                "boolean",
                "null"
              ]
            },
            "targetWWNs": {
              "description": "Optional: FC target worldwide names (WWNs)",
              "items": {
                "type": [
                  "string",
                  "null"
                ]
              },
              "type": [
                "array",
                "null"
              ]
            },
            "wwids": {
              "description": "Optional: FC volume world wide identifiers (wwids) Either wwids or combination of targetWWNs and lun must be set, but not both simultaneously.",
              "items": {
                "type": [
                  "string",
                  "null"
                ]
              },
              "type": [
                "array",
                "null"
              ]
            }
          },
          "type": [
            "object",
            "null"
          ],
          "additionalProperties": false
        },
        "flexVolume": {
          "description": "FlexPersistentVolumeSource represents a generic persistent volume resource that is provisioned/attached using an exec based plugin.",
          "properties": {
            "driver": {
              "description": "Driver is the name of the driver to use for this volume.",
              "type": "string"
            },
            "fsType": {
              "description": "Filesystem type to mount. Must be a filesystem type supported by the host operating system. Ex. \"ext4\", \"xfs\", \"ntfs\". The default filesystem depends on FlexVolume script.",
              "type": [
                "string",
                "null"
              ]
            },
            "options": {
              "additionalProperties": {
                "type": [
                  "string",
                  "null"
                ]
              },
              "description": "Optional: Extra command options if any.",
              "type": [
                "object",
                "null"
              ]
            },
            "readOnly": {
              "description": "Optional: Defaults to false (read/write). ReadOnly here will force the ReadOnly setting in VolumeMounts.",
              "type": [
                "boolean",
                "null"
              ]
            },
            "secretRef": {
              "description": "SecretReference represents a Secret Reference. It has enough information to retrieve secret in any namespace",
              "properties": {
                "name": {
                  "description": "Name is unique within a namespace to reference a secret resource.",
                  "type": [
                    "string",
                    "null"
                  ]
                },
                "namespace": {
                  "description": "Namespace defines the space within which the secret name must be unique.",
                  "type": [
                    "string",
                    "null"
                  ]
                }
              },
              "type": [
                "object",
                "null"
              ],
              "x-kubernetes-map-type": "atomic",
              "additionalProperties": false
            }
          },
          "required": [
            "driver"
          ],
          "type": [
            "object",
            "null"
          ],
          "additionalProperties": false
        },
        "flocker": {
          "description": "Represents a Flocker volume mounted by the Flocker agent. One and only one of datasetName and datasetUUID should be set. Flocker volumes do not support ownership management or SELinux relabeling.",
          "properties": {
            "datasetName": {
              "description": "Name of the dataset stored as metadata -> name on the dataset for Flocker should be considered as deprecated",
              "type": [
                "string",
                "null"
              ]
            },
            "datasetUUID": {
              "description": "UUID of the dataset. This is unique identifier of a Flocker dataset",
              "type": [
                "string",
                "null"
              ]
            }
          },
          "type": [
            "object",
            "null"
          ],
          "additionalProperties": false
        },
        "gcePersistentDisk": {
          "description": "Represents a Persistent Disk resource in Google Compute Engine.\n\nA GCE PD must exist before mounting to a container. The disk must also be in the same GCE project and zone as the kubelet. A GCE PD can only be mounted as read/write once or read-only many times. GCE PDs support ownership management and SELinux relabeling.",
          "properties": {
            "fsType": {
              "description": "Filesystem type of the volume that you want to mount. Tip: Ensure that the filesystem type is supported by the host operating system. Examples: \"ext4\", \"xfs\", \"ntfs\". Implicitly inferred to be \"ext4\" if unspecified. More info: https://kubernetes.io/docs/concepts/storage/volumes#gcepersistentdisk",
              "type": [
                "string",
                "null"
              ]
            },
            "partition": {
              "description": "The partition in the volume that you want to mount. If omitted, the default is to mount by volume name. Examples: For volume /dev/sda1, you specify the partition as \"1\". Similarly, the volume partition for /dev/sda is \"0\" (or you can leave the property empty). More info: https://kubernetes.io/docs/concepts/storage/volumes#gcepersistentdisk",
              "format": "int32",
              "type": [
                "integer",
                "null"
              ]
            },
            "pdName": {
              "description": "Unique name of the PD resource in GCE. Used to identify the disk in GCE. More info: https://kubernetes.io/docs/concepts/storage/volumes#gcepersistentdisk",
              "type": "string"
            },
            "readOnly": {
              "description": "ReadOnly here will force the ReadOnly setting in VolumeMounts. Defaults to false. More info: https://kubernetes.io/docs/concepts/storage/volumes#gcepersistentdisk",
              "type": [
                "boolean",
                "null"
              ]
            }
          },
          "required": [
            "pdName"
          ],
          "type": [
            "object",
            "null"
          ],
          "additionalProperties": false
        },
        "glusterfs": {
          "description": "Represents a Glusterfs mount that lasts the lifetime of a pod. Glusterfs volumes do not support ownership management or SELinux relabeling.",
          "properties": {
            "endpoints": {
              "description": "EndpointsName is the endpoint name that details Glusterfs topology. More info: https://examples.k8s.io/volumes/glusterfs/README.md#create-a-pod",
              "type": "string"
            },
            "endpointsNamespace": {
              "description": "EndpointsNamespace is the namespace that contains Glusterfs endpoint. If this field is empty, the EndpointNamespace defaults to the same namespace as the bound PVC. More info: https://examples.k8s.io/volumes/glusterfs/README.md#create-a-pod",
              "type": [
                "string",
                "null"
              ]
            },
            "path": {
              "description": "Path is the Glusterfs volume path. More info: https://examples.k8s.io/volumes/glusterfs/README.md#create-a-pod",
              "type": "string"
            },
            "readOnly": {
              "description": "ReadOnly here will force the Glusterfs volume to be mounted with read-only permissions. Defaults to false. More info: https://examples.k8s.io/volumes/glusterfs/README.md#create-a-pod",
              "type": [
                "boolean",
                "null"
              ]
            }
          },
          "required": [
            "endpoints",
            "path"
          ],
          "type": [
            "object",
            "null"
          ],
          "additionalProperties": false
        },
        "hostPath": {
          "description": "Represents a host path mapped into a pod. Host path volumes do not support ownership management or SELinux relabeling.",
          "properties": {
            "path": {
              "description": "Path of the directory on the host. If the path is a symlink, it will follow the link to the real path. More info: https://kubernetes.io/docs/concepts/storage/volumes#hostpath",
              "type": "string"
            },
            "type": {
              "description": "Type for HostPath Volume Defaults to \"\" More info: https://kubernetes.io/docs/concepts/storage/volumes#hostpath",
              "type": [
                "string",
                "null"
              ]
            }
          },
          "required": [
            "path"
          ],
          "type": [
            "object",
            "null"
          ],
          "additionalProperties": false
        },
        "iscsi": {
          "description": "ISCSIPersistentVolumeSource represents an ISCSI disk. ISCSI volumes can only be mounted as read/write once. ISCSI volumes support ownership management and SELinux relabeling.",
          "properties": {
            "chapAuthDiscovery": {
              "description": "whether support iSCSI Discovery CHAP authentication",
              "type": [
                "boolean",
                "null"
              ]
            },
            "chapAuthSession": {
              "description": "whether support iSCSI Session CHAP authentication",
              "type": [
                "boolean",
                "null"
              ]
            },
            "fsType": {
              "description": "Filesystem type of the volume that you want to mount. Tip: Ensure that the filesystem type is supported by the host operating system. Examples: \"ext4\", \"xfs\", \"ntfs\". Implicitly inferred to be \"ext4\" if unspecified. More info: https://kubernetes.io/docs/concepts/storage/volumes#iscsi",
              "type": [
                "string",
                "null"
              ]
            },
            "initiatorName": {
              "description": "Custom iSCSI Initiator Name. If initiatorName is specified with iscsiInterface simultaneously, new iSCSI interface <target portal>:<volume name> will be created for the connection.",
              "type": [
                "string",
                "null"
              ]
            },
            "iqn": {
              "description": "Target iSCSI Qualified Name.",
              "type": "string"
            },
            "iscsiInterface": {
              "description": "iSCSI Interface Name that uses an iSCSI transport. Defaults to 'default' (tcp).",
              "type": [
                "string",
                "null"
              ]
            },
            "lun": {
              "description": "iSCSI Target Lun number.",
              "format": "int32",
              "type": "integer"
            },
            "portals": {
              "description": "iSCSI Target Portal List. The Portal is either an IP or ip_addr:port if the port is other than default (typically TCP ports 860 and 3260).",
              "items": {
                "type": [
                  "string",
                  "null"
                ]
              },
              "type": [
                "array",
                "null"
              ]
            },
            "readOnly": {
              "description": "ReadOnly here will force the ReadOnly setting in VolumeMounts. Defaults to false.",
              "type": [
                "boolean",
                "null"
              ]
            },
            "secretRef": {
              "description": "SecretReference represents a Secret Reference. It has enough information to retrieve secret in any namespace",
              "properties": {
                "name": {
                  "description": "Name is unique within a namespace to reference a secret resource.",
                  "type": [
                    "string",
                    "null"
                  ]
                },
                "namespace": {
                  "description": "Namespace defines the space within which the secret name must be unique.",
                  "type": [
                    "string",
                    "null"
                  ]
                }
              },
              "type": [
                "object",
                "null"
              ],
              "x-kubernetes-map-type": "atomic",
              "additionalProperties": false
            },
            "targetPortal": {
              "description": "iSCSI Target Portal. The Portal is either an IP or ip_addr:port if the port is other than default (typically TCP ports 860 and 3260).",
              "type": "string"
            }
          },
          "required": [
            "targetPortal",
            "iqn",
            "lun"
          ],
          "type": [
            "object",
            "null"
          ],
          "additionalProperties": false
        },
        "local": {
          "description": "Local represents directly-attached storage with node affinity (Beta feature)",
          "properties": {
            "fsType": {
              "description": "Filesystem type to mount. It applies only when the Path is a block device. Must be a filesystem type supported by the host operating system. Ex. \"ext4\", \"xfs\", \"ntfs\". The default value is to auto-select a filesystem if unspecified.",
              "type": [
                "string",
                "null"
              ]
            },
            "path": {
              "description": "The full path to the volume on the node. It can be either a directory or block device (disk, partition, ...).",
              "type": "string"
            }
          },
          "required": [
            "path"
          ],
          "type": [
            "object",
            "null"
          ],
          "additionalProperties": false
        },
        "mountOptions": {
          "description": "A list of mount options, e.g. [\"ro\", \"soft\"]. Not validated - mount will simply fail if one is invalid. More info: https://kubernetes.io/docs/concepts/storage/persistent-volumes/#mount-options",
          "items": {
            "type": [
              "string",
              "null"
            ]
          },
          "type": [
            "array",
            "null"
          ]
        },
        "nfs": {
          "description": "Represents an NFS mount that lasts the lifetime of a pod. NFS volumes do not support ownership management or SELinux relabeling.",
          "properties": {
            "path": {
              "description": "Path that is exported by the NFS server. More info: https://kubernetes.io/docs/concepts/storage/volumes#nfs",
              "type": "string"
            },
            "readOnly": {
              "description": "ReadOnly here will force the NFS export to be mounted with read-only permissions. Defaults to false. More info: https://kubernetes.io/docs/concepts/storage/volumes#nfs",
              "type": [
                "boolean",
                "null"
              ]
            },
            "server": {
              "description": "Server is the hostname or IP address of the NFS server. More info: https://kubernetes.io/docs/concepts/storage/volumes#nfs",
              "type": "string"
            }
          },
          "required": [
            "server",
            "path"
          ],
          "type": [
            "object",
            "null"
          ],
          "additionalProperties": false
        },
        "nodeAffinity": {
          "description": "VolumeNodeAffinity defines constraints that limit what nodes this volume can be accessed from.",
          "properties": {
            "required": {
              "description": "A node selector represents the union of the results of one or more label queries over a set of nodes; that is, it represents the OR of the selectors represented by the node selector terms.",
              "properties": {
                "nodeSelectorTerms": {
                  "description": "Required. A list of node selector terms. The terms are ORed.",
                  "items": {
                    "description": "A null or empty node selector term matches no objects. The requirements of them are ANDed. The TopologySelectorTerm type implements a subset of the NodeSelectorTerm.",
                    "properties": {
                      "matchExpressions": {
                        "description": "A list of node selector requirements by node's labels.",
                        "items": {
                          "description": "A node selector requirement is a selector that contains values, a key, and an operator that relates the key and values.",
                          "properties": {
                            "key": {
                              "description": "The label key that the selector applies to.",
                              "type": "string"
                            },
                            "operator": {
                              "description": "Represents a key's relationship to a set of values. Valid operators are In, NotIn, Exists, DoesNotExist. Gt, and Lt.",
                              "type": "string"
                            },
                            "values": {
                              "description": "An array of string values. If the operator is In or NotIn, the values array must be non-empty. If the operator is Exists or DoesNotExist, the values array must be empty. If the operator is Gt or Lt, the values array must have a single element, which will be interpreted as an integer. This array is replaced during a strategic merge patch.",
                              "items": {
                                "type": [
                                  "string",
                                  "null"
                                ]
                              },
                              "type": [
                                "array",
                                "null"
                              ]
                            }
                          },
                          "required": [
                            "key",
                            "operator"
                          ],
                          "type": [
                            "object",
                            "null"
                          ],
                          "additionalProperties": false
                        },
                        "type": [
                          "array",
                          "null"
                        ]
                      },
                      "matchFields": {
                        "description": "A list of node selector requirements by node's fields.",
                        "items": {
                          "description": "A node selector requirement is a selector that contains values, a key, and an operator that relates the key and values.",
                          "properties": {
                            "key": {
                              "description": "The label key that the selector applies to.",
                              "type": "string"
                            },
                            "operator": {
                              "description": "Represents a key's relationship to a set of values. Valid operators are In, NotIn, Exists, DoesNotExist. Gt, and Lt.",
                              "type": "string"
                            },
                            "values": {
                              "description": "An array of string values. If the operator is In or NotIn, the values array must be non-empty. If the operator is Exists or DoesNotExist, the values array must be empty. If the operator is Gt or Lt, the values array must have a single element, which will be interpreted as an integer. This array is replaced during a strategic merge patch.",
                              "items": {
                                "type": [
                                  "string",
                                  "null"
                                ]
                              },
                              "type": [
                                "array",
                                "null"
                              ]
                            }
                          },
                          "required": [
                            "key",
                            "operator"
                          ],
                          "type": [
                            "object",
                            "null"
                          ],
                          "additionalProperties": false
                        },
                        "type": [
                          "array",
                          "null"
                        ]
                      }
                    },
                    "type": [
                      "object",
                      "null"
                    ],
                    "x-kubernetes-map-type": "atomic",
                    "additionalProperties": false
                  },
                  "type": "array"
                }
              },
              "required": [
                "nodeSelectorTerms"
              ],
              "type": [
                "object",
                "null"
              ],
              "x-kubernetes-map-type": "atomic",
              "additionalProperties": false
            }
          },
          "type": [
            "object",
            "null"
          ],
          "additionalProperties": false
        },
        "persistentVolumeReclaimPolicy": {
          "description": "What happens to a persistent volume when released from its claim. Valid options are Retain (default for manually created PersistentVolumes), Delete (default for dynamically provisioned PersistentVolumes), and Recycle (deprecated). Recycle must be supported by the volume plugin underlying this PersistentVolume. More info: https://kubernetes.io/docs/concepts/storage/persistent-volumes#reclaiming",
          "type": [
            "string",
            "null"
          ]
        },
        "photonPersistentDisk": {
          "description": "Represents a Photon Controller persistent disk resource.",
          "properties": {
            "fsType": {
              "description": "Filesystem type to mount. Must be a filesystem type supported by the host operating system. Ex. \"ext4\", \"xfs\", \"ntfs\". Implicitly inferred to be \"ext4\" if unspecified.",
              "type": [
                "string",
                "null"
              ]
            },
            "pdID": {
              "description": "ID that identifies Photon Controller persistent disk",
              "type": "string"
            }
          },
          "required": [
            "pdID"
          ],
          "type": [
            "object",
            "null"
          ],
          "additionalProperties": false
        },
        "portworxVolume": {
          "description": "PortworxVolumeSource represents a Portworx volume resource.",
          "properties": {
            "fsType": {
              "description": "FSType represents the filesystem type to mount Must be a filesystem type supported by the host operating system. Ex. \"ext4\", \"xfs\". Implicitly inferred to be \"ext4\" if unspecified.",
              "type": [
                "string",
                "null"
              ]
            },
            "readOnly": {
              "description": "Defaults to false (read/write). ReadOnly here will force the ReadOnly setting in VolumeMounts.",
              "type": [
                "boolean",
                "null"
              ]
            },
            "volumeID": {
              "description": "VolumeID uniquely identifies a Portworx volume",
              "type": "string"
            }
          },
          "required": [
            "volumeID"
          ],
          "type": [
            "object",
            "null"
          ],
          "additionalProperties": false
        },
        "quobyte": {
          "description": "Represents a Quobyte mount that lasts the lifetime of a pod. Quobyte volumes do not support ownership management or SELinux relabeling.",
          "properties": {
            "group": {
              "description": "Group to map volume access to Default is no group",
              "type": [
                "string",
                "null"
              ]
            },
            "readOnly": {
              "description": "ReadOnly here will force the Quobyte volume to be mounted with read-only permissions. Defaults to false.",
              "type": [
                "boolean",
                "null"
              ]
            },
            "registry": {
              "description": "Registry represents a single or multiple Quobyte Registry services specified as a string as host:port pair (multiple entries are separated with commas) which acts as the central registry for volumes",
              "type": "string"
            },
            "tenant": {
              "description": "Tenant owning the given Quobyte volume in the Backend Used with dynamically provisioned Quobyte volumes, value is set by the plugin",
              "type": [
                "string",
                "null"
              ]
            },
            "user": {
              "description": "User to map volume access to Defaults to serivceaccount user",
              "type": [
                "string",
                "null"
              ]
            },
            "volume": {
              "description": "Volume is a string that references an already created Quobyte volume by name.",
              "type": "string"
            }
          },
          "required": [
            "registry",
            "volume"
          ],
          "type": [
            "object",
            "null"
          ],
          "additionalProperties": false
        },
        "rbd": {
          "description": "Represents a Rados Block Device mount that lasts the lifetime of a pod. RBD volumes support ownership management and SELinux relabeling.",
          "properties": {
            "fsType": {
              "description": "Filesystem type of the volume that you want to mount. Tip: Ensure that the filesystem type is supported by the host operating system. Examples: \"ext4\", \"xfs\", \"ntfs\". Implicitly inferred to be \"ext4\" if unspecified. More info: https://kubernetes.io/docs/concepts/storage/volumes#rbd",
              "type": [
                "string",
                "null"
              ]
            },
            "image": {
              "description": "The rados image name. More info: https://examples.k8s.io/volumes/rbd/README.md#how-to-use-it",
              "type": "string"
            },
            "keyring": {
              "description": "Keyring is the path to key ring for RBDUser. Default is /etc/ceph/keyring. More info: https://examples.k8s.io/volumes/rbd/README.md#how-to-use-it",
              "type": [
                "string",
                "null"
              ]
            },
            "monitors": {
              "description": "A collection of Ceph monitors. More info: https://examples.k8s.io/volumes/rbd/README.md#how-to-use-it",
              "items": {
                "type": [
                  "string",
                  "null"
                ]
              },
              "type": "array"
            },
            "pool": {
              "description": "The rados pool name. Default is rbd. More info: https://examples.k8s.io/volumes/rbd/README.md#how-to-use-it",
              "type": [
                "string",
                "null"
              ]
            },
            "readOnly": {
              "description": "ReadOnly here will force the ReadOnly setting in VolumeMounts. Defaults to false. More info: https://examples.k8s.io/volumes/rbd/README.md#how-to-use-it",
              "type": [
                "boolean",
                "null"
              ]
            },
            "secretRef": {
              "description": "SecretReference represents a Secret Reference. It has enough information to retrieve secret in any namespace",
              "properties": {
                "name": {
                  "description": "Name is unique within a namespace to reference a secret resource.",
                  "type": [
                    "string",
                    "null"
                  ]
                },
                "namespace": {
                  "description": "Namespace defines the space within which the secret name must be unique.",
                  "type": [
                    "string",
                    "null"
                  ]
                }
              },
              "type": [
                "object",
                "null"
              ],
              "x-kubernetes-map-type": "atomic",
              "additionalProperties": false
            },
            "user": {
              "description": "The rados user name. Default is admin. More info: https://examples.k8s.io/volumes/rbd/README.md#how-to-use-it",
              "type": [
                "string",
                "null"
              ]
            }
          },
          "required": [
            "monitors",
            "image"
          ],
          "type": [
            "object",
            "null"
          ],
          "additionalProperties": false
        },
        "scaleIO": {
          "description": "ScaleIOPersistentVolumeSource represents a persistent ScaleIO volume",
          "properties": {
            "fsType": {
              "description": "Filesystem type to mount. Must be a filesystem type supported by the host operating system. Ex. \"ext4\", \"xfs\", \"ntfs\". Default is \"xfs\"",
              "type": [
                "string",
                "null"
              ]
            },
            "gateway": {
              "description": "The host address of the ScaleIO API Gateway.",
              "type": "string"
            },
            "protectionDomain": {
              "description": "The name of the ScaleIO Protection Domain for the configured storage.",
              "type": [
                "string",
                "null"
              ]
            },
            "readOnly": {
              "description": "Defaults to false (read/write). ReadOnly here will force the ReadOnly setting in VolumeMounts.",
              "type": [
                "boolean",
                "null"
              ]
            },
            "secretRef": {
              "description": "SecretReference represents a Secret Reference. It has enough information to retrieve secret in any namespace",
              "properties": {
                "name": {
                  "description": "Name is unique within a namespace to reference a secret resource.",
                  "type": [
                    "string",
                    "null"
                  ]
                },
                "namespace": {
                  "description": "Namespace defines the space within which the secret name must be unique.",
                  "type": [
                    "string",
                    "null"
                  ]
                }
              },
              "type": "object",
              "x-kubernetes-map-type": "atomic",
              "additionalProperties": false
            },
            "sslEnabled": {
              "description": "Flag to enable/disable SSL communication with Gateway, default false",
              "type": [
                "boolean",
                "null"
              ]
            },
            "storageMode": {
              "description": "Indicates whether the storage for a volume should be ThickProvisioned or ThinProvisioned. Default is ThinProvisioned.",
              "type": [
                "string",
                "null"
              ]
            },
            "storagePool": {
              "description": "The ScaleIO Storage Pool associated with the protection domain.",
              "type": [
                "string",
                "null"
              ]
            },
            "system": {
              "description": "The name of the storage system as configured in ScaleIO.",
              "type": "string"
            },
            "volumeName": {
              "description": "The name of a volume already created in the ScaleIO system that is associated with this volume source.",
              "type": [
                "string",
                "null"
              ]
            }
          },
          "required": [
            "gateway",
            "system",
            "secretRef"
          ],
          "type": [
            "object",
            "null"
          ],
          "additionalProperties": false
        },
        "storageClassName": {
          "description": "Name of StorageClass to which this persistent volume belongs. Empty value means that this volume does not belong to any StorageClass.",
          "type": [
            "string",
            "null"
          ]
        },
        "storageos": {
          "description": "Represents a StorageOS persistent volume resource.",
          "properties": {
            "fsType": {
              "description": "Filesystem type to mount. Must be a filesystem type supported by the host operating system. Ex. \"ext4\", \"xfs\", \"ntfs\". Implicitly inferred to be \"ext4\" if unspecified.",
              "type": [
                "string",
                "null"
              ]
            },
            "readOnly": {
              "description": "Defaults to false (read/write). ReadOnly here will force the ReadOnly setting in VolumeMounts.",
              "type": [
                "boolean",
                "null"
              ]
            },
            "secretRef": {
              "description": "ObjectReference contains enough information to let you inspect or modify the referred object.",
              "properties": {
                "apiVersion": {
                  "description": "API version of the referent.",
                  "type": [
                    "string",
                    "null"
                  ]
                },
                "fieldPath": {
                  "description": "If referring to a piece of an object instead of an entire object, this string should contain a valid JSON/Go field access statement, such as desiredState.manifest.containers[2]. For example, if the object reference is to a container within a pod, this would take on a value like: \"spec.containers{name}\" (where \"name\" refers to the name of the container that triggered the event) or if no container name is specified \"spec.containers[2]\" (container with index 2 in this pod). This syntax is chosen only to have some well-defined way of referencing a part of an object.",
                  "type": [
                    "string",
                    "null"
                  ]
                },
                "kind": {
                  "description": "Kind of the referent. More info: https://git.k8s.io/community/contributors/devel/sig-architecture/api-conventions.md#types-kinds",
                  "type": [
                    "string",
                    "null"
                  ]
                },
                "name": {
                  "description": "Name of the referent. More info: https://kubernetes.io/docs/concepts/overview/working-with-objects/names/#names",
                  "type": [
                    "string",
                    "null"
                  ]
                },
                "namespace": {
                  "description": "Namespace of the referent. More info: https://kubernetes.io/docs/concepts/overview/working-with-objects/namespaces/",
                  "type": [
                    "string",
                    "null"
                  ]
                },
                "resourceVersion": {
                  "description": "Specific resourceVersion to which this reference is made, if any. More info: https://git.k8s.io/community/contributors/devel/sig-architecture/api-conventions.md#concurrency-control-and-consistency",
                  "type": [
                    "string",
                    "null"
                  ]
                },
                "uid": {
                  "description": "UID of the referent. More info: https://kubernetes.io/docs/concepts/overview/working-with-objects/names/#uids",
                  "type": [
                    "string",
                    "null"
                  ]
                }
              },
              "type": [
                "object",
                "null"
              ],
              "x-kubernetes-map-type": "atomic",
              "additionalProperties": false
            },
            "volumeName": {
              "description": "VolumeName is the human-readable name of the StorageOS volume.  Volume names are only unique within a namespace.",
              "type": [
                "string",
                "null"
              ]
            },
            "volumeNamespace": {
              "description": "VolumeNamespace specifies the scope of the volume within StorageOS.  If no namespace is specified then the Pod's namespace will be used.  This allows the Kubernetes name scoping to be mirrored within StorageOS for tighter integration. Set VolumeName to any name to override the default behaviour. Set to \"default\" if you are not using namespaces within StorageOS. Namespaces that do not pre-exist within StorageOS will be created.",
              "type": [
                "string",
                "null"
              ]
            }
          },
          "type": [
            "object",
            "null"
          ],
          "additionalProperties": false
        },
        "volumeMode": {
          "description": "volumeMode defines if a volume is intended to be used with a formatted filesystem or to remain in raw block state. Value of Filesystem is implied when not included in spec.",
          "type": [
            "string",
            "null"
          ]
        },
        "vsphereVolume": {
          "description": "Represents a vSphere volume resource.",
          "properties": {
            "fsType": {
              "description": "Filesystem type to mount. Must be a filesystem type supported by the host operating system. Ex. \"ext4\", \"xfs\", \"ntfs\". Implicitly inferred to be \"ext4\" if unspecified.",
              "type": [
                "string",
                "null"
              ]
            },
            "storagePolicyID": {
              "description": "Storage Policy Based Management (SPBM) profile ID associated with the StoragePolicyName.",
              "type": [
                "string",
                "null"
              ]
            },
            "storagePolicyName": {
              "description": "Storage Policy Based Management (SPBM) profile name.",
              "type": [
                "string",
                "null"
              ]
            },
            "volumePath": {
              "description": "Path that identifies vSphere volume vmdk",
              "type": "string"
            }
          },
          "required": [
            "volumePath"
          ],
          "type": [
            "object",
            "null"
          ],
          "additionalProperties": false
        }
      },
      "type": [
        "object",
        "null"
      ],
      "additionalProperties": false
    },
    "persistentVolumeName": {
      "description": "Name of the persistent volume to attach.",
      "type": [
        "string",
        "null"
      ]
    }
  },
  "type": "object",
  "additionalProperties": false,
  "$schema": "http://json-schema.org/schema#"
}