{
  "description": "EventSeries contain information on series of events, i.e. thing that was/is happening continuously for some time.",
  "properties": {
    "count": {
      "description": "Number of occurrences in this series up to the last heartbeat time",
      "format": "int32",
      "type": [
        "integer",
        "null"
      ]
    },
    "lastObservedTime": {
      "$ref": "https://raw.githubusercontent.com/yannh/kubernetes-json-schema/master/v1.18.12/_definitions.json#/definitions/io.k8s.apimachinery.pkg.apis.meta.v1.MicroTime",
      "description": "Time when last Event from the series was seen before last heartbeat."
    },
    "state": {
      "description": "Information whether this series is ongoing or finished. Deprecated. Planned removal for 1.18",
      "type": [
        "string",
        "null"
      ]
    }
  },
  "required": [
    "count",
    "lastObservedTime",
    "state"
  ],
  "type": "object",
  "$schema": "http://json-schema.org/schema#"
}