{
  "description": "PodDisruptionBudgetStatus represents information about the status of a PodDisruptionBudget. Status may trail the actual state of a system.",
  "properties": {
    "currentHealthy": {
      "description": "current number of healthy pods",
      "format": "int32",
      "type": [
        "integer",
        "null"
      ]
    },
    "desiredHealthy": {
      "description": "minimum desired number of healthy pods",
      "format": "int32",
      "type": [
        "integer",
        "null"
      ]
    },
    "disruptedPods": {
      "additionalProperties": {
        "$ref": "https://raw.githubusercontent.com/yannh/kubernetes-json-schema/master/v1.18.12/_definitions.json#/definitions/io.k8s.apimachinery.pkg.apis.meta.v1.Time"
      },
      "description": "DisruptedPods contains information about pods whose eviction was processed by the API server eviction subresource handler but has not yet been observed by the PodDisruptionBudget controller. A pod will be in this map from the time when the API server processed the eviction request to the time when the pod is seen by PDB controller as having been marked for deletion (or after a timeout). The key in the map is the name of the pod and the value is the time when the API server processed the eviction request. If the deletion didn't occur and a pod is still there it will be removed from the list automatically by PodDisruptionBudget controller after some time. If everything goes smooth this map should be empty for the most of the time. Large number of entries in the map may indicate problems with pod deletions.",
      "type": [
        "object",
        "null"
      ]
    },
    "disruptionsAllowed": {
      "description": "Number of pod disruptions that are currently allowed.",
      "format": "int32",
      "type": [
        "integer",
        "null"
      ]
    },
    "expectedPods": {
      "description": "total number of pods counted by this disruption budget",
      "format": "int32",
      "type": [
        "integer",
        "null"
      ]
    },
    "observedGeneration": {
      "description": "Most recent generation observed when updating this PDB status. DisruptionsAllowed and other status information is valid only if observedGeneration equals to PDB's object generation.",
      "format": "int64",
      "type": [
        "integer",
        "null"
      ]
    }
  },
  "required": [
    "disruptionsAllowed",
    "currentHealthy",
    "desiredHealthy",
    "expectedPods"
  ],
  "type": "object",
  "$schema": "http://json-schema.org/schema#"
}