{
  "description": "Event is a report of an event somewhere in the cluster. It generally denotes some state change in the system.",
  "properties": {
    "action": {
      "description": "What action was taken/failed regarding to the regarding object.",
      "type": [
        "string",
        "null"
      ]
    },
    "apiVersion": {
      "description": "APIVersion defines the versioned schema of this representation of an object. Servers should convert recognized schemas to the latest internal value, and may reject unrecognized values. More info: https://git.k8s.io/community/contributors/devel/sig-architecture/api-conventions.md#resources",
      "type": [
        "string",
        "null"
      ],
      "enum": [
        "events.k8s.io/v1beta1"
      ]
    },
    "deprecatedCount": {
      "description": "Deprecated field assuring backward compatibility with core.v1 Event type",
      "format": "int32",
      "type": [
        "integer",
        "null"
      ]
    },
    "deprecatedFirstTimestamp": {
      "$ref": "https://raw.githubusercontent.com/yannh/kubernetes-json-schema/master/v1.16.14/_definitions.json#/definitions/io.k8s.apimachinery.pkg.apis.meta.v1.Time",
      "description": "Deprecated field assuring backward compatibility with core.v1 Event type"
    },
    "deprecatedLastTimestamp": {
      "$ref": "https://raw.githubusercontent.com/yannh/kubernetes-json-schema/master/v1.16.14/_definitions.json#/definitions/io.k8s.apimachinery.pkg.apis.meta.v1.Time",
      "description": "Deprecated field assuring backward compatibility with core.v1 Event type"
    },
    "deprecatedSource": {
      "$ref": "https://raw.githubusercontent.com/yannh/kubernetes-json-schema/master/v1.16.14/_definitions.json#/definitions/io.k8s.api.core.v1.EventSource",
      "description": "Deprecated field assuring backward compatibility with core.v1 Event type"
    },
    "eventTime": {
      "$ref": "https://raw.githubusercontent.com/yannh/kubernetes-json-schema/master/v1.16.14/_definitions.json#/definitions/io.k8s.apimachinery.pkg.apis.meta.v1.MicroTime",
      "description": "Required. Time when this Event was first observed."
    },
    "kind": {
      "description": "Kind is a string value representing the REST resource this object represents. Servers may infer this from the endpoint the client submits requests to. Cannot be updated. In CamelCase. More info: https://git.k8s.io/community/contributors/devel/sig-architecture/api-conventions.md#types-kinds",
      "type": [
        "string",
        "null"
      ],
      "enum": [
        "Event"
      ]
    },
    "metadata": {
      "$ref": "https://raw.githubusercontent.com/yannh/kubernetes-json-schema/master/v1.16.14/_definitions.json#/definitions/io.k8s.apimachinery.pkg.apis.meta.v1.ObjectMeta"
    },
    "note": {
      "description": "Optional. A human-readable description of the status of this operation. Maximal length of the note is 1kB, but libraries should be prepared to handle values up to 64kB.",
      "type": [
        "string",
        "null"
      ]
    },
    "reason": {
      "description": "Why the action was taken.",
      "type": [
        "string",
        "null"
      ]
    },
    "regarding": {
      "$ref": "https://raw.githubusercontent.com/yannh/kubernetes-json-schema/master/v1.16.14/_definitions.json#/definitions/io.k8s.api.core.v1.ObjectReference",
      "description": "The object this Event is about. In most cases it's an Object reporting controller implements. E.g. ReplicaSetController implements ReplicaSets and this event is emitted because it acts on some changes in a ReplicaSet object."
    },
    "related": {
      "$ref": "https://raw.githubusercontent.com/yannh/kubernetes-json-schema/master/v1.16.14/_definitions.json#/definitions/io.k8s.api.core.v1.ObjectReference",
      "description": "Optional secondary object for more complex actions. E.g. when regarding object triggers a creation or deletion of related object."
    },
    "reportingController": {
      "description": "Name of the controller that emitted this Event, e.g. `kubernetes.io/kubelet`.",
      "type": [
        "string",
        "null"
      ]
    },
    "reportingInstance": {
      "description": "ID of the controller instance, e.g. `kubelet-xyzf`.",
      "type": [
        "string",
        "null"
      ]
    },
    "series": {
      "$ref": "https://raw.githubusercontent.com/yannh/kubernetes-json-schema/master/v1.16.14/_definitions.json#/definitions/io.k8s.api.events.v1beta1.EventSeries",
      "description": "Data about the Event series this event represents or nil if it's a singleton Event."
    },
    "type": {
      "description": "Type of this event (Normal, Warning), new types could be added in the future.",
      "type": [
        "string",
        "null"
      ]
    }
  },
  "required": [
    "eventTime"
  ],
  "type": "object",
  "x-kubernetes-group-version-kind": [
    {
      "group": "events.k8s.io",
      "kind": "Event",
      "version": "v1beta1"
    }
  ],
  "$schema": "http://json-schema.org/schema#"
}