{
  "description": "JSONSchemaProps is a JSON-Schema following Specification Draft 4 (http://json-schema.org/).",
  "properties": {
    "$ref": {
      "type": [
        "string",
        "null"
      ]
    },
    "$schema": {
      "type": [
        "string",
        "null"
      ]
    },
    "additionalItems": {
      "$ref": "https://raw.githubusercontent.com/yannh/kubernetes-json-schema/master/v1.16.13/_definitions.json#/definitions/io.k8s.apiextensions-apiserver.pkg.apis.apiextensions.v1beta1.JSONSchemaPropsOrBool"
    },
    "additionalProperties": {
      "$ref": "https://raw.githubusercontent.com/yannh/kubernetes-json-schema/master/v1.16.13/_definitions.json#/definitions/io.k8s.apiextensions-apiserver.pkg.apis.apiextensions.v1beta1.JSONSchemaPropsOrBool"
    },
    "allOf": {
      "items": {
        "$ref": "https://raw.githubusercontent.com/yannh/kubernetes-json-schema/master/v1.16.13/_definitions.json#/definitions/io.k8s.apiextensions-apiserver.pkg.apis.apiextensions.v1beta1.JSONSchemaProps"
      },
      "type": [
        "array",
        "null"
      ]
    },
    "anyOf": {
      "items": {
        "$ref": "https://raw.githubusercontent.com/yannh/kubernetes-json-schema/master/v1.16.13/_definitions.json#/definitions/io.k8s.apiextensions-apiserver.pkg.apis.apiextensions.v1beta1.JSONSchemaProps"
      },
      "type": [
        "array",
        "null"
      ]
    },
    "default": {
      "$ref": "https://raw.githubusercontent.com/yannh/kubernetes-json-schema/master/v1.16.13/_definitions.json#/definitions/io.k8s.apiextensions-apiserver.pkg.apis.apiextensions.v1beta1.JSON",
      "description": "default is a default value for undefined object fields. Defaulting is a beta feature under the CustomResourceDefaulting feature gate. CustomResourceDefinitions with defaults must be created using the v1 (or newer) CustomResourceDefinition API."
    },
    "definitions": {
      "additionalProperties": {
        "$ref": "https://raw.githubusercontent.com/yannh/kubernetes-json-schema/master/v1.16.13/_definitions.json#/definitions/io.k8s.apiextensions-apiserver.pkg.apis.apiextensions.v1beta1.JSONSchemaProps"
      },
      "type": [
        "object",
        "null"
      ]
    },
    "dependencies": {
      "additionalProperties": {
        "$ref": "https://raw.githubusercontent.com/yannh/kubernetes-json-schema/master/v1.16.13/_definitions.json#/definitions/io.k8s.apiextensions-apiserver.pkg.apis.apiextensions.v1beta1.JSONSchemaPropsOrStringArray"
      },
      "type": [
        "object",
        "null"
      ]
    },
    "description": {
      "type": [
        "string",
        "null"
      ]
    },
    "enum": {
      "items": {
        "$ref": "https://raw.githubusercontent.com/yannh/kubernetes-json-schema/master/v1.16.13/_definitions.json#/definitions/io.k8s.apiextensions-apiserver.pkg.apis.apiextensions.v1beta1.JSON"
      },
      "type": [
        "array",
        "null"
      ]
    },
    "example": {
      "$ref": "https://raw.githubusercontent.com/yannh/kubernetes-json-schema/master/v1.16.13/_definitions.json#/definitions/io.k8s.apiextensions-apiserver.pkg.apis.apiextensions.v1beta1.JSON"
    },
    "exclusiveMaximum": {
      "type": [
        "boolean",
        "null"
      ]
    },
    "exclusiveMinimum": {
      "type": [
        "boolean",
        "null"
      ]
    },
    "externalDocs": {
      "$ref": "https://raw.githubusercontent.com/yannh/kubernetes-json-schema/master/v1.16.13/_definitions.json#/definitions/io.k8s.apiextensions-apiserver.pkg.apis.apiextensions.v1beta1.ExternalDocumentation"
    },
    "format": {
      "type": [
        "string",
        "null"
      ]
    },
    "id": {
      "type": [
        "string",
        "null"
      ]
    },
    "items": {
      "$ref": "https://raw.githubusercontent.com/yannh/kubernetes-json-schema/master/v1.16.13/_definitions.json#/definitions/io.k8s.apiextensions-apiserver.pkg.apis.apiextensions.v1beta1.JSONSchemaPropsOrArray"
    },
    "maxItems": {
      "format": "int64",
      "type": [
        "integer",
        "null"
      ]
    },
    "maxLength": {
      "format": "int64",
      "type": [
        "integer",
        "null"
      ]
    },
    "maxProperties": {
      "format": "int64",
      "type": [
        "integer",
        "null"
      ]
    },
    "maximum": {
      "format": "double",
      "type": [
        "number",
        "null"
      ]
    },
    "minItems": {
      "format": "int64",
      "type": [
        "integer",
        "null"
      ]
    },
    "minLength": {
      "format": "int64",
      "type": [
        "integer",
        "null"
      ]
    },
    "minProperties": {
      "format": "int64",
      "type": [
        "integer",
        "null"
      ]
    },
    "minimum": {
      "format": "double",
      "type": [
        "number",
        "null"
      ]
    },
    "multipleOf": {
      "format": "double",
      "type": [
        "number",
        "null"
      ]
    },
    "not": {
      "$ref": "https://raw.githubusercontent.com/yannh/kubernetes-json-schema/master/v1.16.13/_definitions.json#/definitions/io.k8s.apiextensions-apiserver.pkg.apis.apiextensions.v1beta1.JSONSchemaProps"
    },
    "nullable": {
      "type": [
        "boolean",
        "null"
      ]
    },
    "oneOf": {
      "items": {
        "$ref": "https://raw.githubusercontent.com/yannh/kubernetes-json-schema/master/v1.16.13/_definitions.json#/definitions/io.k8s.apiextensions-apiserver.pkg.apis.apiextensions.v1beta1.JSONSchemaProps"
      },
      "type": [
        "array",
        "null"
      ]
    },
    "pattern": {
      "type": [
        "string",
        "null"
      ]
    },
    "patternProperties": {
      "additionalProperties": {
        "$ref": "https://raw.githubusercontent.com/yannh/kubernetes-json-schema/master/v1.16.13/_definitions.json#/definitions/io.k8s.apiextensions-apiserver.pkg.apis.apiextensions.v1beta1.JSONSchemaProps"
      },
      "type": [
        "object",
        "null"
      ]
    },
    "properties": {
      "additionalProperties": {
        "$ref": "https://raw.githubusercontent.com/yannh/kubernetes-json-schema/master/v1.16.13/_definitions.json#/definitions/io.k8s.apiextensions-apiserver.pkg.apis.apiextensions.v1beta1.JSONSchemaProps"
      },
      "type": [
        "object",
        "null"
      ]
    },
    "required": {
      "items": {
        "type": "string"
      },
      "type": [
        "array",
        "null"
      ]
    },
    "title": {
      "type": [
        "string",
        "null"
      ]
    },
    "type": {
      "type": [
        "string",
        "null"
      ]
    },
    "uniqueItems": {
      "type": [
        "boolean",
        "null"
      ]
    },
    "x-kubernetes-embedded-resource": {
      "description": "x-kubernetes-embedded-resource defines that the value is an embedded Kubernetes runtime.Object, with TypeMeta and ObjectMeta. The type must be object. It is allowed to further restrict the embedded object. kind, apiVersion and metadata are validated automatically. x-kubernetes-preserve-unknown-fields is allowed to be true, but does not have to be if the object is fully specified (up to kind, apiVersion, metadata).",
      "type": [
        "boolean",
        "null"
      ]
    },
    "x-kubernetes-int-or-string": {
      "description": "x-kubernetes-int-or-string specifies that this value is either an integer or a string. If this is true, an empty type is allowed and type as child of anyOf is permitted if following one of the following patterns:\n\n1) anyOf:\n   - type: integer\n   - type: string\n2) allOf:\n   - anyOf:\n     - type: integer\n     - type: string\n   - ... zero or more",
      "type": [
        "boolean",
        "null"
      ]
    },
    "x-kubernetes-list-map-keys": {
      "description": "x-kubernetes-list-map-keys annotates an array with the x-kubernetes-list-type `map` by specifying the keys used as the index of the map.\n\nThis tag MUST only be used on lists that have the \"x-kubernetes-list-type\" extension set to \"map\". Also, the values specified for this attribute must be a scalar typed field of the child structure (no nesting is supported).",
      "items": {
        "type": "string"
      },
      "type": [
        "array",
        "null"
      ]
    },
    "x-kubernetes-list-type": {
      "description": "x-kubernetes-list-type annotates an array to further describe its topology. This extension must only be used on lists and may have 3 possible values:\n\n1) `atomic`: the list is treated as a single entity, like a scalar.\n     Atomic lists will be entirely replaced when updated. This extension\n     may be used on any type of list (struct, scalar, ...).\n2) `set`:\n     Sets are lists that must not have multiple items with the same value. Each\n     value must be a scalar, an object with x-kubernetes-map-type `atomic` or an\n     array with x-kubernetes-list-type `atomic`.\n3) `map`:\n     These lists are like maps in that their elements have a non-index key\n     used to identify them. Order is preserved upon merge. The map tag\n     must only be used on a list with elements of type object.\nDefaults to atomic for arrays.",
      "type": [
        "string",
        "null"
      ]
    },
    "x-kubernetes-preserve-unknown-fields": {
      "description": "x-kubernetes-preserve-unknown-fields stops the API server decoding step from pruning fields which are not specified in the validation schema. This affects fields recursively, but switches back to normal pruning behaviour if nested properties or additionalProperties are specified in the schema. This can either be true or undefined. False is forbidden.",
      "type": [
        "boolean",
        "null"
      ]
    }
  },
  "type": "object",
  "$schema": "http://json-schema.org/schema#"
}