{
  "description": "CustomResourceValidation is a list of validation methods for CustomResources.",
  "properties": {
    "openAPIV3Schema": {
      "$ref": "https://raw.githubusercontent.com/yannh/kubernetes-json-schema/master/v1.15.1/_definitions.json#/definitions/io.k8s.apiextensions-apiserver.pkg.apis.apiextensions.v1beta1.JSONSchemaProps",
      "description": "OpenAPIV3Schema is the OpenAPI v3 schema to be validated against."
    }
  },
  "type": "object",
  "$schema": "http://json-schema.org/schema#"
}